# Electrode atom charges in atomic unit
# -------------------------------------
# Charge:   1 au = 1.602176565e-19 C = 1 e
# step        0
-1.144596441289490E-003
-5.949295169694339E-004
-9.718015339562726E-004
+7.914821630573225E-004
+5.875889172606769E-004
+2.075071972250662E-003
+2.094053670469710E-003
+1.780021869102391E-003
+1.385702306101736E-003
+9.903362710554486E-004
+3.181887657122101E-004
-3.325444441113176E-006
+2.301749164736778E-004
+3.621141947842091E-004
+6.948640234250905E-004
+1.296524789496834E-003
+1.673710461587035E-003
+5.670057181359663E-004
+1.102558312572581E-003
+3.808782301544560E-004
+7.312265559355799E-004
+1.465786649012370E-003
+9.453859419716947E-004
+1.226399166587487E-003
+1.192089557776236E-003
+9.637603504481347E-004
+5.795584540358604E-004
+1.002438821991373E-003
+8.003096653811322E-004
+2.644796292000852E-004
-3.115877031354166E-004
+4.143568368594542E-004
+1.784478769504335E-003
+3.172159834914962E-003
+2.499942940320984E-003
+2.702147487300627E-003
+1.740350831032372E-003
+1.113211814525325E-004
+7.435988725798895E-004
+1.131597591613351E-004
+1.257402099825045E-003
-2.387152558099948E-004
-1.782457594343224E-004
-1.068636150639380E-003
+1.336261577705439E-003
+1.349271321562255E-003
+3.453181065233549E-003
+2.314086495954872E-003
+3.559051382711082E-004
-1.763884891326849E-003
-1.977850060166361E-003
-2.767080640088503E-003
-1.220980948473941E-003
-2.575626091135754E-003
-2.651790773435440E-003
-3.122811626174889E-003
-1.482778877170429E-003
-1.841922558638983E-003
+4.385005283367134E-004
-4.717774668145064E-004
-1.194021903423646E-003
-1.369671167437856E-003
-2.218838330146087E-003
-1.608631997008957E-003
-2.070025461616911E-003
+5.356295408497783E-005
-1.787866803052093E-003
+3.000244829387671E-004
-2.254548544279846E-003
-5.975022065317260E-004
-1.385911932617479E-003
-8.460196297081072E-004
-3.919264703423911E-003
-1.057555393670495E-003
+4.794202708583384E-004
-3.457034551792785E-003
-2.620398363388106E-003
-4.706512322226848E-003
-6.921803257272473E-003
-1.209676526918813E-005
-1.179096211585585E-003
-4.471376180266004E-003
-1.998991337101230E-003
+2.467615698914015E-003
+1.633695404464080E-003
-2.610581629065524E-003
-1.533817382866580E-003
+1.661905104815450E-004
+2.508993760113893E-003
+5.977595447233805E-004
-1.775723900876142E-003
-8.011959440108056E-004
+3.845294429053542E-003
+3.053783744627181E-003
-7.245559443465165E-003
-7.431803164522665E-003
-9.660080592396429E-004
+1.742105771916524E-003
-2.259208781591157E-003
+5.717329616752553E-004
-5.674086253791511E-003
-3.726019922354476E-003
+1.048792083912344E-003
-5.289640606228744E-003
-3.836927600084756E-003
-8.909507931447394E-003
+2.018569124463558E-003
-2.064098715350040E-003
-2.897296440842921E-003
-2.495517410277886E-003
-7.529872222459809E-004
-2.148188480382611E-003
-2.421007654902086E-003
-2.046338685629257E-003
-2.171571458066629E-004
+1.171749673179898E-003
-4.834881931776261E-003
-7.332599353177731E-004
-2.228661862173113E-003
-7.773107924148383E-003
-6.523006587837686E-003
-2.633233275275875E-003
+2.722967788650728E-003
-1.827284225806726E-003
+1.324160638952031E-003
-4.568829364133794E-003
+3.500833251425561E-003
+2.284426530680007E-005
-2.855289634838248E-003
-1.064040171458981E-003
+3.321644493270962E-003
+6.346855648717519E-003
+1.374101901082448E-004
+2.799901727460178E-003
+5.269701929635271E-004
-5.866623771392667E-004
+9.337224542391191E-003
-2.551178727737468E-003
-1.109918170388416E-002
+3.395834574027668E-003
+7.744245376834390E-003
-9.569329799888383E-004
-1.798689330374634E-003
-3.290073553043086E-003
+1.308884691126734E-002
-3.946608574942217E-002
-2.703560816236234E-002
-6.211558374741381E-002
-6.559293139200205E-002
-7.326132717451227E-002
-8.171961411779780E-002
-3.862325854879411E-002
-5.485398244288435E-002
-3.261450310948324E-002
-4.687407189289805E-002
-2.176231200680179E-002
-6.366162230491529E-002
+6.362218500176202E-003
-3.009552807441657E-002
+3.143227936721774E-002
+2.502793674367241E-002
-3.796487792442851E-002
-6.964332943658713E-002
-5.075419284769637E-002
+6.945123549693706E-003
-7.170243163516843E-002
-8.734015234591493E-002
-5.417698176687328E-002
-4.041654264219566E-002
-3.731090376101714E-002
+2.550874529132298E-004
-6.273725158210690E-002
-5.934079534681561E-002
-9.656941210323575E-002
-4.699103257102160E-002
-8.289285139588518E-003
-1.228762012752066E-001
-6.129042973168516E-002
-7.990642256485708E-002
-6.643409404396013E-002
-3.792269131473137E-002
-4.082664913540075E-002
-4.666024091108376E-002
-3.263559555486702E-002
-7.191017184755914E-002
-4.566358606317088E-002
-2.975474732923802E-002
+1.026060854633610E-002
-3.746159797942386E-002
-1.688991518661227E-002
-8.720404656635730E-002
-6.711393451188492E-002
-8.645256481857651E-002
-3.360462649882228E-002
-3.785110521126051E-002
+1.219776008960566E-002
-5.668231641643273E-002
-2.411785516531062E-002
-6.257673520280135E-003
+1.638711951660480E-002
-4.154159621372110E-002
-6.378319375069798E-002
+3.075071742418611E-002
-1.579860930301045E-002
-2.752543833813317E-002
+6.484760579334481E-003
-3.187215751831184E-002
-3.549345021825929E-003
-1.853435669720971E-003
-1.629679804463418E-002
-3.853485009160156E-002
-6.506034386666965E-002
-3.308107402300079E-003
-4.794733202985421E-002
-4.441550208048092E-002
-2.323027126883222E-002
-1.382209158402923E-002
+3.644164575505960E-003
+2.228571119696908E-002
+6.374251196165595E-002
+5.557894558176084E-002
+1.111605439514787E-001
+9.398591751852571E-002
+1.056911111830904E-001
+1.007735570703023E-001
+7.339597477653521E-002
+6.790099657803313E-002
+1.860346596357110E-002
+5.441142399189684E-002
+1.348035310631228E-002
+6.733639900971969E-002
+8.932595855569683E-002
+7.419840224355671E-002
+4.702956588676548E-002
+3.201744964117022E-002
+4.959991111484849E-002
+2.197703612609869E-002
+4.748475344108099E-002
+4.023932382212319E-002
+6.867845187458967E-002
+3.820576504731086E-002
+3.700129906769430E-002
+1.535244117507980E-002
+3.698244799429359E-003
+2.534821024434750E-002
-3.881999283521056E-003
+1.489403294417344E-002
+4.486257285888278E-002
+8.136393994255046E-002
+1.091165452425047E-001
+9.289221026244707E-002
+6.301828703718972E-002
+5.541268550017352E-002
+3.919796269498900E-002
+3.555862620478781E-002
+5.500695660067167E-002
+8.636381471858830E-002
+3.607082669395358E-002
+5.203500724663465E-002
+3.863064784382469E-002
+5.336501551787717E-002
+5.679575905076047E-002
+1.225365463367847E-001
+8.385213099070563E-002
+5.689617155310908E-002
+2.462946947769841E-003
-3.609497136058076E-002
-4.356736009474012E-002
+8.470082124648162E-003
-4.025786318098105E-003
-6.611612058883015E-002
-5.241210231791420E-002
+5.281267704426369E-002
-5.396100204401298E-002
+5.723706387204980E-002
+4.714307327341021E-002
+1.033340528106912E-002
+5.699670139192032E-002
+3.587715629040337E-004
+1.963127801912950E-002
-1.372014089132458E-002
+6.646625445336919E-002
+1.608797762868145E-002
+5.014112256451188E-002
-4.540083187522294E-002
+2.751501565131561E-002
+3.876948132686778E-003
+7.189483635379261E-004
+7.020390216426660E-006
-8.801724371053312E-004
+6.051789705070270E-003
-2.715294728918594E-003
-7.836827589399366E-004
+7.995282283094048E-003
+8.264106608651116E-003
+2.850800375189210E-003
+5.464497097719867E-003
+4.929154106374719E-003
+4.026639240823970E-003
+1.101383707771568E-004
+3.481137061799292E-003
-2.610610775089719E-003
-1.338353616240260E-003
+9.590853010308738E-003
+9.189114988499548E-003
-1.210169601237992E-003
-1.434579423588933E-004
-4.592627633965916E-004
+7.270547900108460E-003
+1.133996360166918E-003
-1.952738914337701E-003
+4.227122131824354E-003
-1.805777234085459E-003
+2.514508781986821E-003
+2.931169292357249E-003
+3.923917076420043E-004
+1.708965844356922E-003
-1.126931931900730E-003
-2.238566751577828E-003
+8.736897219351956E-004
-1.175356048680403E-003
+4.641169029127139E-003
+6.536498672255114E-003
-1.913418236932672E-003
+3.191617106295013E-003
+2.231117557669025E-003
-2.026572756570471E-003
+4.023308631161788E-003
+5.946196598332786E-003
+2.552337964760799E-003
+9.524907221898817E-004
+2.940524698292004E-003
+2.732835713904099E-003
+5.671027224133914E-003
+1.699214731381701E-003
+8.226126132572354E-003
-1.541942123567140E-003
-3.779142190810502E-004
-5.673716959211922E-003
-3.848158729464515E-003
+1.041459053154727E-003
-5.288208563679979E-003
-8.636606824089028E-003
+2.720014674844449E-003
-1.500506745004780E-003
+1.095208404540737E-003
+1.608161286052462E-003
+4.019498070855488E-003
+4.853798615545398E-004
+3.233927213272662E-003
-2.292712656226548E-003
+1.608828164775320E-003
-7.558843212529189E-004
+8.949979851937921E-004
+1.593598534483547E-003
+3.485476228685202E-003
-6.963569799677758E-005
-7.584485200854521E-003
+2.879724047128778E-003
-2.925479136008838E-004
+1.391362500235367E-003
+7.952124117381929E-004
+8.861234564783081E-004
-2.971249713504944E-005
-7.944407784239769E-004
-1.679610683989939E-003
-1.905862711081588E-003
-1.014180760252254E-003
-4.866252573303673E-004
-6.161190206953757E-004
-1.838277050783266E-004
-2.441165396857499E-005
-4.477911485705826E-005
+1.208189517279998E-003
+8.098799152863494E-004
+7.725755027490163E-004
-1.802835029640864E-004
-8.302314578109674E-004
-1.047126505219048E-003
-9.428912158680997E-004
-4.109154660009063E-004
-2.024379928590132E-003
-1.507487401771476E-003
-1.622536811845946E-003
-4.030759046361868E-005
+2.004338691466291E-004
+1.160082585367434E-003
-8.065139273306718E-004
-8.932890331858390E-004
-1.695656465608477E-003
-1.309183557498640E-003
-7.334486239954446E-004
-1.926030241213517E-003
-2.127517821605437E-003
-2.735239314733561E-003
-1.751730024611027E-003
-1.263048902428995E-003
-1.047438329921732E-003
-7.311901874661570E-004
-9.017006207232492E-004
-1.725320561239932E-003
+1.812413462179157E-004
+1.463701850354573E-005
+1.525216724908141E-003
-1.406454525529259E-004
+3.766693080094756E-005
-1.669799513762019E-003
-1.251366963880205E-003
-9.512583158592548E-004
+4.044359632378069E-004
-1.171764003115830E-004
+1.269455391870182E-003
+5.139992248836127E-004
+1.701772417860029E-003
+2.360603176848288E-003
+2.348952085770602E-003
+1.278364723963500E-003
+1.023252653013583E-003
+2.828779897627552E-004
+1.197769151432022E-004
+9.029503535858926E-004
+1.556285992869821E-003
+1.568203565838324E-003
+9.704434374695174E-004
+1.442162666483327E-003
-5.679566193217791E-004
+1.053282280189667E-003
-9.013210421784174E-005
+1.243526682867551E-003
-7.228894372839381E-005
+3.085652221389436E-004
+8.277723693772810E-004

# step        1
-1.169052700784528E-003
-5.983753155292414E-004
-9.386893243577299E-004
+8.278210804627484E-004
+6.617971887920252E-004
+2.115932921780707E-003
+2.123914513951877E-003
+1.856164106061210E-003
+1.421337901233638E-003
+1.045750213406193E-003
+3.131106666445853E-004
-2.139186615850468E-005
+1.796828390572265E-004
+2.869050593131965E-004
+6.583629493947656E-004
+1.272133149398498E-003
+1.695796849604921E-003
+6.354839942069263E-004
+1.202892915211357E-003
+5.088120485211722E-004
+8.571725766752624E-004
+1.504052745901686E-003
+9.366749260632108E-004
+1.165519104967262E-003
+1.146827765318215E-003
+9.357253901999151E-004
+5.159199862978190E-004
+9.699094430837528E-004
+8.159469985321320E-004
+2.943279235285062E-004
-2.433586900645792E-004
+4.032315381118168E-004
+1.815758792642106E-003
+3.122606811241403E-003
+2.465809475100231E-003
+2.690952055068284E-003
+1.770606110591491E-003
+1.568592639246318E-004
+7.364540337403777E-004
+1.291977207652275E-004
+1.264474751353744E-003
-1.784530656705040E-004
-1.493135772319901E-004
-1.077396569657731E-003
+1.253267442265451E-003
+1.265425501699203E-003
+3.428374798436371E-003
+2.337712032248946E-003
+3.678266114851705E-004
-1.805994585603512E-003
-1.963579361714355E-003
-2.795312993883448E-003
-1.199157139686107E-003
-2.544433756508412E-003
-2.589375271589378E-003
-3.089367742954489E-003
-1.532829963268375E-003
-1.855235770621970E-003
+4.131243425957044E-004
-5.106159641724952E-004
-1.281596928452904E-003
-1.416817114396639E-003
-2.262878016418686E-003
-1.565836333968838E-003
-2.062959163600603E-003
+9.468627728866568E-005
-1.741534772779282E-003
+3.402581693256181E-004
-2.218606291709402E-003
-5.875027878442025E-004
-1.413696539854124E-003
-9.067585642541826E-004
-4.013522199305846E-003
-1.162133562179877E-003
+4.798570076905162E-004
-3.561255812696027E-003
-2.782208608458888E-003
-4.669350913993073E-003
-6.958131348125723E-003
-9.652285702491801E-006
-1.170342224710564E-003
-4.464712098106249E-003
-2.083864157681238E-003
+2.521632910738879E-003
+1.537574380813129E-003
-2.617786528709461E-003
-1.432164840576396E-003
+3.902721955318353E-005
+2.465126335669485E-003
+5.065128083238307E-004
-1.823941678359567E-003
-8.883036545618484E-004
+3.523056857305351E-003
+2.972084040787688E-003
-7.147917551254296E-003
-7.367853233440172E-003
-8.786780804620486E-004
+1.717540685325123E-003
-2.298212132803421E-003
+5.731756435050924E-004
-5.768960108165898E-003
-3.737204430752692E-003
+1.014127084984279E-003
-5.356006549554791E-003
-3.799004844774337E-003
-9.569964485226982E-003
+1.558490290694983E-003
-1.996651310758675E-003
-2.806757998644671E-003
-2.506761592210629E-003
-7.458396396565092E-004
-2.221266811667467E-003
-2.502661242051628E-003
-2.220039971458716E-003
-2.841696603490852E-004
+1.182505079887528E-003
-4.914200901841494E-003
-6.176380888723957E-004
-2.159043106717836E-003
-7.713298219608430E-003
-6.182538419222895E-003
-2.745492623769771E-003
+2.534693448124976E-003
-1.949914167842330E-003
+1.231851300364343E-003
-4.404092998854055E-003
+3.542722508410372E-003
-2.048456427600490E-005
-2.857624268780475E-003
-1.117111973318269E-003
+3.153202829956420E-003
+6.336662034833795E-003
+7.439455536270922E-005
+2.658188820692485E-003
+4.514420536028411E-004
-6.076594263829840E-004
+9.271427260805744E-003
-2.694767873116175E-003
-1.122661967282991E-002
+3.212054375033123E-003
+7.747062399938398E-003
-1.013938931425743E-003
-1.738156610914522E-003
-3.192111836351006E-003
+1.039247872696228E-002
-4.144636085383446E-002
-2.767801302396554E-002
-6.399633632725309E-002
-6.950316889598125E-002
-7.499237112819633E-002
-8.288513382142543E-002
-3.994062659247972E-002
-5.405435373047154E-002
-3.428996716983348E-002
-4.754153860734264E-002
-2.285463936601602E-002
-6.475247862673170E-002
+6.177015000783668E-003
-3.078700622380398E-002
+3.011728042772955E-002
+2.163776248201508E-002
-3.902732553483915E-002
-7.145726713942568E-002
-5.396421452132086E-002
+5.408644588654163E-003
-7.412277646532076E-002
-8.587278474556381E-002
-5.408882826320182E-002
-4.217015192445087E-002
-3.906913801192006E-002
-1.493838094608980E-004
-6.397180048935999E-002
-5.932556458670350E-002
-9.976642318139844E-002
-4.841309575923538E-002
-7.772295643990880E-003
-1.259631558171450E-001
-6.525986604630944E-002
-8.375807471217164E-002
-6.770669406914685E-002
-3.636983040804447E-002
-4.096361473570297E-002
-4.739924270558798E-002
-3.557648675667359E-002
-7.491346977538171E-002
-4.804621313504193E-002
-3.236068920032984E-002
+8.884786648748422E-003
-3.622047022958894E-002
-1.631257245304773E-002
-8.823708288086084E-002
-6.399208434318462E-002
-8.389891935345224E-002
-3.517824995939439E-002
-4.077026162363790E-002
+9.894238570237380E-003
-5.966439937448022E-002
-2.435533339114530E-002
-5.731510327296982E-003
+1.546975483904683E-002
-4.435338411294361E-002
-6.646872954289278E-002
+2.910961155783702E-002
-1.518251538370483E-002
-2.650150498849441E-002
+2.319854681694132E-003
-3.518285465941441E-002
-6.406817488420757E-003
-4.022215114314723E-003
-1.824203437295095E-002
-4.044063513743029E-002
-6.995942858966052E-002
-5.648458541884113E-003
-4.803678348307940E-002
-4.545261568629621E-002
-2.210512260122792E-002
-1.074784020412150E-002
+5.883542614182218E-003
+2.502045749498656E-002
+6.542446785345453E-002
+5.777463888408519E-002
+1.106875065593600E-001
+9.400220548008338E-002
+1.078802476264631E-001
+1.019456659961346E-001
+7.674454039524380E-002
+6.940732109869194E-002
+2.181724769144256E-002
+5.394909310852741E-002
+1.267474789467037E-002
+6.646025882303698E-002
+9.115040328372707E-002
+7.610843444930011E-002
+5.039794828968944E-002
+3.474839901275313E-002
+5.418517125267473E-002
+2.792476889096573E-002
+5.031177615355296E-002
+4.234801161991315E-002
+6.730287672596447E-002
+4.070641057579197E-002
+3.828103066046464E-002
+1.613860782744789E-002
+2.598962845194405E-003
+2.885234017262015E-002
-4.711652044644059E-003
+1.721822333223567E-002
+4.580176509062808E-002
+8.302922988392891E-002
+1.088205467763413E-001
+9.441686895887721E-002
+6.556527580054404E-002
+5.862853884078431E-002
+4.259363704821507E-002
+3.755276444397537E-002
+5.674671590961320E-002
+8.630085857592801E-002
+3.936269446995480E-002
+5.207437649024949E-002
+4.092527969631711E-002
+5.168025191950629E-002
+5.784306866443598E-002
+1.237251140232243E-001
+8.626776490803972E-002
+5.894963796473011E-002
+3.426465572244875E-003
-3.520848067709913E-002
-4.358968522064398E-002
+9.351804220559054E-003
-4.975276391250272E-003
-6.101931561684787E-002
-4.966732205998009E-002
+4.920346384222223E-002
-5.184211927465630E-002
+5.802492875785754E-002
+4.724910122363403E-002
+9.883610184704381E-003
+5.615730033913780E-002
-9.140230611852123E-004
+2.180110029366017E-002
-1.381363821996617E-002
+6.714498325310175E-002
+1.752582812373603E-002
+5.083943502430807E-002
-4.183967106271394E-002
+2.809664648794990E-002
+6.389169690069159E-003
+1.132649806637796E-003
+2.630868628004777E-005
-7.599659907847825E-004
+6.009572430205773E-003
-2.438598222248445E-003
-7.057110004416739E-004
+7.958449531951239E-003
+8.075300594418775E-003
+2.799455228080435E-003
+5.635548431577921E-003
+4.976918431719361E-003
+4.125156673222575E-003
+2.107195162440454E-004
+3.430938576498730E-003
-2.600178554627542E-003
-1.260506164531561E-003
+9.432719826004523E-003
+9.256638805278543E-003
-1.028194008315592E-003
+5.105768190996721E-005
-2.118576542088528E-004
+7.372892349087866E-003
+1.193451355880896E-003
-1.905574179764120E-003
+4.187098971281462E-003
-1.525214186779221E-003
+2.417333550370214E-003
+2.815296412130633E-003
+5.135486635788448E-004
+1.810070621033101E-003
-9.555891137356922E-004
-2.399153497935780E-003
+1.017487381480142E-003
-1.144787421769578E-003
+4.711665535982636E-003
+6.575758189283147E-003
-1.791348897655584E-003
+3.243152415168265E-003
+2.369224737105500E-003
-1.777153118486768E-003
+3.977902692417759E-003
+5.950889281263035E-003
+2.473504069170138E-003
+1.354475732682217E-003
+2.984300858464143E-003
+2.517428314509367E-003
+5.552784708708292E-003
+1.828217667919566E-003
+8.147615592276981E-003
-1.509340157900507E-003
-2.657948207238233E-004
-5.576852744735471E-003
-3.758974914868438E-003
+9.622317962780216E-004
-5.034659202814261E-003
-8.578530218478989E-003
+2.842884144492667E-003
-1.442905956717114E-003
+8.376012000728621E-004
+1.669439217709453E-003
+4.060939911106307E-003
+4.908792391672890E-004
+3.167339037944221E-003
-2.222843189648177E-003
+1.608656349038069E-003
-5.301720881828158E-004
+8.453711815576278E-004
+1.648866522233769E-003
+3.595470046959022E-003
-5.736012370008953E-005
-7.196508944938415E-003
+2.837126662426179E-003
-3.620002445656120E-004
+1.392775174409074E-003
+7.799439204466051E-004
+8.352347532123895E-004
-6.598181318234247E-005
-8.616009636637396E-004
-1.749101296724476E-003
-1.976364067777678E-003
-1.067727686150905E-003
-4.877916945537963E-004
-5.520635955167929E-004
-9.294729124719138E-005
+4.307479361268370E-005
-5.475656133860267E-006
+1.242154339647042E-003
+8.248532317282151E-004
+7.771645095458720E-004
-2.213539088853535E-004
-8.831279035720460E-004
-1.133172425883914E-003
-1.026735703373991E-003
-4.487695612004767E-004
-2.030505296202559E-003
-1.419642496203825E-003
-1.558993708199989E-003
-1.369681227788077E-005
+2.262737462103479E-004
+1.174225691995518E-003
-8.344544554677079E-004
-9.288459532523996E-004
-1.766617916766107E-003
-1.368441846442543E-003
-7.268309535172607E-004
-1.961429871900703E-003
-2.096110655030704E-003
-2.713245693909975E-003
-1.696288333709246E-003
-1.168398575312509E-003
-1.001150558769746E-003
-7.407029658392523E-004
-9.786569588310344E-004
-1.822061229393561E-003
+8.730260198082428E-005
-2.806653293759443E-005
+1.551698551021836E-003
-6.067009780352078E-005
+1.424143585992084E-004
-1.558927450975983E-003
-1.108113038459664E-003
-8.550137710787507E-004
+4.021147331679588E-004
-1.560560990068755E-004
+1.202065367992457E-003
+4.299219122063171E-004
+1.656173102495709E-003
+2.321463836838842E-003
+2.298340693829998E-003
+1.311476519765847E-003
+1.014105051787192E-003
+3.773658248839558E-004
+2.044583728324293E-004
+9.324880392247112E-004
+1.520908132292904E-003
+1.500349454828082E-003
+9.111893018315983E-004
+1.385753141470131E-003
-6.392458704609938E-004
+9.808010906563508E-004
-1.596157033304650E-004
+1.174779263178912E-003
-5.556833962445742E-005
+3.521025263709615E-004
+8.785682860922959E-004

