# Energy in atomic unit (1 Eh = 2625.499640 kJ/mol)
# -------------------------------------------------
# step         Hamiltonian             Kinetic energy          Potential energy          Coulomb energy       van_der_Waals energy      Coulomb LR energy       Coulomb keq0 energy       Coulomb SR energy       Coulomb self energy     Coulomb molecule energy     Fumi-Tosi energy     Fumi-Tosi molecule energy
      0 -1.382046252543945E+002   1.008981423799256E+001  -1.482944394923870E+002  -1.671432410923973E+002   1.884880160001022E+001   2.401738872148010E-001   6.138706871502994E-003  -9.839692240939246E+001  -6.899263127709109E+001   0.000000000000000E+000   1.884880160001022E+001   0.000000000000000E+000 
      1 -1.382045699998331E+002   1.012491407810537E+001  -1.483294840779385E+002  -1.671750478393869E+002   1.884556376144842E+001   2.368282313678875E-001   5.762884122638206E-003  -9.842483096376877E+001  -6.899280799110871E+001   0.000000000000000E+000   1.884556376144842E+001   0.000000000000000E+000 
