# Dipoles on mobile particles in atomic unit
# -----------------------------------------
# Dipole:   1 au = 2.541746 D
# step        0
#          mux                     muy                     muz         
-1.545177652241021E-001 -8.674687388493332E-001 -2.584872796965061E-001
-4.504527174438065E-002 +2.393482959011360E-001 +3.269661843895291E-001
-2.859481431762445E-001 -2.160131553873757E-001 -7.847791050520558E-001
-2.980480160137076E-001 -1.879754571391227E-001 +1.389978074954423E-001
-9.817120151658585E-003 +1.525902886158033E-001 +2.243061948567385E-001
-5.297348251214555E-001 -5.900340389579918E-002 -3.762475572465163E-001
+2.554370470647931E-001 +6.739564534093657E-002 +3.542362955274082E-001
+3.021931109581960E-001 +3.927699054794640E-001 -9.056210810258079E-001
+3.484555810191318E-001 +4.966619258362174E-001 +4.271494400390929E-001
+5.143683708354490E-001 -5.325641146084400E-001 +4.694443375900685E-001
+1.816371326259889E-001 -2.176391006862265E-001 +9.996616017254247E-001
-1.119227240116100E+000 +3.573024529768828E-002 +1.174284150557214E-001
+4.050096609216602E-001 +6.867962121919271E-001 -5.841908216880748E-002
-4.624295961854617E-001 +4.790553289162571E-001 -2.984760787314852E-001
-5.168017267228979E-001 -5.497420465726361E-003 +7.222931353507983E-001
-3.753793013253522E-001 -3.865544863042699E-001 +2.591693418981124E-001
+6.176303252911188E-001 +3.427703505084271E-001 +6.953160049883712E-001
+4.763589082237855E-001 -7.222580972826768E-001 +4.749807060825648E-001
+6.695186350873720E-001 -9.070982780434824E-003 +7.196609913243973E-001
-2.420123432373926E-001 +6.088831208900654E-002 -9.312626860019291E-001
+8.692170686583882E-001 +6.035016120246828E-001 -8.468729335401153E-002
+3.504529011043223E-002 +7.625988141306720E-001 -6.204090404775074E-001
-2.940997408784810E-001 +4.089078421306510E-001 +2.570072817453665E-001
+2.207406769422585E-001 +3.946409915584282E-001 +2.162639089048662E-001
-1.365976105899706E-001 +2.803017211283607E-001 -5.897700490141558E-001
+5.104874979166194E-002 +4.941695218193931E-001 +8.595546411360269E-001
+4.079557956651403E-001 -3.886467481818259E-001 +1.238714574932583E-001
-5.994302432209360E-001 -2.832658470865860E-001 +4.981805606926595E-001
+5.340347207235737E-001 +2.066754578627005E-002 -9.718174783493813E-001
-9.150182683602226E-001 -2.415481317623645E-002 +1.297265724018137E-001
-6.983892008507676E-001 -6.173016562455840E-001 -2.535496572515348E-001
+9.855923810738462E-001 +2.791903297697787E-001 -4.153743711645844E-001
+5.327970222512405E-001 +3.512301970584694E-001 +5.864088941998605E-001
+7.382977993910166E-002 -1.001170376188455E+000 +4.388684799266578E-001
-6.539814714011084E-001 -6.832674944350974E-001 -2.709229085639441E-001
+7.503380427583894E-002 +1.914987087909508E-001 -2.849930312801280E-001
+4.554984723045313E-001 +3.273521594130480E-001 +3.084055523713331E-001
+8.540322861820930E-001 +2.737639606869474E-001 -4.374857935275825E-001
-7.860856456197411E-001 +3.436724117314259E-001 +6.221498351367708E-002
-1.120552445690509E+000 +4.856974836886182E-002 +7.449250154385229E-002
+7.257866000094871E-001 +4.279571183520346E-002 +1.100605346486611E-002
+6.571661232563921E-001 +5.611665370189700E-001 -2.821023511685907E-001
-2.841357051237699E-001 +1.856931828583402E-001 -1.329651743887566E-001
-5.569418093232372E-001 -5.706112584123512E-001 +3.213593717235924E-001
+5.400609730199479E-001 -1.028049162155722E+000 -2.923111243690864E-001
+5.652817900433672E-001 -6.642751500771461E-001 -3.416876273163821E-001
-3.574044386277292E-001 -7.136623969929945E-002 +1.432199657638698E-001
+8.633064691821999E-001 +5.160102638776068E-001 +2.399698859884788E-001
+5.810838932517109E-001 -2.125045286088159E-002 +7.850673943783198E-001
-2.491384058796928E-001 +5.407720225273651E-002 +7.828842981978420E-001
+3.904633712975251E-001 -7.611302424552223E-001 +1.220118099865633E+000
-2.243818728965306E-001 -6.026874007189851E-001 -2.222229066604729E-001
+3.892335583877546E-001 +1.090892592124612E+000 -2.247296884050159E-002
-3.884531617282773E-001 +3.384673417280014E-001 +1.981813510878386E-001
+1.187226538132322E-001 +2.171382186036439E-001 +9.166098108760102E-001
+2.729914099520318E-001 +6.965700136094702E-001 +8.399814472659384E-003
-2.673321499277823E-001 -6.937499739390812E-001 -6.712241070824715E-001
-6.953373398863386E-002 +4.133283687404524E-002 +4.277014910507128E-001
-1.780997504701408E-001 -1.378089034142724E-002 -5.507154590878298E-001
-6.789385919593548E-001 +8.159013997964495E-002 +4.649868280387939E-001
-5.674684886904502E-001 -5.751685340446782E-001 -7.413795495129202E-001
+5.798979577841694E-001 +1.427917871242796E-001 +1.512716936272990E-002
-1.562738447860207E-001 +7.734630415763193E-001 -9.628122334582147E-002
-4.550389558625535E-001 +7.357188192229204E-001 -2.689432614359062E-002
-5.507611815012494E-001 -3.254898549754499E-001 +3.990553945840010E-001
-5.647478613237030E-001 -3.984277734334760E-001 +2.757243235350637E-002
+6.923229217055396E-001 -8.792085022024514E-001 -6.156281277447526E-002
+1.064475844118006E-001 +1.820254152623345E-001 -7.869300854997192E-001
-5.408705607969221E-001 +3.211368223485565E-001 -5.707691067832183E-001
-2.800078189986107E-001 -1.209919389393946E+000 -1.246283451500981E-001
-6.511707836910572E-001 +2.577585236139990E-001 +8.887215638532669E-001
+8.972785610132238E-001 +6.481759653793266E-001 +3.246634180166460E-001
-2.911066043262500E-001 -7.156398173227829E-001 +1.438105576732228E-001
+3.215010747315845E-001 +3.529957207964435E-001 +4.408410189083971E-001
+9.651420004658383E-001 +5.430312566255719E-001 +4.436194411085947E-001
+9.437651456765418E-001 +8.249119015337027E-002 -1.263407648122308E-001
+8.300111957039429E-001 -2.436525462050476E-003 -4.262823266384513E-001
+1.679968878376171E-001 -7.282297214410187E-001 +5.023671048801183E-001
+3.079008729832751E-001 +3.521027873484048E-001 +3.464066620441711E-001
-5.655308329968479E-001 -5.840583867352164E-001 -4.953995643287483E-001
-4.702500188821716E-001 +7.512944265323273E-001 +2.429400639031176E-001
+2.214860746976401E-002 +8.549639710788185E-001 +5.494886635012759E-001
-3.382788275447279E-001 -8.680794878437684E-001 -1.075810313284717E-002
-4.077981062539726E-001 +8.321803232764430E-001 -4.271009155305818E-001
-5.406337941320677E-001 -4.029299545225201E-001 -8.959404527692483E-001
+8.946329759604671E-002 +6.430015796140043E-001 -3.046313777761264E-001
-9.080754781854790E-001 -4.709208677173409E-001 -1.608409969946540E-001
+3.170087351993871E-002 +7.894503985751111E-001 -5.170381914854624E-001
+2.635378218850051E-001 +1.126438443676540E+000 -3.465898117689954E-001
-8.750257142344536E-002 +4.969096275976420E-001 +3.240566955547988E-001
+3.835332040560422E-001 +6.480290163885050E-002 +8.987162342080668E-001
-1.828212061262487E-001 -4.369650215519072E-001 +2.490283808284499E-001
-2.892986013590431E-001 +5.723061476124625E-001 +3.300180821483902E-001
-4.864376278779727E-001 -6.779230650661963E-002 -1.028339226129991E+000
+3.112523587158764E-001 +2.099730634441769E-001 +6.886902854809595E-001
+9.792429569782910E-001 +2.248948187340365E-001 -1.821698855484254E-002
+6.489014813584834E-001 +2.265497164591926E-001 +9.695673918683021E-001
+4.576132083090682E-001 +2.975651452696315E-001 -9.041021274311827E-001
+5.726708823716048E-001 -3.308128580969948E-001 -8.697067772417220E-001
-1.783448379714265E-001 -7.482012236980236E-001 +6.582543113632495E-001
+1.212742823816710E-001 -5.832531512659462E-001 +2.784203405035155E-001
-3.995597916589262E-001 -6.364424894911236E-001 +9.943087157020790E-002
-6.518288655993119E-001 +6.148478335176970E-001 +6.394889475189488E-001
-1.596641036827619E-001 -7.189787455693925E-002 +9.907879255344730E-001
-3.113396253605488E-001 -1.017014683063789E+000 -1.124836220921206E-001
+9.259342968095662E-002 -7.904243900246756E-001 +2.070732342112002E-001
-7.334279531308154E-001 +4.387788100339006E-001 -2.447839407325783E-001
-3.004536988199526E-002 +2.777297497304737E-001 -9.354545467910872E-001
-9.388527850105666E-001 -1.775535343647878E-001 +5.157318858745560E-001
+2.604158310234764E-001 +9.353663843194258E-001 -4.649051367318157E-001
+4.788839537734306E-001 -9.837667010028907E-001 +9.596800757270091E-002
+4.400511561365925E-001 +3.302676950267093E-001 -9.002520273087055E-001
+7.313207365948419E-001 +6.719861412736906E-001 -2.292082851255700E-001
+1.132060463198010E+000 +1.613012291177393E-001 -1.260680149270934E-001
+4.764226211912053E-001 -2.547062444800127E-001 -3.407844664282845E-001
-2.934144395116985E-001 -9.297763446730968E-004 -2.257760438671569E-001
-4.648293652212421E-001 +5.679465825302708E-002 -7.456904357137221E-001
+6.114876642467963E-002 +5.627818806739744E-001 -6.797210429309521E-001
+2.088528632281025E-001 -3.653736829065014E-001 +8.816813268016486E-001
-6.417188535660834E-001 -2.057268653269208E-001 +6.056569884069177E-002
+4.370900870099571E-001 +8.670409840293442E-001 -4.673320013090223E-002
-4.069907696547513E-001 +4.106657643763648E-002 -9.852331351106193E-001
-6.983563432415000E-001 +7.012180928792883E-001 +5.248010501625124E-001
-7.222410278034429E-001 +4.977969071650769E-002 -5.356553867197218E-002
-2.566055024128573E-001 -1.977183719323223E-001 -2.815551560824275E-001
+7.989747367099939E-001 +5.063285073547458E-001 -3.945197927366861E-001
+2.596810793619257E-001 +1.174096320694485E+000 +8.248068291246695E-002
+1.866790467334761E-001 -2.389110807824704E-001 -4.172319793559988E-001
+6.913891178858823E-001 +6.498333448728991E-001 +1.700233522828579E-001
-1.609416740150131E-001 -5.135851044998055E-001 -9.985966658960573E-001
+7.203419988833613E-001 +7.891470676517001E-001 -6.531652511229110E-001
+2.724521225363309E-001 +5.483959781757952E-001 +1.348843477407244E-001
+8.647476015522260E-001 -1.058440533588619E-001 -7.781033273099325E-002
-3.633056717167892E-001 +5.899619788863209E-002 -2.648537450128257E-002
-8.280389952086481E-001 -1.292338023138251E-001 +2.214418995880393E-001
-5.322410993306563E-001 +1.520950658234092E-001 -4.031588928416282E-002
-1.324544473035262E-002 +2.224595566803322E-001 -5.797761614433532E-001
-5.701478976831549E-001 +8.203248619546333E-001 -1.062491095441788E-001
+1.112277353178805E+000 +1.789603340142709E-001 +9.766781420887943E-001
-7.237608819412843E-001 -3.974677888757851E-001 +4.316100227280411E-001
+5.876676328376244E-001 -2.895580961582086E-001 +2.147381760360856E-001
+3.680828922016273E-001 +8.630445126499744E-001 +6.313316740374504E-001
+5.136884815764400E-001 -1.217707819235018E-001 +3.050796817911667E-001
-1.026309657588510E+000 -3.072531405553970E-002 -1.848622590989996E-001
+4.411216794817677E-001 +7.040688699413538E-001 +6.702423237882060E-001
-2.993600285396424E-001 +7.137836354081086E-001 +8.681036644486017E-001
-3.160038316542922E-001 +4.752758556536154E-001 -1.846657397227803E-001
-1.934691673033097E-002 +4.916838543794285E-001 -7.319926574428529E-001
+9.034053533274244E-001 +5.934284783050389E-002 -4.239118432641283E-001
+4.659094624896778E-001 -9.537015312377676E-001 -8.320891682093321E-001
+4.674183042855852E-001 +6.089199627695580E-001 -8.544595030502344E-002
+4.522259906565119E-001 -8.743108177289771E-001 +6.289435964978476E-001
+4.889003900010545E-001 -5.422787869424088E-001 -2.736675824137670E-001
+8.960352297370286E-002 +3.048060502573542E-001 -8.028294654585716E-001
-2.665519407436143E-001 +5.682773315752183E-001 -4.299280136879293E-001
-2.410495879449558E-001 +2.334994383859354E-001 +7.283068215074828E-001
-5.793824483525439E-001 +7.254055937451865E-001 +8.615383942291226E-001
-3.312532291804379E-001 +6.391992950970610E-001 +6.370392943356158E-001
+6.168774242681608E-001 +2.160655544227942E-001 +1.332681377298159E-001
+3.788515106297919E-001 +2.322764365227864E-001 -4.494707852138569E-001
+3.798894360052936E-001 -5.985792310700354E-001 -8.107274167852709E-001
+2.818158250502762E-001 +7.540038240855038E-001 -4.865766041968151E-001
-1.332391937120428E-001 +6.911282096264774E-001 +8.292936487589764E-001
+3.597936401965904E-001 -8.303818287976088E-001 +2.556368479043234E-001
-8.197911967116676E-001 +1.432857509302223E-001 +4.076863882272423E-001
-2.451296252993302E-001 +5.893781684035419E-002 +2.476777628286581E-001
+3.983986909374663E-001 -4.095200247768708E-001 -5.159103319660883E-001
+8.112489434864525E-001 +2.466381517600847E-001 +6.746074760081832E-001
-1.061546885639161E+000 -2.147268621157609E-001 +1.820166980977279E-001
-3.112849835076745E-001 +3.100328574428274E-001 +9.272039083360637E-001
+9.098621687738477E-001 +1.075034641643707E-001 +4.492812579425391E-001
+1.997354943884390E-001 -5.998022173522766E-001 -4.584456918487136E-001
+4.656085299265186E-002 +8.224295803981396E-002 +1.924438748217486E-001
-2.574220031175735E-001 -6.998771136217738E-001 +7.384447391204441E-002
-4.634320993319098E-001 +2.128164549365726E-001 +3.221369790586086E-001
+4.522899507891882E-001 -9.818891439248530E-002 +3.314295347011897E-001
-1.598403605815513E-001 +3.238639685497968E-001 +7.942971322987361E-001
+7.826504515737141E-002 +6.595833428427214E-001 +4.252577480548622E-001
-2.766495728784363E-001 -4.481306819179556E-001 -8.501564590119353E-001
-5.555573483986459E-001 -6.565142024978552E-001 +1.810521165604141E-001
-3.107814889468221E-001 -4.310983237616884E-001 -6.156697578399711E-001
-4.383961065986682E-001 -4.593578144585398E-001 +7.510456779384340E-001
+7.847746489881697E-001 +1.716823028174654E-001 -6.385300489953741E-001
-1.709338213920646E-001 -1.259491485083200E-001 -9.427141984726337E-001
-1.897683318000048E-001 +3.336804939506279E-001 -5.883092056142479E-001
+6.524725508745258E-001 +4.166113817609802E-001 -4.862815542075629E-001
+6.343087919533945E-001 +1.088777017035604E-001 -2.376202532093855E-001
+8.299124532213690E-001 +6.949973833936832E-002 -5.783749140051677E-001
+9.562932333207951E-001 -6.478813530811942E-002 -6.488149594827778E-001
-4.487556480208268E-002 -7.526707851600754E-001 -5.602621018376493E-003
-5.159897401634059E-001 +5.805421426766444E-001 -5.287599209582224E-001
-3.384855386839195E-002 +7.423193125034427E-002 -1.447307447689802E-002
+2.831251559123472E-001 +4.126773878215916E-001 -1.499363121284437E-001
-9.260212571608103E-001 -1.085469929987602E+000 -2.282150260314344E-001
+5.179428872800862E-002 +8.190246354224380E-001 +3.366327443407980E-001
-7.832478982805560E-001 +4.325094412202759E-001 +1.523012760839340E-001
+4.575366483074412E-001 +3.057138529965922E-001 +3.798097060501569E-003
-6.027192153275716E-001 +1.316022259346807E-001 +3.162916413563093E-001
+4.421514853368574E-002 +3.072350532914399E-001 +9.739359092276468E-001
+4.774436952734000E-001 +2.818019939995987E-001 +8.717170995632698E-003
+5.702148655137648E-001 +6.942684653863838E-001 +1.296156416750049E-001
-6.655281202458154E-001 -5.050110682145634E-001 -1.569697518342791E-002
+6.166439323428127E-001 -2.449681874231733E-001 -2.903259101095657E-002
-1.013867014717666E+000 -3.891981061575026E-001 +6.498086452695132E-001
+1.167411877758108E+000 +5.209591376189108E-001 -5.998143412380949E-002
+4.163812122966021E-001 -2.680097049118070E-001 +3.804428073954803E-001
-9.227750778759887E-001 +3.193197024998191E-002 -5.279045711160719E-001
+7.959514309448813E-002 -7.089069305508942E-001 -8.066878945075930E-001
-2.241524260549522E-001 -6.645712342910763E-002 -7.345484383165171E-001
+3.215642376077529E-002 +1.358694411074697E-001 -5.662173878457689E-001
-1.921859128612815E-001 -4.577272441034821E-001 +1.346300824961476E-001
-1.962463075820131E-001 -6.210834105514764E-001 -3.349984099482101E-001
+4.111720380479002E-001 -3.809354061672980E-001 +3.487698545474077E-001
+8.015460332999329E-001 -3.647352207755478E-001 +5.168918842579576E-003
+4.842455046080786E-001 -1.454636519379281E-001 +6.635528475078941E-001
+1.586558480968651E-001 +4.055466933289849E-001 +1.347803834540709E-001
-9.096246618396652E-001 +3.209119866601459E-001 -1.421758886283616E-001
+1.220359649598079E-001 -3.036827496987721E-002 +4.848165426362952E-001
+3.007023883723485E-001 -4.078510610757541E-001 -5.153639501589338E-002
-4.773125857800774E-002 +7.714283822319152E-001 +3.608814610295816E-001
+7.111966527837331E-001 -5.484719022821400E-001 -3.896526548724739E-001
+2.426370783854167E-002 -5.122490574357367E-001 -8.164071413972940E-001
-7.346201847133295E-001 +4.299156050649175E-001 -2.728266087519395E-001
+1.035051053902851E-001 -5.329810307887108E-001 -9.686985579165682E-001
+2.108061069620428E-001 +8.842248386265702E-001 -3.135071700312440E-001
+9.222666197520412E-001 -5.400249237581203E-001 -2.192889050015180E-001
+9.990435670241150E-001 +6.037049870259975E-001 -1.837250693484019E-001
+3.330412302259616E-001 -6.926492736459676E-001 -6.781499439591279E-001
+4.264907359916315E-001 +5.898452640048641E-001 +3.267839310974551E-002
+4.580339422962326E-001 -5.776181605294114E-001 -1.051164391259371E+000
-1.200774305297862E-001 +8.174428269432707E-002 -4.916777731911060E-001
+6.746422226724536E-001 -4.427470357977568E-002 +5.606726524975724E-001
-2.849154583969183E-001 -7.496753808330563E-002 +7.573331811173553E-001
-7.952472547928124E-002 -3.450791542496776E-001 +1.122925510966277E+000
-7.967688080118742E-001 +3.954256699537126E-001 +9.781256214793582E-002
-2.168160237785152E-001 -1.481695777905784E-001 -2.006249207921764E-002
+1.091910649806286E+000 +3.651996184585891E-001 +8.126360048985740E-002
-6.098828851138397E-001 -7.512699038189565E-001 -4.554121409377521E-001
-5.278819163610181E-001 +8.789840856371274E-002 -9.046460217179800E-001
-2.123870263776549E-001 -5.847930001351190E-001 +4.046213496054251E-001
-2.472751230801896E-002 +3.209949437820482E-001 -4.205501956346442E-001
-5.802073470450301E-001 -1.248733234711838E-001 +2.989558233011021E-002
-1.537166973339649E-001 -2.416270780586197E-001 -7.419898520660514E-001
-4.326433546093552E-001 -4.185482736271733E-001 +3.210230437059702E-001
+4.724641421479396E-001 -2.462299256995505E-001 +9.595901959810810E-001
+4.705444544801494E-001 +6.396443622232603E-001 -2.793704771910250E-001
-5.945810998811130E-001 +6.086889390132518E-001 -5.494524639436993E-001
-1.936401323337694E-001 -3.844504289071750E-001 -2.727778773165577E-001
-2.837029823465884E-001 -6.221161433382454E-001 +5.479542944476369E-001
-1.658557947203481E-001 +5.233801989061394E-002 -5.385804632234793E-001
-6.087898093269144E-001 -7.166547834522305E-001 -2.341116582095507E-001
-3.549497769166470E-001 +4.200015369090260E-001 +5.393945056729382E-001
-2.171928376774984E-001 +1.163792875928473E+000 +3.485462942860434E-001
+6.631296019872147E-001 -3.676847482042868E-001 +8.767292462347912E-001
-4.601120309461667E-001 -7.185226056037168E-001 +3.893870980565397E-001
-2.668106810427330E-001 -9.858956928907960E-001 -1.387748581643061E-001
-1.859726453808958E-001 -1.190779476121501E-001 -3.605045070791284E-001
-1.486281217586783E-001 -5.758338182814756E-001 +7.453886051298995E-001
-7.126441707044909E-002 -6.121464434585898E-001 -1.318211399308440E-001
+3.563718103272278E-001 +2.045200387186796E-001 +3.290332058004776E-002
+6.236349526169370E-001 +1.923258782443005E-001 +5.836772991779062E-001
+4.801676583564397E-001 -5.681450365889168E-001 -5.488022310133390E-001
+2.449928792243808E-002 -5.131245420203461E-001 +1.748206655208779E-001
+3.488425847498580E-001 +3.380611247354479E-001 -2.684757034686019E-001
-3.083155832468096E-001 -2.647610813035542E-001 -2.153759448374987E-001
-6.727378979002200E-001 +4.163612904783958E-001 +6.193170852565108E-002
-5.096604240617789E-002 -1.386228299273761E-001 +3.687687072272657E-002
-9.827980300588401E-002 -4.704484850992127E-001 -2.271017386298060E-001
-9.441623423519960E-002 -4.554265451214168E-001 +3.760600776135992E-001
-6.138355631982344E-001 +5.506776141777637E-001 -2.462389189102715E-001
+4.050606269489736E-001 +3.779035312449932E-001 +4.652973216879188E-001
-7.221168559113633E-003 -2.015073282499701E-001 -9.384711237877489E-001
-6.707202958284746E-001 -7.056222092057159E-001 +6.847827260227556E-001
-9.382895803669117E-001 +3.447899763083830E-002 +2.541715862624738E-001
+4.456564339153386E-001 -1.029817971485607E+000 -1.884897606883788E-002
+4.535877093375580E-001 -3.446090607740456E-002 +1.644532038349284E-001
+2.376850041099930E-001 -1.026509817551148E-003 +9.060353842188410E-001
-2.200724753088980E-001 -2.522940349056498E-001 -4.383932038144339E-001
-9.490476319834850E-001 +3.266563249081003E-001 -3.027525713429428E-001
+1.096814545978326E+000 -2.890834412841385E-001 -9.054266469460243E-002
-7.772615063386554E-001 -4.542216318716746E-001 -4.754691271562350E-001
-5.840517081148114E-001 -3.232928802553777E-001 +9.707287357818434E-002
+3.570747411103566E-001 -3.027705816268929E-001 -7.812689955519724E-001
-4.705234928118779E-001 +8.998014665407589E-001 -7.484806179007075E-002
-3.615404341682700E-001 +3.457192405598180E-001 +7.165315674169381E-001
-2.105877028196001E-001 +2.853012569890611E-001 +5.457462894696395E-001
-2.349395819825737E-001 +7.265879490671358E-001 +1.256635909323747E-001
-3.030232754975257E-001 +2.103438137287218E-001 +5.579944087772623E-001
-8.528088589070673E-001 +5.079475499307311E-001 -8.490218445834927E-001
+2.285714410451404E-001 +3.255699086278987E-002 +5.837486081255273E-001
+8.229908379815696E-001 -3.738914735843113E-001 +6.012318456763597E-001
-1.006741180891167E+000 -1.053331103429783E-001 -7.084607201466875E-001
-8.463654744611179E-002 -6.199629842493762E-001 -4.233925677038266E-001
+0.000000000000000E+000 +0.000000000000000E+000 +0.000000000000000E+000
+0.000000000000000E+000 +0.000000000000000E+000 +0.000000000000000E+000
+0.000000000000000E+000 +0.000000000000000E+000 +0.000000000000000E+000
+0.000000000000000E+000 +0.000000000000000E+000 +0.000000000000000E+000
+0.000000000000000E+000 +0.000000000000000E+000 +0.000000000000000E+000
+0.000000000000000E+000 +0.000000000000000E+000 +0.000000000000000E+000
+0.000000000000000E+000 +0.000000000000000E+000 +0.000000000000000E+000
+0.000000000000000E+000 +0.000000000000000E+000 +0.000000000000000E+000
+0.000000000000000E+000 +0.000000000000000E+000 +0.000000000000000E+000
+0.000000000000000E+000 +0.000000000000000E+000 +0.000000000000000E+000
+0.000000000000000E+000 +0.000000000000000E+000 +0.000000000000000E+000
+0.000000000000000E+000 +0.000000000000000E+000 +0.000000000000000E+000
+0.000000000000000E+000 +0.000000000000000E+000 +0.000000000000000E+000
+0.000000000000000E+000 +0.000000000000000E+000 +0.000000000000000E+000
+0.000000000000000E+000 +0.000000000000000E+000 +0.000000000000000E+000
+0.000000000000000E+000 +0.000000000000000E+000 +0.000000000000000E+000
+0.000000000000000E+000 +0.000000000000000E+000 +0.000000000000000E+000
+0.000000000000000E+000 +0.000000000000000E+000 +0.000000000000000E+000
+0.000000000000000E+000 +0.000000000000000E+000 +0.000000000000000E+000
+0.000000000000000E+000 +0.000000000000000E+000 +0.000000000000000E+000
+0.000000000000000E+000 +0.000000000000000E+000 +0.000000000000000E+000
+0.000000000000000E+000 +0.000000000000000E+000 +0.000000000000000E+000
+0.000000000000000E+000 +0.000000000000000E+000 +0.000000000000000E+000
+0.000000000000000E+000 +0.000000000000000E+000 +0.000000000000000E+000
+0.000000000000000E+000 +0.000000000000000E+000 +0.000000000000000E+000
+0.000000000000000E+000 +0.000000000000000E+000 +0.000000000000000E+000
+0.000000000000000E+000 +0.000000000000000E+000 +0.000000000000000E+000
+0.000000000000000E+000 +0.000000000000000E+000 +0.000000000000000E+000
+0.000000000000000E+000 +0.000000000000000E+000 +0.000000000000000E+000
+0.000000000000000E+000 +0.000000000000000E+000 +0.000000000000000E+000
+0.000000000000000E+000 +0.000000000000000E+000 +0.000000000000000E+000
+0.000000000000000E+000 +0.000000000000000E+000 +0.000000000000000E+000
+0.000000000000000E+000 +0.000000000000000E+000 +0.000000000000000E+000
+0.000000000000000E+000 +0.000000000000000E+000 +0.000000000000000E+000
+0.000000000000000E+000 +0.000000000000000E+000 +0.000000000000000E+000
+0.000000000000000E+000 +0.000000000000000E+000 +0.000000000000000E+000
+0.000000000000000E+000 +0.000000000000000E+000 +0.000000000000000E+000
+0.000000000000000E+000 +0.000000000000000E+000 +0.000000000000000E+000
+0.000000000000000E+000 +0.000000000000000E+000 +0.000000000000000E+000
+0.000000000000000E+000 +0.000000000000000E+000 +0.000000000000000E+000
+0.000000000000000E+000 +0.000000000000000E+000 +0.000000000000000E+000
+0.000000000000000E+000 +0.000000000000000E+000 +0.000000000000000E+000
+0.000000000000000E+000 +0.000000000000000E+000 +0.000000000000000E+000
+0.000000000000000E+000 +0.000000000000000E+000 +0.000000000000000E+000
+0.000000000000000E+000 +0.000000000000000E+000 +0.000000000000000E+000
+0.000000000000000E+000 +0.000000000000000E+000 +0.000000000000000E+000
+0.000000000000000E+000 +0.000000000000000E+000 +0.000000000000000E+000
+0.000000000000000E+000 +0.000000000000000E+000 +0.000000000000000E+000
+0.000000000000000E+000 +0.000000000000000E+000 +0.000000000000000E+000
+0.000000000000000E+000 +0.000000000000000E+000 +0.000000000000000E+000
+0.000000000000000E+000 +0.000000000000000E+000 +0.000000000000000E+000
+0.000000000000000E+000 +0.000000000000000E+000 +0.000000000000000E+000
+0.000000000000000E+000 +0.000000000000000E+000 +0.000000000000000E+000
+0.000000000000000E+000 +0.000000000000000E+000 +0.000000000000000E+000
+0.000000000000000E+000 +0.000000000000000E+000 +0.000000000000000E+000
+0.000000000000000E+000 +0.000000000000000E+000 +0.000000000000000E+000
+0.000000000000000E+000 +0.000000000000000E+000 +0.000000000000000E+000
+0.000000000000000E+000 +0.000000000000000E+000 +0.000000000000000E+000
+0.000000000000000E+000 +0.000000000000000E+000 +0.000000000000000E+000
+0.000000000000000E+000 +0.000000000000000E+000 +0.000000000000000E+000
+0.000000000000000E+000 +0.000000000000000E+000 +0.000000000000000E+000
+0.000000000000000E+000 +0.000000000000000E+000 +0.000000000000000E+000
+0.000000000000000E+000 +0.000000000000000E+000 +0.000000000000000E+000
+0.000000000000000E+000 +0.000000000000000E+000 +0.000000000000000E+000
+0.000000000000000E+000 +0.000000000000000E+000 +0.000000000000000E+000
+0.000000000000000E+000 +0.000000000000000E+000 +0.000000000000000E+000
+0.000000000000000E+000 +0.000000000000000E+000 +0.000000000000000E+000
+0.000000000000000E+000 +0.000000000000000E+000 +0.000000000000000E+000
+0.000000000000000E+000 +0.000000000000000E+000 +0.000000000000000E+000
+0.000000000000000E+000 +0.000000000000000E+000 +0.000000000000000E+000
+0.000000000000000E+000 +0.000000000000000E+000 +0.000000000000000E+000
+0.000000000000000E+000 +0.000000000000000E+000 +0.000000000000000E+000
+0.000000000000000E+000 +0.000000000000000E+000 +0.000000000000000E+000
+0.000000000000000E+000 +0.000000000000000E+000 +0.000000000000000E+000
+0.000000000000000E+000 +0.000000000000000E+000 +0.000000000000000E+000
+0.000000000000000E+000 +0.000000000000000E+000 +0.000000000000000E+000
+0.000000000000000E+000 +0.000000000000000E+000 +0.000000000000000E+000
+0.000000000000000E+000 +0.000000000000000E+000 +0.000000000000000E+000
+0.000000000000000E+000 +0.000000000000000E+000 +0.000000000000000E+000
+0.000000000000000E+000 +0.000000000000000E+000 +0.000000000000000E+000
+0.000000000000000E+000 +0.000000000000000E+000 +0.000000000000000E+000
+0.000000000000000E+000 +0.000000000000000E+000 +0.000000000000000E+000
+0.000000000000000E+000 +0.000000000000000E+000 +0.000000000000000E+000
+0.000000000000000E+000 +0.000000000000000E+000 +0.000000000000000E+000
+0.000000000000000E+000 +0.000000000000000E+000 +0.000000000000000E+000
+0.000000000000000E+000 +0.000000000000000E+000 +0.000000000000000E+000
+0.000000000000000E+000 +0.000000000000000E+000 +0.000000000000000E+000
+0.000000000000000E+000 +0.000000000000000E+000 +0.000000000000000E+000
+0.000000000000000E+000 +0.000000000000000E+000 +0.000000000000000E+000
+0.000000000000000E+000 +0.000000000000000E+000 +0.000000000000000E+000
+0.000000000000000E+000 +0.000000000000000E+000 +0.000000000000000E+000
+0.000000000000000E+000 +0.000000000000000E+000 +0.000000000000000E+000
+0.000000000000000E+000 +0.000000000000000E+000 +0.000000000000000E+000
+0.000000000000000E+000 +0.000000000000000E+000 +0.000000000000000E+000
+0.000000000000000E+000 +0.000000000000000E+000 +0.000000000000000E+000
+0.000000000000000E+000 +0.000000000000000E+000 +0.000000000000000E+000
+0.000000000000000E+000 +0.000000000000000E+000 +0.000000000000000E+000
+0.000000000000000E+000 +0.000000000000000E+000 +0.000000000000000E+000
+0.000000000000000E+000 +0.000000000000000E+000 +0.000000000000000E+000
+0.000000000000000E+000 +0.000000000000000E+000 +0.000000000000000E+000
+0.000000000000000E+000 +0.000000000000000E+000 +0.000000000000000E+000
+0.000000000000000E+000 +0.000000000000000E+000 +0.000000000000000E+000
+0.000000000000000E+000 +0.000000000000000E+000 +0.000000000000000E+000
+0.000000000000000E+000 +0.000000000000000E+000 +0.000000000000000E+000
+0.000000000000000E+000 +0.000000000000000E+000 +0.000000000000000E+000
+0.000000000000000E+000 +0.000000000000000E+000 +0.000000000000000E+000
+0.000000000000000E+000 +0.000000000000000E+000 +0.000000000000000E+000
+0.000000000000000E+000 +0.000000000000000E+000 +0.000000000000000E+000
+0.000000000000000E+000 +0.000000000000000E+000 +0.000000000000000E+000
+0.000000000000000E+000 +0.000000000000000E+000 +0.000000000000000E+000
+0.000000000000000E+000 +0.000000000000000E+000 +0.000000000000000E+000
+0.000000000000000E+000 +0.000000000000000E+000 +0.000000000000000E+000
+0.000000000000000E+000 +0.000000000000000E+000 +0.000000000000000E+000
+0.000000000000000E+000 +0.000000000000000E+000 +0.000000000000000E+000
+0.000000000000000E+000 +0.000000000000000E+000 +0.000000000000000E+000
+0.000000000000000E+000 +0.000000000000000E+000 +0.000000000000000E+000
+0.000000000000000E+000 +0.000000000000000E+000 +0.000000000000000E+000
+0.000000000000000E+000 +0.000000000000000E+000 +0.000000000000000E+000
+0.000000000000000E+000 +0.000000000000000E+000 +0.000000000000000E+000
+0.000000000000000E+000 +0.000000000000000E+000 +0.000000000000000E+000
+0.000000000000000E+000 +0.000000000000000E+000 +0.000000000000000E+000
+0.000000000000000E+000 +0.000000000000000E+000 +0.000000000000000E+000
+0.000000000000000E+000 +0.000000000000000E+000 +0.000000000000000E+000
+0.000000000000000E+000 +0.000000000000000E+000 +0.000000000000000E+000
+0.000000000000000E+000 +0.000000000000000E+000 +0.000000000000000E+000
+0.000000000000000E+000 +0.000000000000000E+000 +0.000000000000000E+000
+1.676809322977955E-002 +1.153666535709823E-002 +1.188473904096459E-002
+1.589239074903581E-002 -3.699605261028127E-002 +4.493112576056815E-003
+1.157648345701576E-002 +1.722557058031188E-002 +2.089705288914128E-002
+3.005318971600836E-002 +1.581951827906103E-002 +3.971853649451433E-002
-1.693351207297413E-002 -1.329142375101367E-002 -1.351506857813313E-003
+1.514443030973395E-002 -6.832004632876025E-003 +1.301742190952691E-002
-6.804538894086444E-003 -9.442350313952170E-003 +2.170198249217871E-002
+2.254425684572314E-003 +1.294824513316534E-002 -2.559319623202870E-002
-2.345841557004551E-003 -8.402901823838922E-003 -1.071080630521397E-002
-2.153898469878098E-002 -3.089349903873779E-002 -6.869996197914452E-003
+5.490007418330296E-004 +3.675718038339235E-002 +2.059171395629644E-002
+1.739204868711381E-002 +1.964474290508242E-002 -2.689614404921174E-002
+4.914892022999964E-003 -3.287858405316204E-004 -8.749952424655955E-003
-8.765030326682121E-003 +8.001685568278129E-003 -2.410430935187149E-003
+9.072173012205401E-003 +1.008937392651155E-002 -3.132325768689816E-002
-1.874128146749486E-002 +1.308802752005412E-002 +3.690928976320750E-002
+1.537522163096738E-002 +1.272646357145624E-002 +1.491625828893056E-002
-1.949538359675039E-003 -9.573308963836404E-003 +1.041145136930791E-003
-4.123148720978245E-002 +5.244668132157994E-002 +1.562545506628317E-002
+8.770445199101400E-003 -6.127861111621970E-003 -1.544930756071056E-002
-1.312355659132489E-002 +1.966877978911659E-002 +2.213920996659643E-002
-1.002756233106033E-002 -4.690377858402033E-003 -1.846458772214768E-002
-1.259149532814976E-002 +2.102455155369106E-002 +6.154380918136048E-003
-3.222951474059773E-003 -1.096397415406926E-002 -1.110466652092512E-002
+2.848424551947813E-002 -2.389593797005882E-003 -1.250634033157601E-002
+3.377022675599944E-003 -1.012195004529919E-002 -1.247700062181478E-002
-3.254543133381071E-002 -2.495641765182902E-003 -6.883119975911251E-004
-4.781197217715248E-003 -3.498732058651941E-003 +3.794955966151194E-002
-9.323660764930426E-003 +5.062180881765922E-003 +2.352043847621029E-002
-2.982351028263452E-003 +1.564083778817931E-002 -1.091256021068022E-002
+2.593170819807466E-003 -2.133860720942245E-002 -1.270987473561772E-002
+1.461190602686597E-002 +4.639058210421944E-003 -1.822408787914217E-002
+2.211401502023180E-002 -9.680911151862334E-003 -2.403711696034052E-002
-1.268281066070909E-002 +1.893341458953931E-002 -8.528725286426800E-003
+1.908727579677366E-002 -6.771769281517544E-004 +1.223042681667015E-003
-6.236180074092355E-004 +6.873435690990491E-003 -2.610664076483911E-002
+2.471830294294344E-002 +1.106108561448736E-002 -5.663610949167427E-003
-7.924502774472597E-003 -1.852243695173266E-002 -1.249868758407568E-002
+2.731142431202390E-002 -2.469920246085460E-002 +1.719647205274850E-002
+2.907149070292370E-003 -2.730916881875223E-002 +2.037559670812217E-002
-1.400144071183977E-002 +8.694874895977353E-003 +2.043636228563199E-002
-7.756081009758569E-005 +1.334606289207195E-002 +2.134188990813245E-002
-2.087367513390353E-003 -3.025206458277022E-002 -1.816153955577270E-002
-1.133700545598217E-002 +2.133349869992073E-002 -2.427019315207414E-003
+3.795507740324444E-003 -1.819643784541627E-003 -2.216672023632922E-002
+3.609051199475583E-003 +1.433546103290832E-002 +1.778878076883948E-002
+1.393073786452586E-002 -6.594514333921887E-003 -4.003203652882751E-003
+8.915192439652060E-003 -3.485379714260748E-002 +5.635990632398774E-003
-9.340696176734093E-003 +8.599521984640490E-002 +9.076535458513475E-002
+2.144520771455606E-002 -7.955440534309900E-002 -2.759472791402939E-002
+4.899234304590474E-002 +7.585493750921275E-002 -1.267688240168086E-002
-1.732293936793814E-002 -8.338763464174736E-003 -4.404129651022070E-002
+1.101417616905323E-001 +9.037285952788673E-003 -5.121783476519519E-002
+5.477416506853993E-002 +4.180005019636839E-002 -2.936636535395659E-002
+5.671784478185903E-002 +5.806611839187197E-002 +5.822744794082942E-003
-1.699265750490812E-001 +2.568881227090196E-003 +5.241704835895298E-002
-2.213201783251958E-002 -7.931783560092195E-002 +7.898190171033424E-002
+4.429355105770572E-002 +4.488883303466291E-002 +3.166264817127840E-002
-1.721241227760715E-001 +1.762898038990460E-002 -1.957200921805869E-001
+3.770241780702821E-002 +3.435681275649090E-002 +9.877426607542121E-003
-2.943248277314154E-002 -8.304210668049564E-002 -1.777345916771788E-001
-1.025221297434686E-001 -1.644872213602597E-001 +3.341351724652699E-002
-4.887370896972414E-002 -7.167135280318916E-002 +4.795636121501037E-002
+2.970460311180508E-002 +5.830436428700698E-002 +3.429033748144403E-002
-4.536938849927235E-003 +6.873490963055238E-002 -8.948835176747812E-002
 
