# Pressure of the system
# ----------------
# Pressure:   1 bar = 3.3988273773641905e-09 ua
# step       Total pressure           xx component            yy component            zz component            xy component            xz component            yz component            LR correction     
       0  1.146163523089968E-004  6.836842815662552E-005  1.786074882062407E-004  9.687314056412412E-005 -2.130963770441847E-008  2.339320406774512E-005 -2.735840853478646E-005  0.000000000000000E+000
