# Radius of mobile particles in atomic unit
# -----------------------------------------
# Radius:   1 au = 0.529177 angstrom
# step        0
#        delta                epsilonx                epsilony                epsilonz         
-2.595482445225497E-001 +1.453608618641879E-002 +3.875368680928604E-002 +2.197112300013102E-002
-2.809047565953923E-001 +4.378082420430343E-003 -3.398752927887341E-003 -1.323615290210059E-002
-2.623748633195339E-001 +1.188975941970843E-002 +4.922306558602571E-003 +4.777563958795386E-002
-2.408115110877721E-001 -2.263439436269463E-002 +2.393546501422567E-002 -1.104814467731697E-002
-2.902312189995747E-001 -3.061250855885379E-003 -3.479451459855051E-003 +5.141464228033432E-003
-2.203844940715191E-001 +1.215097447666522E-002 +2.812901880712844E-002 +8.181804707955622E-003
-2.767998210139793E-001 +8.993161326283944E-003 -1.840891179894524E-002 -1.508842907159975E-002
-2.442688649470421E-001 -1.980940098250783E-002 -9.240012419910692E-003 +4.642966948139137E-002
-2.761539341331393E-001 -1.285795105478705E-002 -6.850287699037270E-002 -3.701926992811241E-004
-2.497947998067725E-001 -2.186135249181915E-002 +2.288330792577444E-002 -4.268262945861728E-002
-2.348061326625093E-001 +1.992556060027138E-002 +4.625184572293729E-003 -3.220226720269885E-002
-2.691162775377017E-001 +4.775153997878645E-002 +1.517002012501158E-004 -5.107640031265679E-003
-2.429982674370509E-001 -1.526493006418824E-002 -3.701908871222567E-002 +1.118963782741140E-002
-2.639697876711506E-001 +3.387658137385028E-002 -2.226480317015924E-002 +2.285076968156131E-002
-2.557059853054831E-001 +3.697728628530591E-002 -8.859968430174827E-003 -2.772696988298642E-002
-2.719204871073300E-001 +9.246765987384171E-003 +1.387488765814686E-002 -1.769266578466032E-002
-2.047201474491118E-001 -4.256678864020572E-002 -2.126821258565487E-002 -4.959357261204907E-002
-2.044994256722323E-001 -2.641403680697526E-002 +3.328960185821059E-002 -3.790259842232939E-002
-2.222123788180938E-001 -3.347501202846297E-002 +1.639554296002051E-003 -2.193084710878962E-002
-1.877232675531595E-001 +1.154249493314139E-002 -1.380073561126859E-002 +5.933231492258680E-002
-2.038701046787115E-001 -3.634255583877127E-002 -2.425098800993043E-002 +4.085506389159456E-003
-1.952134527695772E-001 +4.473472701630374E-003 -4.342712265839809E-002 +4.124753711774836E-002
-2.578910221694176E-001 +2.209137267212992E-002 -2.582833267293711E-002 -2.632546595221752E-003
-2.751739594445595E-001 -4.600139627729535E-003 -3.288841939922914E-002 -1.546183008813709E-002
-2.711224714827864E-001 +4.202166315520816E-002 -2.502583315793720E-002 +1.434867526111890E-002
-2.128308270932547E-001 +5.080216917939352E-003 -2.035719474131262E-002 -4.458991510079401E-002
-2.649433725566258E-001 -1.571903180608395E-002 +1.447497560811479E-002 -1.305141891259996E-002
-2.598862007570720E-001 +3.864662478906759E-002 +3.645576427318159E-003 -2.968641152032989E-002
-1.783671924955630E-001 -3.169596221515298E-002 -4.625285441213976E-004 +4.465203870645130E-002
-2.236892305722670E-001 +2.632663418732314E-002 -5.362492685755673E-003 -2.773512652104044E-002
-2.576186962700542E-001 +2.588824827440015E-002 +5.458196928085526E-004 +3.618506350376315E-002
-2.927046030348418E-001 -3.303427341349325E-002 -1.802720706367089E-002 +4.292282357526533E-002
-2.408889423501109E-001 -5.008725172135485E-002 -5.803358132709273E-003 -4.611740137457545E-002
-2.609871684533611E-001 -1.660565784595918E-002 +5.443049972238283E-002 -1.136800658868718E-002
-2.300581382285121E-001 +4.258957811205501E-002 +4.483331188948369E-002 +2.049454442039996E-002
-2.646275905149280E-001 +9.890168171749990E-003 -2.395082404732356E-002 -2.884032959916022E-003
-2.526318031732471E-001 +2.297853273755872E-003 -2.195728249034027E-002 -4.923727000141322E-002
-2.021355979604945E-001 -4.643095722946709E-002 -3.558008046872470E-002 +3.883920484582505E-002
-2.158632704250007E-001 +3.059845686637879E-002 -9.818904020104699E-003 -5.589379806804037E-003
-1.852454293639567E-001 +6.043228668408464E-002 -2.055277831190211E-002 +1.841081256473549E-002
-1.751967980847889E-001 -5.304686333121557E-002 -9.644287182258406E-003 +6.378662832354304E-003
-1.885135156713308E-001 -5.172367693232309E-002 -3.500457376205443E-002 +1.570337847199420E-002
-2.688916758157435E-001 +2.134250094424014E-002 -1.648893902517165E-002 -1.675726724190478E-002
-2.624910455173012E-001 +2.428349877022909E-002 +8.995150028241895E-003 -4.105118745693686E-002
-2.487737052360049E-001 -3.209506520192042E-002 +4.947912616826133E-002 +1.870885319352711E-002
-2.179991782663483E-001 -1.716316575153631E-002 +3.937422524436223E-002 +1.761323899152583E-002
-2.670254929660958E-001 +1.541452195673868E-002 +3.384840286110462E-002 -1.332036537122811E-002
-2.388742693516471E-001 -4.516463727117136E-002 +1.645097217803299E-002 -7.051769374700639E-003
-2.040220199690697E-001 -3.825472805672686E-002 +2.097547207634719E-002 -7.310497123623425E-002
-2.459351165483389E-001 -5.449013427330535E-004 -1.155564798233404E-002 -5.060104528972076E-002
-2.605486965635121E-001 -2.287025184618995E-002 +4.027861952847915E-002 -4.966597204271635E-002
-2.712594895487162E-001 +4.155990155871096E-002 +3.689671300076532E-002 +1.244449870774828E-002
-2.515533896147605E-001 -8.457021369733570E-003 -5.707926402991283E-002 -9.424494091107074E-003
-1.941702782116403E-001 +3.052741829562015E-002 -2.139112202275742E-002 -1.472571284228055E-002
-2.707100626777384E-001 -4.326803184446473E-003 +2.188418021766058E-005 -4.616247155970950E-002
-2.801117717529779E-001 -3.914418663626343E-002 -2.944100923366696E-002 -2.858128041013596E-002
-2.294004149948004E-001 +9.927461436170707E-003 +2.903842951495260E-002 +3.550551711056862E-002
-3.099410130177428E-001 -5.824529616381104E-003 -2.231789706001856E-002 +1.589858681753569E-002
-1.997688206518026E-001 -2.493870566857328E-003 -1.351203606544356E-002 +2.411077211443729E-002
-2.789734282188487E-001 +4.836738238328016E-002 +8.162874516162915E-003 -2.352104737464526E-002
-2.441856734872181E-001 +2.737931520983341E-002 +2.774226885480886E-002 +3.376295880139868E-002
-2.613352559857711E-001 -2.324696674244835E-002 +1.677817893308533E-002 -2.486812348742705E-002
-2.415681504315765E-001 -1.598047566598402E-002 -4.673355994841784E-002 +1.303975721115780E-002
-1.978776659524134E-001 +3.332296239743290E-002 -2.119387197387571E-002 +1.015801593524854E-002
-2.275124924997787E-001 +2.465699274243216E-002 +4.346264680755820E-003 -1.227934060920516E-002
-1.613535919794977E-001 +3.760186943604268E-002 +2.632338660027003E-002 -7.950063954075019E-003
-2.424781772894273E-001 -4.496649150367262E-002 +2.644879142026128E-002 +2.518700742172289E-002
-2.363876063757848E-001 -4.420139189548818E-003 +3.354924339529361E-003 +4.058343336571798E-002
-2.139088728884484E-001 +1.787433232200462E-002 -2.628386560081293E-002 +4.442219127777666E-002
-2.478622827543810E-001 +2.340220802578585E-002 +4.549544256891584E-002 +2.585146167731994E-002
-2.288391569897320E-001 +1.730962296027007E-002 -1.291459470715709E-002 -5.003469396169637E-002
-2.628919644764117E-001 -4.220127733331237E-002 -2.429340776687086E-002 -1.475720399859389E-002
-3.000885488285536E-001 +1.689579185023618E-002 +2.895416179062803E-002 +3.458177418204537E-002
-2.480838959603927E-001 +1.902189304203783E-002 -1.143572522225409E-002 -2.253017307192370E-002
-2.702068385316268E-001 -4.800150611963457E-002 -3.434587404747323E-002 -9.237661608459166E-003
-2.560351180450225E-001 -4.849652852870233E-002 +1.150924041656314E-002 +8.551276438287471E-003
-2.215609991650380E-001 -6.027241423567086E-002 -5.031517300074931E-003 +3.497396843780168E-002
-2.247654801441886E-001 +1.553438627868381E-002 +3.391155214707420E-002 -9.901012913557774E-003
-2.918816638126790E-001 -1.774523990361486E-002 -1.488858836555434E-002 -4.650188001549756E-002
-1.819991302856631E-001 +1.901751976176631E-002 +2.412204485792877E-002 +2.483688738831852E-002
-2.188233221671858E-001 +2.882478300474693E-002 -7.375531914572772E-002 -1.882371514022637E-002
-2.187739344879548E-001 +1.139092055957235E-002 -3.333276624712058E-002 -2.784413116122017E-002
-2.652925073235808E-001 +2.530487385731728E-002 +5.003883636065241E-003 -1.798498966115876E-002
-2.221754762133452E-001 +4.638906135980211E-002 -2.298037502645944E-002 +2.685469953163878E-002
-2.512311578768296E-001 +5.671358761834007E-003 +1.510544416521015E-002 -1.429352004180960E-003
-2.195083413713128E-001 -7.642777581588553E-003 -2.954514002325782E-002 +3.391400808092710E-002
-2.511612957435212E-001 +4.241167659035740E-002 +2.239822914591964E-002 +9.499462241866454E-003
-1.938205727788234E-001 +1.089877039864186E-002 -5.239335437538004E-002 +6.081470878011486E-002
-2.473683378285172E-001 -2.080537583098771E-002 -5.975925101242767E-002 +1.598946381985012E-002
-2.815972984536701E-001 +2.722190509723067E-002 -1.671886465830075E-002 -2.387663506941718E-002
-2.155922631469770E-001 -1.349346977622037E-002 -7.108562183984675E-003 -3.827853928499705E-002
-2.381626039698650E-001 +3.229488126731030E-002 +2.386594452615838E-002 -4.887921496564996E-003
-2.391470492365806E-001 +4.778682837968873E-002 -2.790480265427699E-002 +1.815818076718718E-002
-2.504670844371140E-001 +4.760957714945981E-003 -6.915672950243908E-003 +4.463354625445592E-002
-2.324034914957120E-001 -2.078816710333289E-002 -1.486105603041571E-002 -4.528572797156739E-002
-2.224496897387939E-001 -3.981695465004881E-002 -2.285173953006750E-004 +1.036179771165389E-002
-2.731243651482986E-001 -3.525436451271374E-002 +1.693399606201788E-002 -5.063462410021068E-002
-2.184823265097975E-001 -6.583249095715600E-005 -1.006266451846176E-002 +4.356702965457888E-002
-1.882391819642456E-001 -1.914361580009251E-002 +2.178017075557540E-002 +4.389818599579491E-002
-1.581507757202168E-001 +1.222473713617391E-003 +3.130210289034490E-002 -3.910738347420561E-002
-2.295658066668645E-001 +1.437867090881540E-002 +2.636660506752628E-002 -1.265739176080103E-002
-2.855588999252219E-001 +2.928943057083447E-002 +2.152954641801484E-002 -2.088773228017198E-002
-1.888033896038628E-001 +1.857934607438491E-002 -2.941624876743452E-002 -3.266421936097579E-002
-2.927705604153866E-001 -2.066121312783915E-003 +1.713410688524915E-002 -3.990221907114562E-002
-2.130317732937092E-001 +1.297374411542204E-002 +4.805938135079333E-002 +3.298593001566559E-003
-2.034472001743706E-001 -1.753568285430753E-002 +2.897152299033707E-002 -1.903105975334409E-002
-2.210576245123982E-001 +5.095618901603162E-002 -2.308496364654654E-002 +1.181647588385159E-002
-2.429002792616494E-001 -4.719421280376781E-003 -1.074903479099555E-003 +3.570211353158463E-002
-2.524897058838097E-001 +3.537309078372516E-002 +1.391291792716843E-002 -4.044337834395695E-002
-2.096777028251521E-001 -9.107975926544143E-003 -5.955837845314417E-002 +3.075405826809363E-002
-2.596599229930089E-001 -3.764466573523424E-002 +4.261174187591493E-002 -3.094580165939559E-004
-2.014514820719958E-001 -3.527002038513687E-003 -1.819190914053969E-002 +2.818178539248973E-002
-2.053858841362315E-001 -6.582470367177741E-002 -4.707759066682404E-002 +2.374141201533176E-002
-1.732752300975002E-001 -7.046871445516717E-002 -4.993871126409141E-003 +9.283729516443959E-004
-2.640563592304063E-001 -2.423171986836402E-002 -6.844276251083711E-003 +3.719359898319159E-002
-2.921763322588687E-001 +3.116358903127983E-002 +1.629818240442366E-002 +2.428825873396854E-002
-1.805607136878009E-001 +3.405360480111892E-002 -1.382096270808601E-002 +5.308020545546178E-002
-2.616891076410934E-001 -2.378303743123925E-002 -2.014335668143487E-002 +1.421942661673629E-002
-2.253061454766171E-001 -1.563321765797814E-002 +8.587245875913380E-003 -4.158348229613286E-002
-2.019881102995589E-001 +2.273642920008194E-002 +2.791117601296944E-003 -1.369605809133938E-002
-2.576912391253424E-001 -3.413434851130693E-002 -3.260285338655058E-002 -2.306378707287685E-003
-3.034479767365668E-001 +3.364776785782317E-002 +4.284617961675338E-003 +5.493807015538549E-002
-1.969653082946153E-001 +3.503020010448468E-002 -4.059191827661784E-002 -2.669393969263547E-002
-2.371331877345909E-001 +3.004796788884139E-002 -1.007081123245161E-002 -1.283105170946910E-002
-2.243987704299161E-001 +2.083315976133969E-002 -1.580466869866841E-003 +1.803157189173533E-002
-2.543816985281929E-001 -2.687362986991578E-002 -2.545898151107549E-002 +3.373397008535457E-002
-2.888347655882391E-001 -6.505987334139110E-003 -5.476643263983362E-002 +2.593294313394115E-002
-2.470228758939339E-001 +4.082977147976902E-003 +2.411502501074387E-002 +2.918871622929506E-002
-2.566384638642564E-001 -3.577247898345336E-002 -2.432431613672754E-002 -1.465984784613819E-002
-2.055580093079123E-001 +5.451029464215458E-003 +4.247158282349000E-002 +5.496021426699402E-002
-2.103609075055202E-001 -1.435371568823452E-002 -3.750804374689724E-002 +2.838090735713663E-002
-2.539952285043122E-001 -8.950641371581453E-004 -3.869070759415483E-002 +4.874880894894426E-003
-2.120301932396748E-001 -4.487381445704058E-002 +1.178238633251460E-002 +4.336324516615570E-004
-3.062852797243438E-001 +1.937491751622071E-002 +1.220678028620768E-002 +1.455332271942026E-002
-2.940130158101225E-001 +3.508408512139806E-002 +3.101659292348783E-002 -1.038880084181809E-002
-2.309493909820455E-001 -3.550745617704376E-003 -1.263599499786074E-002 +1.285208226339779E-002
-2.136191933773198E-001 -9.961720134408986E-003 -2.344216182710280E-002 +4.761347464469103E-002
-2.243241062723481E-001 +2.443416053186222E-002 -3.477320945087676E-002 +1.998142197325824E-002
-2.130023301055377E-001 -4.456220439912405E-002 +5.315490635909035E-003 -2.515200580574191E-002
-2.154028563979260E-001 +4.376113807666001E-002 +7.694797283607708E-004 -5.284066101958334E-002
-2.136938741331454E-001 -3.624148992110472E-002 -1.484461320993044E-003 -7.558235536282208E-003
-1.977481624253015E-001 -2.753962743439960E-002 -6.291278046419441E-002 -4.638540404040276E-002
-2.426029478806808E-001 -3.272486398816098E-002 +5.882310181952052E-003 -2.773895566582799E-002
-2.704489713744574E-001 +4.814419164781522E-002 -2.610853333136243E-003 +1.505181709540925E-002
-2.634723402714539E-001 -3.400441181678169E-002 +1.320141209204756E-002 -6.685482900108691E-002
-2.030120421288724E-001 +3.325605663756905E-003 -6.596560245915742E-002 -6.107203928919492E-002
-1.850954039943249E-001 +2.454130197573908E-002 -1.689494844196134E-002 +2.152359331950163E-002
-2.369127656076651E-001 -3.211590556822223E-002 -1.117371480853093E-002 +2.925945175451144E-002
-1.837819755982576E-001 -5.547907050838024E-002 -1.138551710656965E-002 +1.711294921043018E-002
-2.520877566381557E-001 -1.892464598412542E-002 +4.737503010493273E-002 +2.760497703738000E-002
-2.459492010229297E-001 -1.600254708971630E-002 -2.672564599248982E-002 -7.244079184143059E-003
-2.070804504797950E-001 -2.588712125572175E-002 +5.687689059255537E-002 -4.930730902416137E-002
-2.829236036760209E-001 -1.376995171870687E-002 +5.184559377140651E-002 +1.104962561817629E-002
-2.724672484380193E-001 -2.751092648504161E-002 +3.332017301946644E-004 +5.231891521302984E-002
-2.814951865591366E-001 +1.472415193979074E-002 -2.855804650498843E-002 +3.100288309642073E-002
-2.043114497403525E-001 +5.568335935147189E-003 -3.981206961393508E-003 -3.201339494472954E-002
-1.715193513210562E-001 +3.263494079280994E-002 -3.323266729348210E-002 -4.988509970806360E-002
-2.258041478153995E-001 -4.762834486820484E-003 -3.062693978157384E-002 -3.649291774633397E-002
-2.268919035561549E-001 -1.688686977167919E-002 +1.860913492220153E-002 +2.368102449724925E-002
-1.948717886466811E-001 -3.271293390979173E-002 -1.951039047814261E-002 +2.060016965058755E-002
-2.504364112907289E-001 -9.767920335713580E-003 +4.126294996703186E-002 +2.865275401699641E-002
-2.791388739519694E-001 +2.490962702570280E-002 -8.759488188468896E-003 +2.045993264961245E-002
-2.163968098147898E-001 -1.668293355089577E-002 -3.640108995126026E-002 -3.040367998775838E-002
-1.896935997034836E-001 -1.502798738926984E-003 +3.283605110869958E-002 -1.454132161819017E-002
-2.708787423671365E-001 +3.456513957863255E-002 -2.757134347277086E-002 -1.439752389734610E-002
-2.920614417311533E-001 +5.445886334894011E-003 +8.342548513410774E-003 +5.391753242592686E-003
-2.979840705637150E-001 -1.071779805720498E-002 +1.021087837325768E-002 +2.876817803950487E-002
-2.682411535744129E-001 -3.870782179142837E-002 +1.581851247987396E-002 -5.073744954366189E-002
-2.443386471346099E-001 +5.625338340133620E-002 -4.065151421633740E-003 -1.069349367595573E-002
-2.500984903433561E-001 +1.058619493859988E-002 -1.022547093486813E-002 -5.032752306873305E-002
-2.304531061117673E-001 -5.854011014891644E-002 +6.813795355951733E-004 -5.581672907814379E-003
-2.155761390908204E-001 -2.925706805403101E-003 +3.969530199736406E-002 +1.155329927982208E-002
-2.590680809964665E-001 -5.442451069522281E-003 -2.540955774705374E-002 -2.343650017567223E-002
-2.527342958213636E-001 +1.067125973405033E-002 +4.642242969446150E-002 -3.964299103362345E-003
-2.994238799588479E-001 +2.561548688595455E-002 +4.435425531610537E-003 -5.269755212657472E-003
-2.645750050693726E-001 -3.482274322791755E-002 +2.642583822229446E-003 -2.608176353997410E-002
-2.914230914885607E-001 -5.578351690585529E-003 -3.631842809974883E-003 -2.241814936395153E-002
-2.081639079526339E-001 -1.021423038566349E-002 -6.344490624294788E-002 -2.554303984911623E-002
-1.816219395692095E-001 +1.404191402769464E-002 +3.263234260123615E-002 +4.246586097542102E-002
-1.990343383145688E-001 +3.639498432076582E-002 +7.699610669754693E-002 -9.667804426890676E-003
-2.802030146360379E-001 -3.633310465579535E-002 +3.327973572301118E-002 +2.829159668751479E-002
-2.210165021908822E-001 +2.821602760987935E-002 +1.724150657376872E-004 -3.377673678607539E-002
-2.047929959780029E-001 -4.122938077165041E-002 +7.668083374944251E-003 +4.099275257414269E-002
-2.153922460355275E-001 +8.092183398877519E-003 +1.737544313554095E-002 +3.656781520711979E-002
-2.455986466888215E-001 +9.617475301352122E-003 -2.361587509971404E-002 +2.382229585104719E-002
-2.748261498909699E-001 -4.161068611740121E-002 -1.876743412891191E-002 +3.370493608077212E-002
-2.768766208693024E-001 +3.680251347998971E-003 -3.603298789352052E-002 +4.559979313232917E-002
-2.242265001656986E-001 -6.386792086137444E-002 -2.077483602878774E-002 +2.341255055861579E-002
-2.034070223928662E-001 -4.932335218052699E-002 +1.173074071326399E-002 +4.630533952499138E-002
-2.510755241944233E-001 +7.088502567222989E-003 +3.039967156423813E-002 +1.794386210859013E-002
-2.649317088795080E-001 +9.350904587495917E-003 -3.516924487518439E-002 +2.236429631462558E-002
-2.131633602654923E-001 -5.113596404374781E-003 -3.085253178875150E-003 -4.838419054721619E-003
-2.939512752930447E-001 -4.354423293853830E-002 -1.280538423526185E-003 +1.483448030108172E-002
-2.027613591423314E-001 +2.509066539493640E-002 +3.879311472859667E-002 +7.785658603410260E-003
-2.183475412360447E-001 -1.678033275499184E-003 -2.443688689222951E-002 -3.626749871015403E-002
-2.149345622501879E-001 +4.039915368687017E-002 -3.236901359704995E-002 -2.053276233254571E-003
-2.694342630087382E-001 +1.090660891635156E-002 -2.492602246571624E-002 +2.298935025520408E-002
-2.562834022659837E-001 +5.027597039832170E-002 -1.489492469902643E-002 -3.889318911981248E-003
-2.133107394283416E-001 -1.205618071627550E-002 -3.001738852747159E-002 -3.444403565528934E-002
-2.989086820817097E-001 -2.102267726064489E-002 -4.073437423443157E-003 +1.309455591924604E-002
-2.775727385598951E-001 -2.983246656427183E-002 -4.257087696725257E-002 -7.492573223301828E-003
-2.447641197457440E-001 +2.612601745566061E-002 +3.645910348117425E-002 +5.640832875111307E-003
-3.104837066851891E-001 -4.878908414302521E-002 -1.852803927488352E-002 -1.674843605960027E-002
-2.257972540852283E-001 +3.757415004375012E-002 -5.153034086312193E-003 -3.837955841958753E-002
-2.181417399902479E-001 -5.828707963024737E-002 +1.058292898627406E-002 +1.737899478340584E-002
-2.261053195391101E-001 -3.831229385670007E-002 +1.603337316890282E-002 +1.014586234435990E-002
-2.806646184883145E-001 +4.687231882921150E-002 -3.692569647522825E-002 +2.045614684117425E-002
-1.943988149644528E-001 -1.910673952173416E-002 +5.681784514959271E-002 +4.043370808014085E-002
-2.827507232127225E-001 +3.922596865820263E-002 +2.741859782715394E-002 -1.711346861798864E-002
-2.967601502173083E-001 -3.652138035287248E-003 -4.081413637064684E-003 +4.487975924395937E-002
-2.853948265311402E-001 +7.616984829456868E-003 +4.491440815440957E-002 -1.790155953841813E-002
-1.978352203275256E-001 +2.168901406287387E-003 +6.138098751173627E-002 +2.854213397067093E-002
-2.023408806033953E-001 -1.327738598464407E-002 +5.711450232934756E-002 -3.623435193133084E-002
-2.202043320296473E-001 -2.409331424340008E-002 +3.101657733204969E-002 -7.309449833750208E-003
-1.776531318060666E-001 -2.860633649231897E-002 +2.503276457170308E-003 -4.796501492421636E-002
-2.879693633036618E-001 +9.143656784468429E-003 -3.052407855713698E-002 +3.442498200142843E-003
-1.755794597827553E-001 +5.422415957104961E-002 -1.508309787517152E-002 +1.691716223034857E-002
-2.398503685978884E-001 +3.561746514184247E-003 +1.109111198771456E-002 -2.305091566131030E-002
-2.564809298380034E-001 -6.348609048572870E-003 +2.555027267522498E-002 -3.889085641815079E-002
-1.967525754157983E-001 -4.974291800901622E-003 -4.080475111789417E-002 -1.400052982941677E-002
-2.476235907109366E-001 -3.916453033045277E-002 +1.040036473826663E-002 +1.004154252285204E-002
-2.241667589463079E-001 +1.008492420710395E-003 +4.131465649876855E-002 +6.253756582209995E-002
-2.187652905138648E-001 +6.005612435396921E-002 -2.797400753017145E-002 +1.392827169113968E-002
-1.819616167534779E-001 -1.903745979750814E-004 +2.476134853505839E-002 +6.577322420883608E-002
-2.329530348761436E-001 +9.742553287163089E-003 -3.122867877397511E-002 +3.536407912213365E-002
-2.301587538588175E-001 -4.834200401758988E-002 +3.074243532124328E-002 +1.178755392689070E-002
-2.578875586637334E-001 -3.644684503761494E-002 -4.164049538204361E-002 +2.070399639627030E-002
-2.191287834415830E-001 -6.546391864278666E-003 +3.361696848023785E-002 +3.951100978723365E-002
-2.336390198901618E-001 -1.843295172557816E-002 -3.121130113884497E-002 -2.675543448435899E-002
-2.107461568457255E-001 -2.529465497728486E-002 +2.688486563160278E-002 +4.020073217671850E-002
-2.503026087067619E-001 +1.093425659218501E-002 -1.213196390481894E-002 +2.155871914319532E-002
-2.666134549483440E-001 -2.525871317109273E-002 +1.367477951862074E-002 -4.831482609462940E-002
-2.295346576618755E-001 +8.341694073242156E-003 +2.334970574250245E-002 -2.810105956882355E-002
-1.979372607125806E-001 -4.657382622637310E-003 +2.492260913361696E-002 -4.128725721777859E-002
-2.611052121652745E-001 +4.185993210115996E-002 -3.756869067935052E-002 -1.767149614439629E-002
-2.599710666734230E-001 +9.910279014735368E-003 +2.988957173850473E-002 +2.312147523417059E-002
-2.920627134967750E-001 -5.493296864499258E-002 -2.952279160996244E-002 -3.792284520927801E-003
-1.867347364796995E-001 +4.189861192199065E-002 +4.350922490264856E-002 +2.504789991433097E-002
-2.772895634156733E-001 +2.566183025799134E-002 +1.166422369015841E-002 +4.829689033682905E-002
-2.530844874656074E-001 -4.429025401637880E-003 +2.326865876318916E-002 -1.699455084442811E-002
-2.408085642046829E-001 -6.020796460039350E-003 -6.594887113875374E-003 +2.823242007265103E-002
-2.320195428668424E-001 +3.486999261022365E-002 +2.240697105126801E-002 -2.067154249414067E-002
-2.211084489968315E-001 +5.562093145020666E-003 +1.401043230355606E-002 +2.726453621107311E-002
-2.468512947514107E-001 +4.779817179060955E-002 +4.568005869415448E-002 -4.431390280232646E-002
-1.689339828517545E-001 -2.837132187969820E-002 +1.315000306340382E-002 -4.119223041802024E-002
-2.307928751324503E-001 -1.653677204609663E-002 -3.960388684691345E-002 +3.970957782287219E-003
-1.941533398032239E-001 +3.955716276386199E-002 -3.831292356071320E-002 +1.649261014861079E-002
-2.572709635916340E-001 +4.984439719035308E-003 +9.826204895633232E-003 +3.506591953897043E-003
-2.737689512920269E-001 +2.195566229124958E-002 +3.501792482873744E-002 -3.284202513133124E-002
-2.417808544282642E-001 -3.152840895523505E-003 -2.532976960166191E-002 +3.186209991258967E-002
-2.004685952454787E-001 +3.908923991627831E-002 +1.152481087310998E-002 +7.185999357674304E-003
-2.421487801289853E-001 +2.217576227539829E-002 -2.188716028281756E-002 -2.341121451644875E-002
-2.676270056073455E-001 +8.716866956325599E-003 -5.531544978693002E-002 -2.882599000727039E-002
-1.805304081993888E-001 -3.591467664758863E-002 +1.472642244118438E-002 -4.792895346299864E-002
-2.120756893240685E-001 +3.285147570409348E-002 +4.787241874304145E-002 -1.077610595153173E-002
-2.313418658898742E-001 +2.008855405723185E-002 +7.042833338593686E-002 +1.105231906764264E-002
-3.043652372982886E-001 -1.264254648417510E-002 +1.573587022069715E-002 +2.372665634003181E-002
-2.095367655521289E-001 +2.461871378184649E-002 +4.132305598245341E-002 -4.646322323513057E-002
-2.559641992561680E-001 +7.473544438704423E-003 +3.588324976242323E-002 +1.745283563824076E-002
-2.947716747687327E-001 -3.101460874703995E-002 -4.196964424455740E-002 +1.450851830243916E-002
-1.966864376180498E-001 -3.594588987477275E-002 +4.162446925299875E-003 -6.781766471626605E-003
-2.418413623748256E-001 -2.090305243573349E-002 -6.158455126741156E-003 +3.555239218210520E-002
-2.950098556431729E-001 +2.141070880284715E-002 +3.489334197847785E-002 -4.077369726355320E-003
-2.607687439392033E-001 -6.256245315005087E-003 -9.633955023035925E-003 +3.919180817854199E-002
-2.684733023209166E-001 +2.082639040042427E-002 +1.332667697320027E-002 -3.433840807208134E-003
-2.156531388248286E-001 +4.345653968345186E-002 -2.120057401376825E-002 -9.212696774926530E-003
-2.925486195498905E-001 +7.635841757559658E-003 +1.328615569913804E-002 -3.598185330417288E-002
-2.550019010495587E-001 +6.615944930871338E-003 +3.167931150950329E-002 +2.420464488744463E-002
-2.133943047808453E-001 -5.206660635230291E-003 +2.720850936127668E-002 -5.221349435457809E-002
-2.334783419024042E-001 +2.678161310282357E-002 -2.592514355059500E-002 +1.378960564033074E-002
-2.182398062506777E-001 -3.232917857972620E-002 -8.697866379901000E-003 +1.635462447901015E-003
-3.218512054059612E-001 -2.281545179902485E-002 +4.086959934641946E-005 +4.592181602601160E-002
-2.412146959624201E-001 +2.882726513041026E-002 +1.843853444048351E-002 -3.940547353103978E-002
-2.236405669012020E-001 +5.422332280958358E-002 +7.971745699674912E-003 -1.717194966667578E-002
-1.722847806555931E-001 -3.054848956236484E-002 +5.275955032593805E-002 +2.424521578965875E-003
-2.432573685460882E-001 -1.814219150675373E-002 +1.191393557744135E-002 -5.811027846849733E-002
-1.890946798235299E-001 -2.200311338635516E-002 -2.712922373789949E-003 -4.408264912835669E-002
-2.572203818064257E-001 +2.945496392292254E-002 -1.145548320810143E-002 +1.615598812613497E-002
-2.343851357937979E-001 +2.644026845879157E-002 -1.969716280638212E-002 +1.399667586725415E-002
-2.057172073143596E-001 -4.245379104412863E-002 +1.439182535955056E-002 +1.979175623146682E-002
-2.726591679933765E-001 +2.209128514719524E-002 +5.555752819147374E-002 +1.364067387862305E-002
-2.741271637950692E-001 +1.155359056108226E-002 +6.843626701848174E-003 -1.992409617195480E-002
-2.194990872505488E-001 -2.157546252162863E-002 +9.949046363991562E-003 +3.789734155915295E-002
-2.517967086158762E-001 +1.244396088432002E-002 -4.747012872319035E-002 +8.197588243737954E-003
-2.129533525530902E-001 +1.664628680475409E-002 -1.745158002363890E-002 -2.785655686698732E-002
-2.534823563200725E-001 +1.415999919929540E-002 -2.604901777187244E-002 -1.246521539842747E-002
-2.047319370882299E-001 +2.712417418047949E-002 -4.668482513107795E-002 +3.475016531646627E-003
-2.187625621887817E-001 +2.153843348551660E-002 +7.764400319512918E-003 -3.384307293208429E-002
-2.429115627911977E-001 +3.764767856291707E-002 -3.092038222840908E-002 +3.382663861631406E-002
-2.983042746903547E-001 -1.398213890127421E-002 -3.399835836685732E-002 -2.868480503004766E-002
-2.037056249245180E-001 -6.075595050301660E-002 +7.556848567197331E-003 -2.901006567038297E-002
-2.420095678247685E-001 +4.402070792375248E-002 -4.757491375239254E-003 +3.619798580756822E-002
-3.011497841642845E-001 +3.951456685481281E-003 +4.119706832242208E-002 +2.681565736209385E-002
+0.000000000000000E+000 +0.000000000000000E+000 +0.000000000000000E+000 +0.000000000000000E+000
+0.000000000000000E+000 +0.000000000000000E+000 +0.000000000000000E+000 +0.000000000000000E+000
+0.000000000000000E+000 +0.000000000000000E+000 +0.000000000000000E+000 +0.000000000000000E+000
+0.000000000000000E+000 +0.000000000000000E+000 +0.000000000000000E+000 +0.000000000000000E+000
+0.000000000000000E+000 +0.000000000000000E+000 +0.000000000000000E+000 +0.000000000000000E+000
+0.000000000000000E+000 +0.000000000000000E+000 +0.000000000000000E+000 +0.000000000000000E+000
+0.000000000000000E+000 +0.000000000000000E+000 +0.000000000000000E+000 +0.000000000000000E+000
+0.000000000000000E+000 +0.000000000000000E+000 +0.000000000000000E+000 +0.000000000000000E+000
+0.000000000000000E+000 +0.000000000000000E+000 +0.000000000000000E+000 +0.000000000000000E+000
+0.000000000000000E+000 +0.000000000000000E+000 +0.000000000000000E+000 +0.000000000000000E+000
+0.000000000000000E+000 +0.000000000000000E+000 +0.000000000000000E+000 +0.000000000000000E+000
+0.000000000000000E+000 +0.000000000000000E+000 +0.000000000000000E+000 +0.000000000000000E+000
+0.000000000000000E+000 +0.000000000000000E+000 +0.000000000000000E+000 +0.000000000000000E+000
+0.000000000000000E+000 +0.000000000000000E+000 +0.000000000000000E+000 +0.000000000000000E+000
+0.000000000000000E+000 +0.000000000000000E+000 +0.000000000000000E+000 +0.000000000000000E+000
+0.000000000000000E+000 +0.000000000000000E+000 +0.000000000000000E+000 +0.000000000000000E+000
+0.000000000000000E+000 +0.000000000000000E+000 +0.000000000000000E+000 +0.000000000000000E+000
+0.000000000000000E+000 +0.000000000000000E+000 +0.000000000000000E+000 +0.000000000000000E+000
+0.000000000000000E+000 +0.000000000000000E+000 +0.000000000000000E+000 +0.000000000000000E+000
+0.000000000000000E+000 +0.000000000000000E+000 +0.000000000000000E+000 +0.000000000000000E+000
+0.000000000000000E+000 +0.000000000000000E+000 +0.000000000000000E+000 +0.000000000000000E+000
+0.000000000000000E+000 +0.000000000000000E+000 +0.000000000000000E+000 +0.000000000000000E+000
+0.000000000000000E+000 +0.000000000000000E+000 +0.000000000000000E+000 +0.000000000000000E+000
+0.000000000000000E+000 +0.000000000000000E+000 +0.000000000000000E+000 +0.000000000000000E+000
+0.000000000000000E+000 +0.000000000000000E+000 +0.000000000000000E+000 +0.000000000000000E+000
+0.000000000000000E+000 +0.000000000000000E+000 +0.000000000000000E+000 +0.000000000000000E+000
+0.000000000000000E+000 +0.000000000000000E+000 +0.000000000000000E+000 +0.000000000000000E+000
+0.000000000000000E+000 +0.000000000000000E+000 +0.000000000000000E+000 +0.000000000000000E+000
+0.000000000000000E+000 +0.000000000000000E+000 +0.000000000000000E+000 +0.000000000000000E+000
+0.000000000000000E+000 +0.000000000000000E+000 +0.000000000000000E+000 +0.000000000000000E+000
+0.000000000000000E+000 +0.000000000000000E+000 +0.000000000000000E+000 +0.000000000000000E+000
+0.000000000000000E+000 +0.000000000000000E+000 +0.000000000000000E+000 +0.000000000000000E+000
+0.000000000000000E+000 +0.000000000000000E+000 +0.000000000000000E+000 +0.000000000000000E+000
+0.000000000000000E+000 +0.000000000000000E+000 +0.000000000000000E+000 +0.000000000000000E+000
+0.000000000000000E+000 +0.000000000000000E+000 +0.000000000000000E+000 +0.000000000000000E+000
+0.000000000000000E+000 +0.000000000000000E+000 +0.000000000000000E+000 +0.000000000000000E+000
+0.000000000000000E+000 +0.000000000000000E+000 +0.000000000000000E+000 +0.000000000000000E+000
+0.000000000000000E+000 +0.000000000000000E+000 +0.000000000000000E+000 +0.000000000000000E+000
+0.000000000000000E+000 +0.000000000000000E+000 +0.000000000000000E+000 +0.000000000000000E+000
+0.000000000000000E+000 +0.000000000000000E+000 +0.000000000000000E+000 +0.000000000000000E+000
+0.000000000000000E+000 +0.000000000000000E+000 +0.000000000000000E+000 +0.000000000000000E+000
+0.000000000000000E+000 +0.000000000000000E+000 +0.000000000000000E+000 +0.000000000000000E+000
+0.000000000000000E+000 +0.000000000000000E+000 +0.000000000000000E+000 +0.000000000000000E+000
+0.000000000000000E+000 +0.000000000000000E+000 +0.000000000000000E+000 +0.000000000000000E+000
+0.000000000000000E+000 +0.000000000000000E+000 +0.000000000000000E+000 +0.000000000000000E+000
+0.000000000000000E+000 +0.000000000000000E+000 +0.000000000000000E+000 +0.000000000000000E+000
+0.000000000000000E+000 +0.000000000000000E+000 +0.000000000000000E+000 +0.000000000000000E+000
+0.000000000000000E+000 +0.000000000000000E+000 +0.000000000000000E+000 +0.000000000000000E+000
+0.000000000000000E+000 +0.000000000000000E+000 +0.000000000000000E+000 +0.000000000000000E+000
+0.000000000000000E+000 +0.000000000000000E+000 +0.000000000000000E+000 +0.000000000000000E+000
+0.000000000000000E+000 +0.000000000000000E+000 +0.000000000000000E+000 +0.000000000000000E+000
+0.000000000000000E+000 +0.000000000000000E+000 +0.000000000000000E+000 +0.000000000000000E+000
+0.000000000000000E+000 +0.000000000000000E+000 +0.000000000000000E+000 +0.000000000000000E+000
+0.000000000000000E+000 +0.000000000000000E+000 +0.000000000000000E+000 +0.000000000000000E+000
+0.000000000000000E+000 +0.000000000000000E+000 +0.000000000000000E+000 +0.000000000000000E+000
+0.000000000000000E+000 +0.000000000000000E+000 +0.000000000000000E+000 +0.000000000000000E+000
+0.000000000000000E+000 +0.000000000000000E+000 +0.000000000000000E+000 +0.000000000000000E+000
+0.000000000000000E+000 +0.000000000000000E+000 +0.000000000000000E+000 +0.000000000000000E+000
+0.000000000000000E+000 +0.000000000000000E+000 +0.000000000000000E+000 +0.000000000000000E+000
+0.000000000000000E+000 +0.000000000000000E+000 +0.000000000000000E+000 +0.000000000000000E+000
+0.000000000000000E+000 +0.000000000000000E+000 +0.000000000000000E+000 +0.000000000000000E+000
+0.000000000000000E+000 +0.000000000000000E+000 +0.000000000000000E+000 +0.000000000000000E+000
+0.000000000000000E+000 +0.000000000000000E+000 +0.000000000000000E+000 +0.000000000000000E+000
+0.000000000000000E+000 +0.000000000000000E+000 +0.000000000000000E+000 +0.000000000000000E+000
+0.000000000000000E+000 +0.000000000000000E+000 +0.000000000000000E+000 +0.000000000000000E+000
+0.000000000000000E+000 +0.000000000000000E+000 +0.000000000000000E+000 +0.000000000000000E+000
+0.000000000000000E+000 +0.000000000000000E+000 +0.000000000000000E+000 +0.000000000000000E+000
+0.000000000000000E+000 +0.000000000000000E+000 +0.000000000000000E+000 +0.000000000000000E+000
+0.000000000000000E+000 +0.000000000000000E+000 +0.000000000000000E+000 +0.000000000000000E+000
+0.000000000000000E+000 +0.000000000000000E+000 +0.000000000000000E+000 +0.000000000000000E+000
+0.000000000000000E+000 +0.000000000000000E+000 +0.000000000000000E+000 +0.000000000000000E+000
+0.000000000000000E+000 +0.000000000000000E+000 +0.000000000000000E+000 +0.000000000000000E+000
+0.000000000000000E+000 +0.000000000000000E+000 +0.000000000000000E+000 +0.000000000000000E+000
+0.000000000000000E+000 +0.000000000000000E+000 +0.000000000000000E+000 +0.000000000000000E+000
+0.000000000000000E+000 +0.000000000000000E+000 +0.000000000000000E+000 +0.000000000000000E+000
+0.000000000000000E+000 +0.000000000000000E+000 +0.000000000000000E+000 +0.000000000000000E+000
+0.000000000000000E+000 +0.000000000000000E+000 +0.000000000000000E+000 +0.000000000000000E+000
+0.000000000000000E+000 +0.000000000000000E+000 +0.000000000000000E+000 +0.000000000000000E+000
+0.000000000000000E+000 +0.000000000000000E+000 +0.000000000000000E+000 +0.000000000000000E+000
+0.000000000000000E+000 +0.000000000000000E+000 +0.000000000000000E+000 +0.000000000000000E+000
+0.000000000000000E+000 +0.000000000000000E+000 +0.000000000000000E+000 +0.000000000000000E+000
+0.000000000000000E+000 +0.000000000000000E+000 +0.000000000000000E+000 +0.000000000000000E+000
+0.000000000000000E+000 +0.000000000000000E+000 +0.000000000000000E+000 +0.000000000000000E+000
+0.000000000000000E+000 +0.000000000000000E+000 +0.000000000000000E+000 +0.000000000000000E+000
+0.000000000000000E+000 +0.000000000000000E+000 +0.000000000000000E+000 +0.000000000000000E+000
+0.000000000000000E+000 +0.000000000000000E+000 +0.000000000000000E+000 +0.000000000000000E+000
+0.000000000000000E+000 +0.000000000000000E+000 +0.000000000000000E+000 +0.000000000000000E+000
+0.000000000000000E+000 +0.000000000000000E+000 +0.000000000000000E+000 +0.000000000000000E+000
+0.000000000000000E+000 +0.000000000000000E+000 +0.000000000000000E+000 +0.000000000000000E+000
+0.000000000000000E+000 +0.000000000000000E+000 +0.000000000000000E+000 +0.000000000000000E+000
+0.000000000000000E+000 +0.000000000000000E+000 +0.000000000000000E+000 +0.000000000000000E+000
+0.000000000000000E+000 +0.000000000000000E+000 +0.000000000000000E+000 +0.000000000000000E+000
+0.000000000000000E+000 +0.000000000000000E+000 +0.000000000000000E+000 +0.000000000000000E+000
+0.000000000000000E+000 +0.000000000000000E+000 +0.000000000000000E+000 +0.000000000000000E+000
+0.000000000000000E+000 +0.000000000000000E+000 +0.000000000000000E+000 +0.000000000000000E+000
+0.000000000000000E+000 +0.000000000000000E+000 +0.000000000000000E+000 +0.000000000000000E+000
+0.000000000000000E+000 +0.000000000000000E+000 +0.000000000000000E+000 +0.000000000000000E+000
+0.000000000000000E+000 +0.000000000000000E+000 +0.000000000000000E+000 +0.000000000000000E+000
+0.000000000000000E+000 +0.000000000000000E+000 +0.000000000000000E+000 +0.000000000000000E+000
+0.000000000000000E+000 +0.000000000000000E+000 +0.000000000000000E+000 +0.000000000000000E+000
+0.000000000000000E+000 +0.000000000000000E+000 +0.000000000000000E+000 +0.000000000000000E+000
+0.000000000000000E+000 +0.000000000000000E+000 +0.000000000000000E+000 +0.000000000000000E+000
+0.000000000000000E+000 +0.000000000000000E+000 +0.000000000000000E+000 +0.000000000000000E+000
+0.000000000000000E+000 +0.000000000000000E+000 +0.000000000000000E+000 +0.000000000000000E+000
+0.000000000000000E+000 +0.000000000000000E+000 +0.000000000000000E+000 +0.000000000000000E+000
+0.000000000000000E+000 +0.000000000000000E+000 +0.000000000000000E+000 +0.000000000000000E+000
+0.000000000000000E+000 +0.000000000000000E+000 +0.000000000000000E+000 +0.000000000000000E+000
+0.000000000000000E+000 +0.000000000000000E+000 +0.000000000000000E+000 +0.000000000000000E+000
+0.000000000000000E+000 +0.000000000000000E+000 +0.000000000000000E+000 +0.000000000000000E+000
+0.000000000000000E+000 +0.000000000000000E+000 +0.000000000000000E+000 +0.000000000000000E+000
+0.000000000000000E+000 +0.000000000000000E+000 +0.000000000000000E+000 +0.000000000000000E+000
+0.000000000000000E+000 +0.000000000000000E+000 +0.000000000000000E+000 +0.000000000000000E+000
+0.000000000000000E+000 +0.000000000000000E+000 +0.000000000000000E+000 +0.000000000000000E+000
+0.000000000000000E+000 +0.000000000000000E+000 +0.000000000000000E+000 +0.000000000000000E+000
+0.000000000000000E+000 +0.000000000000000E+000 +0.000000000000000E+000 +0.000000000000000E+000
+0.000000000000000E+000 +0.000000000000000E+000 +0.000000000000000E+000 +0.000000000000000E+000
+0.000000000000000E+000 +0.000000000000000E+000 +0.000000000000000E+000 +0.000000000000000E+000
+0.000000000000000E+000 +0.000000000000000E+000 +0.000000000000000E+000 +0.000000000000000E+000
+0.000000000000000E+000 +0.000000000000000E+000 +0.000000000000000E+000 +0.000000000000000E+000
+0.000000000000000E+000 +0.000000000000000E+000 +0.000000000000000E+000 +0.000000000000000E+000
+0.000000000000000E+000 +0.000000000000000E+000 +0.000000000000000E+000 +0.000000000000000E+000
+0.000000000000000E+000 +0.000000000000000E+000 +0.000000000000000E+000 +0.000000000000000E+000
+0.000000000000000E+000 +0.000000000000000E+000 +0.000000000000000E+000 +0.000000000000000E+000
+0.000000000000000E+000 +0.000000000000000E+000 +0.000000000000000E+000 +0.000000000000000E+000
+0.000000000000000E+000 +0.000000000000000E+000 +0.000000000000000E+000 +0.000000000000000E+000
+0.000000000000000E+000 +0.000000000000000E+000 +0.000000000000000E+000 +0.000000000000000E+000
+0.000000000000000E+000 +0.000000000000000E+000 +0.000000000000000E+000 +0.000000000000000E+000
+0.000000000000000E+000 +0.000000000000000E+000 +0.000000000000000E+000 +0.000000000000000E+000
+0.000000000000000E+000 +0.000000000000000E+000 +0.000000000000000E+000 +0.000000000000000E+000
+0.000000000000000E+000 +0.000000000000000E+000 +0.000000000000000E+000 +0.000000000000000E+000
+0.000000000000000E+000 +0.000000000000000E+000 +0.000000000000000E+000 +0.000000000000000E+000
+0.000000000000000E+000 +0.000000000000000E+000 +0.000000000000000E+000 +0.000000000000000E+000
+0.000000000000000E+000 +0.000000000000000E+000 +0.000000000000000E+000 +0.000000000000000E+000
+0.000000000000000E+000 +0.000000000000000E+000 +0.000000000000000E+000 +0.000000000000000E+000
+0.000000000000000E+000 +0.000000000000000E+000 +0.000000000000000E+000 +0.000000000000000E+000
+0.000000000000000E+000 +0.000000000000000E+000 +0.000000000000000E+000 +0.000000000000000E+000
+0.000000000000000E+000 +0.000000000000000E+000 +0.000000000000000E+000 +0.000000000000000E+000
+0.000000000000000E+000 +0.000000000000000E+000 +0.000000000000000E+000 +0.000000000000000E+000
+0.000000000000000E+000 +0.000000000000000E+000 +0.000000000000000E+000 +0.000000000000000E+000
+0.000000000000000E+000 +0.000000000000000E+000 +0.000000000000000E+000 +0.000000000000000E+000
+0.000000000000000E+000 +0.000000000000000E+000 +0.000000000000000E+000 +0.000000000000000E+000
+0.000000000000000E+000 +0.000000000000000E+000 +0.000000000000000E+000 +0.000000000000000E+000
+0.000000000000000E+000 +0.000000000000000E+000 +0.000000000000000E+000 +0.000000000000000E+000
+0.000000000000000E+000 +0.000000000000000E+000 +0.000000000000000E+000 +0.000000000000000E+000
+0.000000000000000E+000 +0.000000000000000E+000 +0.000000000000000E+000 +0.000000000000000E+000
+0.000000000000000E+000 +0.000000000000000E+000 +0.000000000000000E+000 +0.000000000000000E+000
+0.000000000000000E+000 +0.000000000000000E+000 +0.000000000000000E+000 +0.000000000000000E+000
+0.000000000000000E+000 +0.000000000000000E+000 +0.000000000000000E+000 +0.000000000000000E+000
+0.000000000000000E+000 +0.000000000000000E+000 +0.000000000000000E+000 +0.000000000000000E+000
+0.000000000000000E+000 +0.000000000000000E+000 +0.000000000000000E+000 +0.000000000000000E+000
+0.000000000000000E+000 +0.000000000000000E+000 +0.000000000000000E+000 +0.000000000000000E+000
+0.000000000000000E+000 +0.000000000000000E+000 +0.000000000000000E+000 +0.000000000000000E+000
+0.000000000000000E+000 +0.000000000000000E+000 +0.000000000000000E+000 +0.000000000000000E+000
+0.000000000000000E+000 +0.000000000000000E+000 +0.000000000000000E+000 +0.000000000000000E+000
+0.000000000000000E+000 +0.000000000000000E+000 +0.000000000000000E+000 +0.000000000000000E+000
+0.000000000000000E+000 +0.000000000000000E+000 +0.000000000000000E+000 +0.000000000000000E+000
+0.000000000000000E+000 +0.000000000000000E+000 +0.000000000000000E+000 +0.000000000000000E+000
+0.000000000000000E+000 +0.000000000000000E+000 +0.000000000000000E+000 +0.000000000000000E+000
+0.000000000000000E+000 +0.000000000000000E+000 +0.000000000000000E+000 +0.000000000000000E+000
+0.000000000000000E+000 +0.000000000000000E+000 +0.000000000000000E+000 +0.000000000000000E+000
+0.000000000000000E+000 +0.000000000000000E+000 +0.000000000000000E+000 +0.000000000000000E+000
+0.000000000000000E+000 +0.000000000000000E+000 +0.000000000000000E+000 +0.000000000000000E+000
+0.000000000000000E+000 +0.000000000000000E+000 +0.000000000000000E+000 +0.000000000000000E+000
+0.000000000000000E+000 +0.000000000000000E+000 +0.000000000000000E+000 +0.000000000000000E+000
+0.000000000000000E+000 +0.000000000000000E+000 +0.000000000000000E+000 +0.000000000000000E+000
+0.000000000000000E+000 +0.000000000000000E+000 +0.000000000000000E+000 +0.000000000000000E+000
+0.000000000000000E+000 +0.000000000000000E+000 +0.000000000000000E+000 +0.000000000000000E+000
+0.000000000000000E+000 +0.000000000000000E+000 +0.000000000000000E+000 +0.000000000000000E+000
+0.000000000000000E+000 +0.000000000000000E+000 +0.000000000000000E+000 +0.000000000000000E+000
+0.000000000000000E+000 +0.000000000000000E+000 +0.000000000000000E+000 +0.000000000000000E+000
+0.000000000000000E+000 +0.000000000000000E+000 +0.000000000000000E+000 +0.000000000000000E+000
+0.000000000000000E+000 +0.000000000000000E+000 +0.000000000000000E+000 +0.000000000000000E+000
+0.000000000000000E+000 +0.000000000000000E+000 +0.000000000000000E+000 +0.000000000000000E+000
+0.000000000000000E+000 +0.000000000000000E+000 +0.000000000000000E+000 +0.000000000000000E+000
+0.000000000000000E+000 +0.000000000000000E+000 +0.000000000000000E+000 +0.000000000000000E+000
+0.000000000000000E+000 +0.000000000000000E+000 +0.000000000000000E+000 +0.000000000000000E+000
+0.000000000000000E+000 +0.000000000000000E+000 +0.000000000000000E+000 +0.000000000000000E+000
+0.000000000000000E+000 +0.000000000000000E+000 +0.000000000000000E+000 +0.000000000000000E+000
+0.000000000000000E+000 +0.000000000000000E+000 +0.000000000000000E+000 +0.000000000000000E+000
+0.000000000000000E+000 +0.000000000000000E+000 +0.000000000000000E+000 +0.000000000000000E+000
+0.000000000000000E+000 +0.000000000000000E+000 +0.000000000000000E+000 +0.000000000000000E+000
+0.000000000000000E+000 +0.000000000000000E+000 +0.000000000000000E+000 +0.000000000000000E+000
+0.000000000000000E+000 +0.000000000000000E+000 +0.000000000000000E+000 +0.000000000000000E+000
+0.000000000000000E+000 +0.000000000000000E+000 +0.000000000000000E+000 +0.000000000000000E+000
+0.000000000000000E+000 +0.000000000000000E+000 +0.000000000000000E+000 +0.000000000000000E+000
+0.000000000000000E+000 +0.000000000000000E+000 +0.000000000000000E+000 +0.000000000000000E+000
+0.000000000000000E+000 +0.000000000000000E+000 +0.000000000000000E+000 +0.000000000000000E+000
+0.000000000000000E+000 +0.000000000000000E+000 +0.000000000000000E+000 +0.000000000000000E+000
+0.000000000000000E+000 +0.000000000000000E+000 +0.000000000000000E+000 +0.000000000000000E+000
+0.000000000000000E+000 +0.000000000000000E+000 +0.000000000000000E+000 +0.000000000000000E+000
+0.000000000000000E+000 +0.000000000000000E+000 +0.000000000000000E+000 +0.000000000000000E+000
 
