# Dipoles on mobile particles in atomic unit
# -----------------------------------------
# Dipole:   1 au = 2.541746 D
# step        0
#          mux                     muy                     muz         
-4.012330533637122E-001 -1.021101600182697E-001 -1.639918557755267E-001
-1.232436146032780E-001 +9.221710058273855E-002 +1.512443775257938E-001
+1.249884868006377E-002 +4.624834122596497E-002 +1.441460270037346E-001
-1.481363614034314E-001 -3.499925412016107E-002 -3.056095985463222E-001
-7.260452781795289E-002 +1.812233650573074E-001 +2.126218552326454E-002
+2.418549662528611E-001 +1.672106338271252E-001 +9.427668594886594E-002
-3.640936158064784E-002 +2.440049494789889E-001 -2.437710582047610E-001
+3.275154915368859E-001 +2.120968661418823E-002 +2.273297553119119E-001
+1.209678104419027E-001 -1.570218947329299E-001 +5.628687890172830E-002
+2.116207938619802E-001 +3.593827099641643E-001 +1.960711279799710E-001
+8.560337745172324E-003 -2.073688022048620E-001 +4.761559459248604E-002
+2.412523591811322E-001 -7.014069024954123E-002 +1.332426026370770E-001
-2.338490218511066E-001 +1.502208025769186E-001 +3.799631828328785E-002
+7.502974904676048E-002 -1.021862679444985E-001 -1.644853883456926E-001
-5.124590254734625E-002 +1.441717289722518E-001 +5.331022346223713E-002
+2.548327761823543E-001 +1.272762940842057E-001 -1.471781230404833E-001
-2.543315634066762E-002 +1.590672925596043E-001 -2.383550995735787E-001
-2.855983855557805E-001 +1.343710750705079E-001 +1.833130758060120E-001
-3.895209540718776E-002 +7.365698973754674E-002 -7.462029069619051E-002
+6.644322690491793E-002 +1.604302921379166E-002 +3.637927792331379E-001
-5.293504350837646E-002 +2.260006030494702E-001 -1.039855934941032E-001
+1.358467745851503E-001 -2.075703630629251E-001 +4.011859317367706E-001
+9.912593843277276E-002 -2.475936146174674E-001 +9.901004923619146E-002
+2.888173965191685E-001 +2.571001409153187E-002 -8.494241953544832E-002
+1.265213953435658E-002 -3.206201086484899E-001 -1.155016616230649E-001
+2.249118626724551E-001 -7.938753865617193E-002 -7.187299203117643E-002
+1.348077469954943E-001 +2.424522980915771E-001 -1.156718307055035E-001
-2.315795006337622E-001 +1.926896239863244E-001 -7.967755470405580E-002
+1.689030041101383E-001 +9.463959347125216E-002 -1.363764312553467E-001
+3.431211990770707E-001 +1.070175187250294E-001 -9.980309499207753E-002
-6.113359695245008E-002 +1.951260377913274E-001 -1.893361536910425E-001
-1.157822027623329E-002 +5.793231104558563E-002 -2.612152876394056E-002
+8.504064061170716E-003 +2.262803808145770E-001 +2.007860060530529E-001
-1.062380008187099E-001 -2.286508687006036E-001 +6.378873091572537E-003
+1.259409724918231E-001 -2.995987094754943E-001 +5.870118254916857E-002
+2.524918948743663E-001 +9.717949253600473E-002 -6.028741811740553E-002
+1.245865762663408E-001 +1.485591413047836E-001 -1.161859589952292E-001
+3.779757701599011E-001 -1.871869369797488E-002 -9.743048254408661E-002
+8.063612636694385E-002 -4.748410507519074E-001 -2.369413841202657E-001
-3.625876270797345E-002 -1.150032496553574E-001 -7.410466387244981E-002
+2.031516708066935E-001 +1.803402333216110E-001 +3.739191381498501E-003
-1.491649101446214E-001 -2.439501596786535E-001 -1.875910689946346E-001
-1.263256080123881E-001 +2.167439388007908E-001 -5.005400297508105E-002
+1.272833162573919E-001 -5.511626785540552E-002 +4.833159777676524E-002
+1.656949842745694E-001 -8.123234167697134E-002 +1.245058211955012E-001
-2.745519093642988E-002 -3.851606913142444E-002 +4.421316378761952E-002
-2.458863241401660E-001 -1.034492902362581E-001 -1.964024097783046E-001
-1.124879652818134E-001 -1.043078790576360E-001 -2.182033860258921E-001
+2.788082829604419E-001 -1.358425178407313E-001 +1.216690257714260E-002
+1.270933362468379E-001 +3.807757701309686E-001 +2.541200847490487E-001
+3.584622977980820E-002 +2.491286841341815E-001 -1.862843409629575E-001
+4.237074327982421E-002 -2.864518135401245E-002 +8.613458360745911E-003
-3.040525818676735E-001 -2.706010052753903E-001 +4.348864942737125E-002
+6.708505053578760E-002 -2.806033510570780E-001 +5.967435660060328E-002
+3.977158368841039E-002 -8.044302127134083E-002 +2.223633382471070E-001
-2.794467507065312E-002 -9.783243231190665E-002 +2.661508898019907E-001
+1.673278806854398E-001 +1.060902685668128E-001 -1.443896527372267E-001
-1.694308104383764E-001 -3.600200155517539E-001 -8.836284151157572E-002
-5.199625677508140E-001 +6.326737824514485E-002 -4.931467056418164E-002
+2.256439934916744E-001 +3.301142246243845E-002 -5.806917823851549E-002
-1.188071676576953E-001 -1.378869449324787E-001 +5.044243130399877E-002
-9.033903068797955E-002 -7.424080434236129E-002 +7.047553958504364E-002
-1.424411403315210E-002 +1.114847280609905E-001 -6.732919227403895E-002
+1.248401680270239E-001 +4.834296840395614E-002 -5.806904133659548E-002
+1.501332344389540E-001 -5.068794731627768E-002 +1.574001607575392E-001
-8.502429424303805E-002 -3.015671389912783E-001 -3.088082644393291E-002
+3.092269159388517E-002 -5.154131701430833E-002 +2.580112097341380E-002
-1.259555995754041E-001 -1.184805524302120E-001 -1.433618271829991E-002
-1.814098557368249E-001 -1.533650174810635E-001 +1.193992767183131E-001
+1.422372148129531E-001 -1.369254200341449E-001 -8.152500950088463E-002
+5.034829525515006E-001 -4.626584150569579E-002 +1.323294588095560E-001
-2.398817740790090E-001 -4.055426414219776E-001 +1.741142608784214E-001
-1.600843435008028E-001 +1.329830769072270E-003 +1.314885843169070E-001
-3.927637668365858E-002 -3.004341766209679E-001 -5.992329214131228E-002
+5.623650883295263E-002 +7.226598813527726E-002 +9.983708219029364E-002
+8.449220784732538E-002 +2.284570734661891E-001 +7.327315595574228E-002
-1.165540185210728E-001 -1.468852844760070E-001 -2.730307217333686E-001
-1.458062563780723E-001 +1.367403327872653E-001 +1.113934499482771E-001
-4.031523132474639E-001 +1.828999220612934E-002 -1.217645799656726E-001
-8.830391995790839E-002 +1.759674674790016E-001 -3.363111634738477E-001
-8.522681552909503E-002 -1.549147333196159E-001 -1.148273089895436E-001
-2.520251412364028E-001 -3.977427787220747E-003 +7.412308227002788E-002
-8.916365281158781E-002 -1.125542649002554E-001 +2.031100322995225E-001
+3.477596849898323E-002 +3.317829903860622E-002 +3.332321557303529E-001
+2.516654230608340E-002 +5.183347410423927E-002 -6.299271082162936E-002
-1.733218806876402E-001 +3.282926079370252E-001 -7.995245329137669E-002
+8.928017360766595E-002 -1.939093604433457E-001 +1.975233026394450E-002
-1.066087382187538E-002 -3.751302877933742E-002 -8.684029095872688E-002
+2.872231102771216E-001 +8.170632041499831E-002 -2.554335291540803E-001
+1.292827669910831E-001 -7.354516318810422E-003 +3.005328037580915E-002
+1.228273388625446E-001 -2.913564260153336E-001 -1.330671672837895E-001
+1.474381216409603E-001 -1.273450169983124E-001 +2.555566072144533E-002
-9.243334314161598E-002 +3.115920004984106E-001 -3.315447539539924E-001
+7.656564449221767E-002 -2.925282611806347E-001 -8.245869232947979E-002
-1.477386046262148E-001 +4.227991617984293E-002 -2.492626197271496E-001
-1.769207618904975E-001 -3.130449120438669E-001 +1.240743408901470E-001
+4.236312381839281E-002 -6.733571071034561E-002 +1.868313613368862E-001
+2.069217851374244E-002 -3.346813954167064E-001 -2.825242676655014E-001
+7.307111070069672E-003 +1.165501846992141E-001 +2.046606592149406E-001
-2.492878851090985E-001 -6.672807541921124E-004 -1.525783961879096E-002
-3.909522851306323E-002 -1.354127195662692E-001 +2.435165438625634E-001
-4.454027730296049E-002 +5.688456138885596E-002 +1.482720982694939E-001
+1.008221318816956E-001 -3.656040392145836E-001 -7.561040574847054E-002
+1.380102164101064E-001 +6.183451610212303E-002 +2.791337057175872E-002
+1.261852858560397E-001 +2.261317848239897E-001 -3.928072974988814E-002
-5.937226140187476E-002 -1.130658713628584E-001 -1.353527020403392E-001
+4.181679831016143E-001 +3.573354110433484E-002 +2.212470148938922E-001
-1.605633869953127E-001 -2.097117580679070E-001 +4.079576919531282E-002
+1.427389431590545E-001 -1.186160769194886E-001 -2.961834501614851E-002
-1.429618364911914E-001 +6.853654779706195E-002 -2.636308594197041E-002
-9.755485381396853E-002 -3.449775608112907E-001 -6.138079298030873E-002
+2.248682617763443E-001 +2.265439925284543E-002 +2.815584816305431E-001
-1.417620940128976E-002 +7.751973047509263E-002 -1.584362523806689E-001
+1.570403413368929E-001 -1.632222763264805E-001 -1.395519682419765E-001
+1.986033177575707E-001 -1.400973391276340E-001 +8.812985559123597E-003
-7.850116957835523E-002 -1.258595894008469E-002 +9.127225909636141E-002
+8.707935379399347E-002 +5.095909122480798E-002 +2.328177885248484E-001
+1.664282578295874E-002 +3.517422734433229E-001 +7.000246487293951E-002
+6.733045131398703E-002 -1.455182731757211E-001 -2.346258715974302E-002
+2.324715315676352E-001 +2.998757139503560E-002 +3.235247065203783E-002
+8.032035232919855E-002 +7.002132360604696E-002 +6.350025553435705E-002
+2.024350086847460E-001 +2.771154946689214E-002 -1.193543047775134E-001
-1.707508987497044E-001 -2.580358963978781E-002 +7.692722314527700E-002
-4.085918151187796E-002 +1.813829753590212E-001 +9.651766481235889E-003
-4.043008865239774E-002 +4.726050178903955E-001 +2.093114168356315E-002
+1.278702512046482E-002 +4.623513623774349E-002 -1.153862895741288E-001
+7.001102559077975E-002 +6.754969534206798E-002 +1.729389805218779E-001
-1.204182539199746E-001 +4.501306456476741E-001 -5.295604689899697E-002
-1.099007161843002E-001 -2.926915975159107E-001 +9.583836739740051E-002
-2.035968313307476E-002 +1.724698700587306E-001 +3.041476448010702E-002
-4.632796375012849E-002 +2.099034591081654E-001 +1.879952164759036E-001
-1.243448677824646E-001 -1.847217719401986E-002 -2.242552295634265E-001
-7.499036316229399E-002 -2.470799883160942E-002 -4.528777184584887E-002
-2.483444781141929E-001 +1.419612662651666E-001 -2.517723668252179E-001
+1.208354539643490E-001 -4.176907860385717E-002 +1.869776371254880E-001
-1.423279926770329E-001 +2.986857424787170E-001 -1.154286855391033E-001
+1.705199946807922E-001 +3.088508257044033E-001 +3.602958553966609E-002
-7.919749253074924E-002 -2.031611507897550E-001 -1.506666858176907E-001
-2.759411712623946E-001 +2.968598567608322E-002 -9.879869132316837E-002
+1.380149192067406E-001 -3.095993532541881E-003 +1.132393752328139E-001
+1.391012678049939E-001 +3.581348296364241E-001 -6.707868895474724E-002
+1.519092286543070E-002 -6.558782133338815E-003 +1.698145369124011E-001
+3.135258902508178E-002 +1.228965992826821E-001 +1.393394738633250E-001
+1.584658744689588E-001 -3.121526797554446E-001 +3.388109570820889E-002
-8.425962522063671E-002 -4.193449533706568E-004 -8.491623968641625E-002
-1.125003945557619E-001 +6.012184444013708E-002 -1.979752054010518E-001
+6.498715983290083E-002 -2.146761881909578E-001 -2.876396521229621E-002
+3.020875329110304E-001 +1.459401439759371E-001 +7.659877224733242E-003
-2.216077535232418E-001 -7.012064382843759E-002 -8.163369732598316E-002
+1.004093851815708E-002 -2.311000494842834E-001 +2.305235866315697E-004
+1.423570121149309E-002 -8.670538304913119E-003 +1.067801113844619E-001
+1.449877626444051E-001 -2.170460864322825E-001 +1.733784965394665E-001
-2.427215129934542E-001 -8.189215154482733E-002 +1.389606433651680E-001
-1.050040476735164E-001 +8.232200808421120E-002 -4.080397197425410E-002
+1.530371715467535E-001 -1.077410958372411E-001 -9.718934456797503E-002
-1.821159434385759E-002 +7.394215125360344E-003 +1.713257796920099E-002
+2.631211274795275E-001 +2.173405145101424E-001 +7.265161124933174E-002
+3.764600686513578E-001 +1.077208181817669E-001 -1.409512972942684E-001
+1.451556953747486E-001 -6.789424830723395E-002 -5.752528529697851E-002
-2.834325168170596E-001 -2.444982119634474E-001 +1.986155612797946E-001
-8.792378277512578E-002 -2.801556625518694E-002 +3.959948249229289E-001
-2.068793705718905E-002 +3.939062672795157E-001 -2.607430441070777E-001
+4.023315314813368E-003 +1.879224031057024E-002 +3.684963245239862E-002
+1.899738798524229E-002 -1.678784897317223E-001 +1.697252954395683E-002
-1.365317520240009E-001 +1.407741806709793E-001 +1.607738243424298E-001
-2.040399080599003E-001 -1.155179351798682E-001 -3.003229942458070E-001
+2.142169673839203E-001 -3.783880029316480E-001 +7.979759268441800E-002
-1.065430103550866E-001 +1.103171625672382E-001 -1.152709608494213E-001
-1.508333814647453E-001 -1.777996174402351E-001 +6.450545755672159E-003
+3.853390617155040E-001 -1.300544313200745E-001 -2.002587344743651E-001
+2.418157604434183E-001 +3.033453870318240E-001 -2.493021031551335E-001
+3.303637318612831E-002 +3.039823034735364E-002 +5.195104673237876E-002
-3.952438015163053E-001 -1.367754876787446E-001 +8.253728535553267E-002
-3.635257594398220E-002 -1.737789676569509E-001 -1.576476969125262E-001
+6.913764864976986E-002 -9.616444044970912E-002 +1.619537424553749E-002
+2.767880355421937E-002 -3.448920471520857E-001 -7.037402313170438E-002
+4.344530351967713E-001 +1.385332979351351E-001 -5.926759659195853E-002
+1.409976854774020E-001 +2.295059582708429E-001 -1.221528566177632E-001
+3.031296972675982E-001 +3.044206779510908E-001 -5.232131749186276E-003
-2.194659788961072E-001 -3.643076894647902E-002 +3.541869374532176E-001
-3.070940737351083E-002 +8.347120876752293E-002 -1.463307909447147E-001
+1.966096429628767E-001 -5.622042399885393E-002 -1.806343105182474E-001
-3.344494223840764E-001 -1.753759736199597E-001 -5.371153205055332E-002
-2.666655374800532E-001 -9.074216906134222E-002 -2.952129114118809E-001
+3.217376609311211E-003 +2.656743986296408E-001 -5.480467682748542E-002
-1.639035372881177E-001 -3.755778145306586E-001 -1.811331273168530E-001
-9.404508930345304E-002 +2.497377109197114E-001 -1.146250741447513E-001
-9.881208092952934E-002 -1.646328945300994E-001 -6.442401491597327E-002
+2.235133189070956E-001 +1.579308361567787E-001 +3.885699999572242E-003
-1.532168669197894E-001 -5.810374692411305E-002 -1.623082546172244E-001
+7.472510079740513E-002 +1.252758100852817E-001 -1.247107599938407E-001
-1.162835917917481E-001 -1.570217537798068E-001 -1.302839391080726E-001
+2.547642211430471E-003 +2.095651686578256E-001 +1.502263895224702E-001
+3.976651656428481E-002 +1.713727796639354E-001 -1.381370915158538E-001
-1.318807440119919E-001 +2.072726072521689E-001 +1.982939587916702E-001
+8.996135154118733E-002 +1.459640185564685E-001 +9.050547228332897E-002
+3.079987807670843E-002 -2.022110286201813E-001 +2.232102210270991E-001
+3.506831577975659E-002 +1.624102513034733E-001 +1.818369237149471E-001
-3.122090525882232E-001 -9.765012298592919E-002 +7.279797685337758E-002
-9.803834436187876E-002 +1.580397989705460E-002 +3.976016496899594E-001
-1.955460883055865E-001 -5.092065768949924E-002 +9.833343185107109E-002
-2.098291648196997E-001 -2.929928072190984E-001 -1.949396142967451E-001
+1.071500068411788E-001 -3.710123855826501E-001 +2.292453276799417E-001
-1.929668247133658E-001 +8.113062460951981E-002 -1.165705468776317E-001
-5.188224365929304E-001 +1.762487772603580E-001 -1.098749373146422E-001
-1.486545909594188E-001 -2.529257667153049E-001 +3.512043961336259E-002
-1.157388129111616E-001 -5.399534856237511E-002 -1.437723093375484E-001
+9.174152701914906E-002 +1.881065162191969E-001 -1.457446732205366E-001
+1.111254663298819E-003 +1.244670753090562E-001 -1.272508835767991E-001
-7.830605412829296E-002 -4.062084271414897E-002 +1.592255362443700E-001
-3.289593749812652E-001 -9.483779052279775E-003 -1.301515262811594E-001
+1.263316044957464E-001 -4.122610608220525E-001 -1.391231482713289E-001
-2.079460205102118E-001 +8.703853106345488E-002 -1.744389776450434E-001
+1.393604060152728E-002 +1.476779808047670E-001 -7.624452567901864E-002
-1.634000053763469E-001 +2.637592853777636E-001 +3.885677721376471E-002
+6.384166548185807E-002 -3.013412201386767E-002 +1.132800963113912E-001
-2.512115921712942E-001 +3.474941892967551E-002 -8.059620172728107E-002
-2.056404390415286E-001 +5.489915302566819E-002 +1.555242582516553E-001
-1.248679256529210E-001 +2.101383286488654E-001 +1.375233243266486E-001
+9.645758055364004E-002 +2.156896595740699E-001 +4.820551420397106E-001
+1.565035054296939E-001 -1.174165299122849E-001 -2.637133770613815E-001
+7.004290114681168E-002 +4.585265329889079E-002 +1.746170518041130E-001
+1.193449279098378E-001 -1.119824193684624E-001 +3.874170676629979E-002
-1.793602835538532E-001 +2.187658589643870E-002 -2.406868209408864E-002
+4.028717876175780E-001 +6.622050121649921E-002 -5.793834330774607E-002
-8.824336894648603E-002 +3.234373587728571E-002 -2.956057645564973E-001
-1.571742880200805E-001 +1.184076308292383E-001 -2.127427300307590E-001
-1.927817520801984E-001 -1.944238659993336E-001 +5.865205056181391E-002
-1.077366498285744E-001 -4.684122015899543E-002 +2.441629959891320E-001
-7.542676685293992E-002 +1.743084580623444E-001 -2.751604983589995E-001
-2.162528649787812E-002 +1.749687957126352E-001 -2.576985755911894E-001
+1.474206891297035E-001 -1.575159614710100E-001 +1.802023423625711E-002
-1.112087782259538E-001 -1.795250548834238E-002 -1.877246608614317E-001
+1.614836150648799E-001 -2.378062302861522E-001 -2.997552205809225E-001
+1.089794124790983E-001 -2.696747291532877E-002 -2.177563592109757E-001
-1.052678749892126E-001 -1.952528218095411E-001 +3.108007846279699E-001
-1.450001882088207E-001 -8.008476346192997E-002 -3.370348900544093E-001
+6.834885414659886E-002 +2.097380397000375E-001 +1.645092380692572E-002
-1.564349311676458E-001 -2.698739032895041E-002 -5.542911595585407E-002
+8.357071279465504E-002 +1.476725934770151E-001 +1.444266323977794E-002
+1.078293449189937E-001 +3.326517901602175E-002 +2.860929508163912E-002
+4.440607670367947E-002 -2.501488496004995E-001 -5.793821058644842E-002
-6.638891335849721E-002 -5.309550396110811E-002 -7.770520206079023E-002
-2.008429164164698E-001 -1.142167388707336E-001 +1.539011200456474E-001
+1.710645332401989E-001 -2.278709266538234E-001 +7.455365048632407E-003
-6.091677905538518E-002 +3.352061933110109E-002 +3.717993895993223E-001
+3.864458671547764E-002 -1.249174649269325E-002 +5.239913640542852E-002
+4.281738962780823E-001 +2.157075806546632E-001 -2.535079812442134E-002
+4.501231738193649E-001 +7.649527517063384E-002 +4.787914686175219E-001
+7.166115808553727E-002 +6.293691907329763E-002 +6.968384123166756E-002
+3.517739934972873E-001 -7.422717951465018E-003 +4.377836590483765E-002
+4.778699924136437E-002 -1.077125184477975E-001 +1.117921266755905E-001
-2.139098728758475E-001 +1.717510390646829E-001 -1.175462284631281E-002
-1.086738523784565E-001 -5.239126895064670E-003 -1.546627019758934E-001
+2.024558835454023E-001 +1.798088574308191E-002 +1.666633313070101E-001
+1.085636423421507E-001 -2.078755571470067E-001 +1.402120338672680E-002
-9.096469321177629E-003 +2.599929877447676E-004 +1.510580219646055E-002
-4.529378860884505E-003 +9.906421407297073E-003 +1.235203272320651E-002
-1.284435957692459E-002 +1.963053497989500E-003 +1.254544200666932E-002
+2.684896468246592E-003 +6.049395508781063E-003 -4.264534982508237E-003
-1.218267925144136E-002 +4.204752292587616E-003 +2.371091896229014E-003
-5.862202515919878E-003 -4.415482930919443E-003 +1.023516441166364E-002
+7.232812506531383E-003 +1.380414969718640E-003 -2.147688118020738E-003
+2.121980859171978E-002 -2.737737084366171E-003 -1.397451800985524E-003
+8.719647417441418E-005 -8.877476528932549E-003 +5.657541015042883E-003
+2.664364788999968E-003 +1.056532296966264E-002 -1.948907033607881E-003
-1.219774781276040E-002 +9.293773802299342E-003 +1.366190522595998E-002
-9.280902916580213E-003 -6.706766277727786E-003 -1.397949691886522E-002
+4.384351290690725E-003 +5.544860697032174E-003 +2.187157950520393E-002
+3.272989864670249E-003 +2.803025846088879E-003 -3.123234690091504E-003
+5.226751363880598E-004 -8.208555664281379E-003 -2.170048880054192E-003
+1.556453782228034E-003 +1.687268211415073E-003 -1.324875101408313E-002
-6.272677603945728E-003 +4.325174390260844E-003 +2.811870346787774E-003
-8.571556727812997E-003 -1.265181052423326E-002 +5.946403991784568E-003
-1.735585385341854E-002 -4.410710058756372E-003 +2.758005729752113E-003
+9.895079279255994E-004 -6.428441436286386E-003 +1.415437957720429E-002
-1.719134173706025E-002 +1.051507970080305E-003 -6.843025619737508E-003
+2.935205730601929E-003 -8.699539772785281E-004 -1.000479045499808E-002
+1.588324394517891E-002 +3.510552909904483E-003 -1.211769019522585E-002
+2.586935946958514E-003 -7.017930016669875E-003 -1.332151946816431E-002
-3.389376252369790E-003 +1.717043253627184E-002 +3.690767121123038E-003
-9.049840195889076E-003 -5.723697639077965E-003 +1.173653353321111E-002
+1.334674209773346E-002 -5.984864827279019E-003 -1.845122972645643E-002
+8.245804557490913E-003 -7.797791629888462E-005 +6.154823499278530E-003
+3.383139347699145E-003 -5.964887122021263E-003 +5.152590397996033E-003
+3.585892319293757E-003 +7.501003145921348E-003 +8.781678025017330E-003
-8.380828937869041E-003 -5.484139974979521E-003 -7.176937153377361E-003
-9.136628760085270E-003 +7.301628008540307E-003 +9.589490948416701E-004
+1.263466374938684E-002 -2.145201952302222E-002 -9.723322055736561E-003
+5.276564882795070E-003 -2.316172066514649E-003 +5.787280294290566E-003
+5.567080270957763E-003 -1.164181451266772E-003 +7.451507401963654E-003
-5.391902872202993E-003 +1.205146924885824E-002 -2.364844092958406E-003
+1.758703138562309E-003 +8.421074534754472E-003 -1.565666967139518E-002
-1.168670612554844E-003 -1.143870477666911E-004 +1.460745928116371E-002
-1.149510162611231E-002 -1.285518966702113E-002 -6.676332693622418E-003
+2.070792661772439E-003 -5.982393305325236E-003 -2.399354973801269E-003
+1.249496510145033E-002 +1.339556075073152E-002 +1.010474431343367E-002
+1.698903764720665E-002 -1.083358776667360E-002 +1.683157110960458E-003
-6.863491889973591E-003 +1.202535043611639E-002 -6.271416711871006E-003
+2.428741371679954E-003 -1.502408222319467E-003 -8.737175396458333E-003
+1.984573306982426E-003 -1.141384490449806E-002 -1.924944659494504E-002
-1.884625871082897E-002 +1.716458464821208E-002 -4.847142251510259E-004
+6.882404979651238E-003 -3.239726761078544E-003 -3.508464119560245E-004
+1.354998820957485E-002 -4.716545926156130E-003 +2.326240480632050E-003
-2.423863182058550E-003 +3.779572676250398E-003 +1.073857750853105E-002
+1.220047501830939E-002 -3.121095924486148E-003 -1.021518569231283E-002
+1.140475222519979E-002 +1.897186924635935E-002 +2.175825108698720E-003
-4.912691644604178E-003 -8.315016444774946E-003 -4.954460629885704E-003
+1.094489501288046E-002 -2.288870758166653E-004 -8.685236364030822E-004
+9.582078169324134E-003 +4.360985018662565E-003 +2.057518365315229E-002
+2.495571130695096E-002 +1.252954128584046E-002 +1.557390772908218E-002
+2.601232747912136E-004 +5.503318724790401E-003 +9.695599844634396E-003
+2.060343062266443E-002 -9.571897040788240E-003 -3.821221535010327E-003
-9.466037647979435E-004 -8.810059321610353E-004 +1.806417018414370E-003
-4.766933495039516E-004 +1.051181287812504E-002 +9.182111019164085E-003
+1.270862091543476E-002 -7.873687788578825E-004 -1.220854910671581E-002
-6.267843709532520E-003 +1.240259390426627E-002 -1.951796415281885E-003
+5.119845395377401E-003 +3.939748867168956E-003 +1.556563127163811E-003
+2.004838571051456E-002 +9.677649426713449E-003 +4.077402692746315E-003
-2.270987389635469E-003 -1.004148667761809E-002 +5.588071618973818E-003
-1.744983917885829E-003 -2.174604853111596E-003 -1.226691911894579E-002
+5.542115051119762E-003 -6.966878625801439E-003 +4.482335516971526E-003
+1.147942393469683E-002 -8.031791431295704E-003 +9.493249197108767E-003
-2.517983001463084E-003 +9.529178678993489E-006 -1.591003865341451E-002
+1.030159579684313E-003 -4.189123017447833E-003 +1.380250475247592E-002
-5.236071953685540E-003 -2.675461545733598E-003 +2.705674362296958E-002
+7.753550559187204E-003 -5.208589183782742E-004 -7.198646305851349E-003
+6.416173693232100E-003 -3.364722451376190E-003 +1.576692747203827E-002
-6.696643179120772E-003 -7.695286010147640E-003 -2.835435509055088E-003
+4.369689780877797E-003 +3.986787555646299E-003 +1.393439750697594E-002
-2.332109092783421E-002 +7.203761969649513E-003 -1.404792480086688E-002
+3.909475485678042E-003 +5.261295315470934E-003 -1.057157866949256E-002
-1.320538856712002E-002 +3.729252247249310E-003 -2.408039057574961E-002
+8.652126130312111E-003 -7.277149705393516E-003 +7.489992674776109E-003
+2.120401796628714E-003 -8.938050213718154E-003 -1.297321955629943E-003
+2.121965246842751E-002 -1.566325169462944E-002 -1.192605989157091E-002
-1.724893048227818E-002 -6.155180126082419E-003 -1.472996512602305E-003
-1.098253561652399E-002 -9.092521429404822E-003 +1.903364445743086E-003
+4.896356295427157E-003 +5.402628709568787E-003 +5.675559193261866E-003
-2.856904911209995E-003 -1.744383813305213E-003 -1.366759726847344E-002
+8.236821617027332E-003 +3.735888046785648E-003 -2.609659830187057E-003
-2.431301746912033E-003 -1.328102226604076E-002 -1.083079959373985E-002
+1.500093643867104E-004 +1.912599841734925E-002 -4.756898164297555E-003
-2.884169949991530E-002 -3.962874315984903E-003 -1.731034352787698E-003
-6.040054933064305E-003 -1.108838178738426E-002 +5.308028985697196E-003
-5.389626534850251E-003 -3.346668163343018E-003 -2.752527867295797E-002
-1.953921833515096E-002 +3.610333225634421E-003 -1.649030201554797E-002
+1.799000030464050E-002 +1.234682149438970E-002 -1.323784852503205E-002
+1.238372456096034E-002 +9.662669223218569E-003 -1.365943403003731E-002
+1.079970611499513E-002 -1.566189882205543E-002 -2.018780275122111E-002
+1.110244744490827E-002 -3.833963662684289E-003 -4.446116379074344E-003
-5.005968487597387E-003 -1.211244330495926E-002 -7.617941977297914E-004
+4.455231431023707E-003 +1.518648598631403E-002 -1.110910952283486E-002
+1.127527738710129E-002 +1.800901556937783E-003 +3.092763819814940E-003
-2.653231607970723E-002 -9.235845324926587E-003 +1.837797974170024E-003
+8.698227500927889E-004 +5.654690962539859E-003 +8.387229426288653E-003
-1.145380066005827E-002 +1.712940682739836E-002 -2.328819385941565E-004
+1.258080068208250E-002 -8.234300029984655E-003 -1.840536578524055E-003
-2.197431522529414E-002 -1.621127975807303E-002 +1.496649541344422E-003
-1.449221536216780E-003 -7.348708125311808E-003 +1.489484432449335E-002
-1.395026097205905E-003 -3.544122372319717E-003 +4.452920395153536E-003
+8.472254260748528E-004 -1.511633323563978E-002 +2.695850860418798E-003
+1.075532531178411E-002 +6.634047235967408E-003 +3.650101400861418E-003
-2.651437253833185E-002 -8.189149763548098E-003 +1.728096762084768E-002
+1.622652307664622E-002 +1.101520814240003E-003 -7.696127815105690E-003
+1.825467896467810E-002 +6.377435793633584E-003 +1.126386470923930E-002
-3.178295020881643E-003 +4.186245600657318E-003 -1.332306540429178E-002
-8.127271224678011E-003 -7.777662784374258E-003 -8.389255946115468E-004
+3.166105303074071E-003 -8.169086437290534E-003 +9.780034011900989E-003
-1.442791150564444E-003 +2.509831962083003E-002 -1.058244221996754E-002
+5.479132737219242E-003 -1.782936736536768E-002 -1.514661165136282E-002
+5.758519999505474E-003 -2.401457187057735E-002 +6.367577589616390E-003
-1.182300636787444E-003 -1.111406019186573E-002 -1.012220907059165E-002
-7.835635645167175E-004 -1.360134029350329E-003 +2.089869682392632E-003
-1.049830696272023E-002 +1.896367427306751E-002 -7.139978040220801E-003
-5.779351835445753E-003 -1.321295587911114E-002 +3.309056048003101E-003
-6.101221893849177E-003 -6.747448850931295E-003 -7.028551407439841E-003
-6.488463741318853E-003 -4.137352748356565E-003 +1.678727022913510E-002
+1.383112515149321E-002 +8.790704868683856E-003 -1.280085841276316E-002
-1.002518343498877E-002 -2.904519502162055E-003 +2.166985297409620E-003
+7.797525684870943E-003 -1.854723689968649E-003 +9.411594182010355E-004
-2.394696368795260E-004 -1.738581280854152E-002 +1.143057007069115E-002
-2.017745726446757E-003 -4.512096374793043E-003 +1.206510591441422E-002
+2.769634351095370E-003 -6.788172919669020E-003 -1.776391001143751E-002
+5.855317404384653E-003 +1.858614328108543E-002 +1.077300684301369E-002
-1.793335662319457E-002 +1.430712149643796E-002 -5.788276902657040E-003
+6.768053234454252E-003 +4.515124122648770E-003 -1.078743053052118E-002
+7.810418268294328E-004 -7.145432046332594E-003 -1.698106398809366E-003
-1.662829238775301E-002 +5.964732414977865E-003 +1.460603004704498E-002
+1.797163969034016E-003 +9.536889930273580E-003 +9.782191628867733E-003
-1.218564351507124E-002 +3.639992452551242E-003 +1.825080082386594E-003
+1.222253968378356E-002 +6.385808513660510E-003 +6.465120449187869E-003
-7.089261101912865E-003 +7.554564217010355E-003 +4.021052667033139E-003
-1.401197707102964E-002 +3.310837591606434E-004 +1.685094865414084E-002
-5.623693742155649E-003 +2.496147158950212E-003 +6.950248205611368E-004
-4.288079166105642E-003 +7.021097610885005E-003 -5.114725848377416E-004
+3.636590642342790E-003 +1.013204786103429E-002 -4.694092085499760E-003
+1.581052856791237E-002 -1.854853886516920E-002 +1.545974869483774E-002
-1.178951680843906E-002 +1.320278395556460E-002 -1.945815076549418E-003
-6.333415482502642E-003 +1.079905524567780E-002 +1.616266612076420E-002
-1.497394698447048E-002 +4.790130596678100E-003 +3.134456770382723E-003
-2.856607729776355E-003 -1.050668664804697E-002 -1.110213642162725E-003
+4.668675307105450E-003 +1.073752628155742E-002 -1.800800686004571E-003
+1.138954114500797E-002 -6.021672556030901E-003 -2.013053796815731E-002
+1.200717553273213E-002 -5.171264850225621E-003 +1.730645726814059E-003
-1.840550762755029E-002 +5.153979504677770E-003 +1.425843622069691E-003
+5.366934120545845E-003 +1.558815134544046E-003 -1.711836822135154E-002
-4.898195495935308E-003 -7.416656119805752E-004 +2.918349336945813E-003
+3.330262620402716E-003 -6.617910256322472E-003 -3.775129033071226E-005
-1.208696056170940E-002 +9.059992136933216E-003 +4.209698857293144E-003
+1.734665181134477E-002 +4.956379396634079E-004 +3.111469765369758E-003
+1.697218242035598E-002 +1.030847711953929E-002 +6.366553593530792E-003
+1.940878692032213E-003 +2.297161173975110E-002 -2.108907789071286E-002
-1.432668141764878E-002 -9.166766379463499E-003 +2.939609166414451E-003
+8.873054118197570E-003 -1.644204671964333E-002 -1.089071161584871E-002
-1.985056193490133E-002 +6.822798768773538E-003 +8.458024133824113E-003
-1.591240242071422E-002 -8.887843416492035E-003 +1.109397896842394E-003
+3.553631285854091E-003 +6.120710328806064E-003 -1.649887409785660E-002
-5.733536315207064E-003 -4.122091386943202E-003 +5.718153845125610E-003
-4.539606890833331E-003 +7.286720671035990E-004 +8.810107995081942E-003
-4.140372746744118E-003 +1.626064614830068E-002 -2.220357248672768E-003
-6.779855147944997E-003 -1.537511413526686E-002 +1.003014637367586E-002
+3.996121504314189E-003 -9.841823378617529E-003 +4.576656217418291E-003
-3.767278351105266E-003 -1.596512454640959E-002 -3.991851193953433E-003
+1.569859539391923E-002 -1.248713508636039E-003 -1.337265166449305E-003
+2.698073635131271E-003 -8.330226794081391E-003 -3.765704637813023E-003
+4.760817748211589E-003 -1.297432328087412E-002 +3.135444536842794E-003
-7.180054167027124E-003 -1.168309165970235E-002 +1.903571536353764E-004
+1.127961975991519E-002 -1.202933433476289E-002 +6.750689157140089E-003
+2.511331562439816E-003 -1.772380693212896E-002 -3.614432879141289E-003
+1.495960865115753E-002 -3.560399276398669E-003 +1.570881941095086E-002
-6.087317579026861E-003 +4.680310052209692E-003 +8.961994774624253E-003
-2.404075946613259E-002 +1.197145058806628E-002 +1.747244515466336E-002
+5.522326006896883E-003 +1.818943822572860E-002 -1.464112164403911E-002
+7.654004163708979E-003 +2.001010008847694E-002 +4.095098630406642E-003
+1.176970003831348E-002 -1.762922618998945E-002 -6.277539713786790E-003
-4.993634840898380E-004 -1.132446744411549E-002 +3.399611933722655E-003
+3.281791714702628E-003 -4.879908879000022E-003 -1.335400530968026E-002
+9.130206615602689E-003 +2.118578851022723E-002 -1.263781082131393E-002
-7.216359292877383E-003 -9.509174989082419E-003 -2.359530045581128E-003
-3.168649641148079E-003 +1.522275374345074E-003 -6.445521008208812E-003
-3.646078704834924E-003 -5.972998364297602E-003 -4.915806110126045E-003
-1.960212713624554E-002 -1.931090609265524E-002 +1.024736398994985E-002
-2.700551182570263E-003 -7.614685204252275E-003 -4.044045803840984E-003
-1.779277554256497E-002 -1.484270009585421E-002 -9.089463827989733E-003
+8.885243965434126E-003 -8.177593412474265E-003 -9.107785324733974E-003
-3.356512790917786E-003 +6.515000475301994E-003 +4.144069852516123E-003
-4.617684303773261E-003 +7.093312108395572E-003 +3.845097353363046E-003
-1.055697178669377E-002 -1.253314348299508E-002 +1.730650541649492E-004
-4.186465676850013E-003 +1.272641504910303E-002 +8.402431534015539E-003
+6.787411776353912E-003 -1.477780539876533E-002 +3.098146823084980E-002
-2.076942127780347E-002 +1.363211709875775E-002 +2.704145951706908E-003
+1.436811156668215E-003 +4.259949390335462E-003 -2.455921371174881E-005
+2.385156653734840E-003 +5.615307163712973E-003 -1.017142172382637E-002
-7.080168071016731E-003 +9.117821145771242E-003 +1.449290031844784E-003
-4.884978519788338E-003 -1.791984740389335E-002 +9.345906905111386E-003
+3.807347163781362E-003 +1.190650802107715E-002 -2.281235909006818E-002
-2.922334182280972E-004 -4.389633328764954E-003 -1.408532309175977E-002
+8.531747241356127E-003 -6.932452725952047E-003 -1.152132893144306E-002
+7.024933639803872E-003 -3.904390370846087E-003 +1.893477914033663E-003
+3.617891796852831E-003 +8.756765469074855E-003 +8.356099547719245E-003
+8.164408024904569E-003 -3.562848742305072E-005 -9.230316040741787E-004
+2.747648092894120E-003 +1.479019001766636E-002 -1.667878237485187E-003
-2.857337581385848E-003 -2.910572909568797E-003 -1.262197487479880E-002
+9.749930419503431E-003 -8.584812208982651E-003 +1.076260595925857E-002
-4.026833233527338E-003 +1.079741642744791E-002 -2.458103168742545E-003
-7.188288324756008E-003 +1.663917315296040E-003 +2.010575902605395E-002
-3.419513064488645E-003 -1.718027164347208E-002 +5.623321191523033E-003
-3.420681650322967E-003 -5.888530004478191E-003 -8.737507452424855E-003
-1.532694088902430E-002 +4.499565776059654E-004 -3.539700937946878E-003
+1.446124055222995E-003 -1.190154655769702E-002 +4.336578967342664E-003
+4.857779707954189E-003 -6.857691006246763E-003 -7.683419015183673E-004
-8.086748533465896E-003 +8.951229979397209E-003 -1.587516452085664E-002
-9.576938508358003E-003 -1.874607547614878E-003 -1.066027848955271E-002
+9.009969696563300E-003 -3.207197299021803E-003 +1.928395918612317E-002
+3.754207446352240E-003 +7.096659014858267E-003 +2.144715749246134E-002
+9.229819494689991E-003 +7.762900275156046E-003 -1.484499667763192E-002
+1.085905360569379E-003 +6.472115943741965E-004 +2.137513917240120E-002
+7.662291625363629E-003 +7.988867791593577E-003 +1.830440812785863E-003
-2.484028245430843E-002 -1.316673328186166E-002 -5.101107242388951E-003
-6.425583687615029E-003 +1.675027892493720E-003 +3.224610176290300E-003
-7.638616828427911E-003 -1.392579966218509E-002 -2.352791578243514E-002
-3.480774713299149E-003 -4.473009286416266E-003 +7.300954471986539E-003
+9.624240495168230E-003 +1.443293456176799E-003 -8.517994344371517E-003
-7.702074886897188E-003 +1.153708700752157E-003 -4.843612887801293E-003
-6.879623736439138E-003 +1.925876623426361E-002 -3.301726599040585E-002
+3.573473243574298E-004 -2.175382246429134E-002 -3.575246518737750E-003
-3.174126725629245E-004 +6.947993072529767E-003 +1.780287303043413E-002
-1.091906522175114E-002 -6.261527117632834E-003 +9.849052405130022E-003
-1.855647153521436E-002 +9.821449719905333E-003 -8.725114038787981E-003
+1.807367413239338E-002 +5.247458070806730E-003 +1.678365355141163E-002
-1.088244951767406E-002 -1.832713768412170E-002 -9.560864030842872E-003
+1.564661565707103E-002 -4.161449839395273E-003 -2.871582697310453E-003
+6.274195552257594E-003 +2.625115145120133E-003 +1.240771257132308E-002
-1.280002027684207E-002 +2.684362337537002E-003 -5.396695323029762E-003
+1.362092744490855E-002 +3.538895555128565E-003 +5.328355357260477E-003
-7.355707379477173E-004 +3.213855953094480E-003 -8.926606784259076E-004
+2.605850759673183E-002 +2.073845661222931E-003 -2.638445611112633E-003
+7.687520102203105E-003 -9.171544105819723E-003 +4.429423802061665E-003
+7.761984177060660E-003 -6.510490845421836E-003 +1.656196819032863E-002
+2.528342435307467E-003 -1.145528000553078E-002 -1.066241885792449E-002
+2.040182792464474E-002 -7.098153859113007E-003 -1.890037815505645E-002
+2.000580305129162E-003 +1.000059955348265E-003 +6.975299380532803E-003
-4.676768589573866E-003 -8.420397945161471E-003 +9.941472248790405E-003
+1.800876257547268E-002 -6.193370221853514E-003 +2.091741287881151E-003
-3.083720893492652E-003 -9.327868920479833E-003 -5.462660681405045E-003
+1.605839964790536E-003 -6.310699158017863E-005 -2.542116514408287E-004
+7.638113112314364E-003 +4.833207932957303E-003 -8.483531351013290E-003
-4.055966647421203E-003 -1.201041702729919E-002 -9.134954743458785E-003
+7.722781600411751E-003 +1.361304830471649E-002 +4.474863280505381E-003
+9.895134641311896E-003 +1.462135642850281E-002 -2.258885551294899E-003
-8.165602716254328E-003 +8.474891065743473E-003 -3.480048257858331E-003
 
