# Energy in atomic unit (1 Eh = 2625.499640 kJ/mol)
# -------------------------------------------------
# step         Total energy           Kinetic energy         Potential energy         Coulomb energy       van_der_Waals energy        Coulomb LR energy      Coulomb keq0 energy      Coulomb SR energy      Coulomb self energy   Coulomb molecule energy         Fumi-Tosi energy    Fumi-Tosi molecule ener     
       0 -6.311049507998526E+001  3.641040389532901E+000 -6.675153546951816E+001 -7.781713204602467E+001   1.106559657650651E+001   4.498626415843852E-002  0.000000000000000E+000 -4.497216271150755E+001 -3.350416573791144E+001  0.000000000000000E+000    1.106559657650651E+001  0.000000000000000E+000  
