ITEM: TIMESTEP
0
ITEM: NUMBER OF ATOMS
768
ITEM: BOX BOUNDS pp pp ff
-9.8379999999999992e+00 9.8379999999999992e+00
-8.5199999999999996e+00 8.5199999999999996e+00
-1.4019999999999999e+02 1.4019999999999999e+02
ITEM: ATOMS id element fx fy fz 
961 CG -0.000221219198053596 -7.10402236201609e-05     91.7609500474426 
962 CG -0.000221219198053596 -7.10402236201609e-05     91.7609500474426 
963 CG -0.000221219198053596 -7.10402236201609e-05     91.7609500474426 
964 CG -0.000221219198053596 -7.10402236201609e-05     91.7609500474426 
965 CG -0.000221219198053596 -7.10402236201609e-05     91.7609500474426 
966 CG -0.000221219198053596 -7.10402236201609e-05     91.7609500474426 
967 CG -0.000221219198053596 -7.10402236201609e-05     91.7609500474426 
968 CG -0.000221219198053596 -7.10402236201609e-05     91.7609500474426 
969 CG -0.000221219198053596 -7.10402236201609e-05     91.7609500474426 
970 CG -0.000221219198053596 -7.10402236201609e-05     91.7609500474426 
971 CG -0.000221219198053596 -7.10402236201609e-05     91.7609500474426 
972 CG -0.000221219198053596 -7.10402236201609e-05     91.7609500474426 
973 CG -0.000221219198053596 -7.10402236201609e-05     91.7609500474426 
974 CG -0.000221219198053596 -7.10402236201609e-05     91.7609500474426 
975 CG -0.000221219198053596 -7.10402236201609e-05     91.7609500474426 
976 CG -0.000221219198053596 -7.10402236201609e-05     91.7609500474426 
977 CG -0.000221219198053596 -7.10402236201609e-05     91.7609500474426 
978 CG -0.000221219198053596 -7.10402236201609e-05     91.7609500474426 
979 CG -0.000221219198053596 -7.10402236201609e-05     91.7609500474426 
980 CG -0.000221219198053596 -7.10402236201609e-05     91.7609500474426 
981 CG -0.000221219198053596 -7.10402236201609e-05     91.7609500474426 
982 CG -0.000221219198053596 -7.10402236201609e-05     91.7609500474426 
983 CG -0.000221219198053596 -7.10402236201609e-05     91.7609500474426 
984 CG -0.000221219198053596 -7.10402236201609e-05     91.7609500474426 
985 CG -0.000221219198053596 -7.10402236201609e-05     91.7609500474426 
986 CG -0.000221219198053596 -7.10402236201609e-05     91.7609500474426 
987 CG -0.000221219198053596 -7.10402236201609e-05     91.7609500474426 
988 CG -0.000221219198053596 -7.10402236201609e-05     91.7609500474426 
989 CG -0.000221219198053596 -7.10402236201609e-05     91.7609500474426 
990 CG -0.000221219198053596 -7.10402236201609e-05     91.7609500474426 
991 CG -0.000221219198053596 -7.10402236201609e-05     91.7609500474426 
992 CG -0.000221219198053596 -7.10402236201609e-05     91.7609500474426 
993 CG -0.000221219198053596 -7.10402236201609e-05     91.7609500474426 
994 CG -0.000221219198053596 -7.10402236201609e-05     91.7609500474426 
995 CG -0.000221219198053596 -7.10402236201609e-05     91.7609500474426 
996 CG -0.000221219198053596 -7.10402236201609e-05     91.7609500474426 
997 CG -0.000221219198053596 -7.10402236201609e-05     91.7609500474426 
998 CG -0.000221219198053596 -7.10402236201609e-05     91.7609500474426 
999 CG -0.000221219198053596 -7.10402236201609e-05     91.7609500474426 
1000 CG -0.000221219198053596 -7.10402236201609e-05     91.7609500474426 
1001 CG -0.000221219198053596 -7.10402236201609e-05     91.7609500474426 
1002 CG -0.000221219198053596 -7.10402236201609e-05     91.7609500474426 
1003 CG -0.000221219198053596 -7.10402236201609e-05     91.7609500474426 
1004 CG -0.000221219198053596 -7.10402236201609e-05     91.7609500474426 
1005 CG -0.000221219198053596 -7.10402236201609e-05     91.7609500474426 
1006 CG -0.000221219198053596 -7.10402236201609e-05     91.7609500474426 
1007 CG -0.000221219198053596 -7.10402236201609e-05     91.7609500474426 
1008 CG -0.000221219198053596 -7.10402236201609e-05     91.7609500474426 
1009 CG -0.000221219198053596 -7.10402236201609e-05     91.7609500474426 
1010 CG -0.000221219198053596 -7.10402236201609e-05     91.7609500474426 
1011 CG -0.000221219198053596 -7.10402236201609e-05     91.7609500474426 
1012 CG -0.000221219198053596 -7.10402236201609e-05     91.7609500474426 
1013 CG -0.000221219198053596 -7.10402236201609e-05     91.7609500474426 
1014 CG -0.000221219198053596 -7.10402236201609e-05     91.7609500474426 
1015 CG -0.000221219198053596 -7.10402236201609e-05     91.7609500474426 
1016 CG -0.000221219198053596 -7.10402236201609e-05     91.7609500474426 
1017 CG -0.000221219198053596 -7.10402236201609e-05     91.7609500474426 
1018 CG -0.000221219198053596 -7.10402236201609e-05     91.7609500474426 
1019 CG -0.000221219198053596 -7.10402236201609e-05     91.7609500474426 
1020 CG -0.000221219198053596 -7.10402236201609e-05     91.7609500474426 
1021 CG -0.000221219198053596 -7.10402236201609e-05     91.7609500474426 
1022 CG -0.000221219198053596 -7.10402236201609e-05     91.7609500474426 
1023 CG -0.000221219198053596 -7.10402236201609e-05     91.7609500474426 
1024 CG -0.000221219198053596 -7.10402236201609e-05     91.7609500474426 
1025 CG -0.000221219198053596 -7.10402236201609e-05     91.7609500474426 
1026 CG -0.000221219198053596 -7.10402236201609e-05     91.7609500474426 
1027 CG -0.000221219198053596 -7.10402236201609e-05     91.7609500474426 
1028 CG -0.000221219198053596 -7.10402236201609e-05     91.7609500474426 
1029 CG -0.000221219198053596 -7.10402236201609e-05     91.7609500474426 
1030 CG -0.000221219198053596 -7.10402236201609e-05     91.7609500474426 
1031 CG -0.000221219198053596 -7.10402236201609e-05     91.7609500474426 
1032 CG -0.000221219198053596 -7.10402236201609e-05     91.7609500474426 
1033 CG -0.000221219198053596 -7.10402236201609e-05     91.7609500474426 
1034 CG -0.000221219198053596 -7.10402236201609e-05     91.7609500474426 
1035 CG -0.000221219198053596 -7.10402236201609e-05     91.7609500474426 
1036 CG -0.000221219198053596 -7.10402236201609e-05     91.7609500474426 
1037 CG -0.000221219198053596 -7.10402236201609e-05     91.7609500474426 
1038 CG -0.000221219198053596 -7.10402236201609e-05     91.7609500474426 
1039 CG -0.000221219198053596 -7.10402236201609e-05     91.7609500474426 
1040 CG -0.000221219198053596 -7.10402236201609e-05     91.7609500474426 
1041 CG -0.000221219198053596 -7.10402236201609e-05     91.7609500474426 
1042 CG -0.000221219198053596 -7.10402236201609e-05     91.7609500474426 
1043 CG -0.000221219198053596 -7.10402236201609e-05     91.7609500474426 
1044 CG -0.000221219198053596 -7.10402236201609e-05     91.7609500474426 
1045 CG -0.000221219198053596 -7.10402236201609e-05     91.7609500474426 
1046 CG -0.000221219198053596 -7.10402236201609e-05     91.7609500474426 
1047 CG -0.000221219198053596 -7.10402236201609e-05     91.7609500474426 
1048 CG -0.000221219198053596 -7.10402236201609e-05     91.7609500474426 
1049 CG -0.000221219198053596 -7.10402236201609e-05     91.7609500474426 
1050 CG -0.000221219198053596 -7.10402236201609e-05     91.7609500474426 
1051 CG -0.000221219198053596 -7.10402236201609e-05     91.7609500474426 
1052 CG -0.000221219198053596 -7.10402236201609e-05     91.7609500474426 
1053 CG -0.000221219198053596 -7.10402236201609e-05     91.7609500474426 
1054 CG -0.000221219198053596 -7.10402236201609e-05     91.7609500474426 
1055 CG -0.000221219198053596 -7.10402236201609e-05     91.7609500474426 
1056 CG -0.000221219198053596 -7.10402236201609e-05     91.7609500474426 
1057 CG -0.000221219198053596 -7.10402236201609e-05     91.7609500474426 
1058 CG -0.000221219198053596 -7.10402236201609e-05     91.7609500474426 
1059 CG -0.000221219198053596 -7.10402236201609e-05     91.7609500474426 
1060 CG -0.000221219198053596 -7.10402236201609e-05     91.7609500474426 
1061 CG -0.000221219198053596 -7.10402236201609e-05     91.7609500474426 
1062 CG -0.000221219198053596 -7.10402236201609e-05     91.7609500474426 
1063 CG -0.000221219198053596 -7.10402236201609e-05     91.7609500474426 
1064 CG -0.000221219198053596 -7.10402236201609e-05     91.7609500474426 
1065 CG -0.000221219198053596 -7.10402236201609e-05     91.7609500474426 
1066 CG -0.000221219198053596 -7.10402236201609e-05     91.7609500474426 
1067 CG -0.000221219198053596 -7.10402236201609e-05     91.7609500474426 
1068 CG -0.000221219198053596 -7.10402236201609e-05     91.7609500474426 
1069 CG -0.000221219198053596 -7.10402236201609e-05     91.7609500474426 
1070 CG -0.000221219198053596 -7.10402236201609e-05     91.7609500474426 
1071 CG -0.000221219198053596 -7.10402236201609e-05     91.7609500474426 
1072 CG -0.000221219198053596 -7.10402236201609e-05     91.7609500474426 
1073 CG -0.000221219198053596 -7.10402236201609e-05     91.7609500474426 
1074 CG -0.000221219198053596 -7.10402236201609e-05     91.7609500474426 
1075 CG -0.000221219198053596 -7.10402236201609e-05     91.7609500474426 
1076 CG -0.000221219198053596 -7.10402236201609e-05     91.7609500474426 
1077 CG -0.000221219198053596 -7.10402236201609e-05     91.7609500474426 
1078 CG -0.000221219198053596 -7.10402236201609e-05     91.7609500474426 
1079 CG -0.000221219198053596 -7.10402236201609e-05     91.7609500474426 
1080 CG -0.000221219198053596 -7.10402236201609e-05     91.7609500474426 
1081 CG -0.000221219198053596 -7.10402236201609e-05     91.7609500474426 
1082 CG -0.000221219198053596 -7.10402236201609e-05     91.7609500474426 
1083 CG -0.000221219198053596 -7.10402236201609e-05     91.7609500474426 
1084 CG -0.000221219198053596 -7.10402236201609e-05     91.7609500474426 
1085 CG -0.000221219198053596 -7.10402236201609e-05     91.7609500474426 
1086 CG -0.000221219198053596 -7.10402236201609e-05     91.7609500474426 
1087 CG -0.000221219198053596 -7.10402236201609e-05     91.7609500474426 
1088 CG -0.000221219198053596 -7.10402236201609e-05     91.7609500474426 
1089 CG -0.000221219198053596 -7.10402236201609e-05     91.7609500474426 
1090 CG -0.000221219198053596 -7.10402236201609e-05     91.7609500474426 
1091 CG -0.000221219198053596 -7.10402236201609e-05     91.7609500474426 
1092 CG -0.000221219198053596 -7.10402236201609e-05     91.7609500474426 
1093 CG -0.000221219198053596 -7.10402236201609e-05     91.7609500474426 
1094 CG -0.000221219198053596 -7.10402236201609e-05     91.7609500474426 
1095 CG -0.000221219198053596 -7.10402236201609e-05     91.7609500474426 
1096 CG -0.000221219198053596 -7.10402236201609e-05     91.7609500474426 
1097 CG -0.000221219198053596 -7.10402236201609e-05     91.7609500474426 
1098 CG -0.000221219198053596 -7.10402236201609e-05     91.7609500474426 
1099 CG -0.000221219198053596 -7.10402236201609e-05     91.7609500474426 
1100 CG -0.000221219198053596 -7.10402236201609e-05     91.7609500474426 
1101 CG -0.000221219198053596 -7.10402236201609e-05     91.7609500474426 
1102 CG -0.000221219198053596 -7.10402236201609e-05     91.7609500474426 
1103 CG -0.000221219198053596 -7.10402236201609e-05     91.7609500474426 
1104 CG -0.000221219198053596 -7.10402236201609e-05     91.7609500474426 
1105 CG -0.000221219198053596 -7.10402236201609e-05     91.7609500474426 
1106 CG -0.000221219198053596 -7.10402236201609e-05     91.7609500474426 
1107 CG -0.000221219198053596 -7.10402236201609e-05     91.7609500474426 
1108 CG -0.000221219198053596 -7.10402236201609e-05     91.7609500474426 
1109 CG -0.000221219198053596 -7.10402236201609e-05     91.7609500474426 
1110 CG -0.000221219198053596 -7.10402236201609e-05     91.7609500474426 
1111 CG -0.000221219198053596 -7.10402236201609e-05     91.7609500474426 
1112 CG -0.000221219198053596 -7.10402236201609e-05     91.7609500474426 
1113 CG -0.000221219198053596 -7.10402236201609e-05     91.7609500474426 
1114 CG -0.000221219198053596 -7.10402236201609e-05     91.7609500474426 
1115 CG -0.000221219198053596 -7.10402236201609e-05     91.7609500474426 
1116 CG -0.000221219198053596 -7.10402236201609e-05     91.7609500474426 
1117 CG -0.000221219198053596 -7.10402236201609e-05     91.7609500474426 
1118 CG -0.000221219198053596 -7.10402236201609e-05     91.7609500474426 
1119 CG -0.000221219198053596 -7.10402236201609e-05     91.7609500474426 
1120 CG -0.000221219198053596 -7.10402236201609e-05     91.7609500474426 
1121 CG -0.000221219198053596 -7.10402236201609e-05     91.7609500474426 
1122 CG -0.000221219198053596 -7.10402236201609e-05     91.7609500474426 
1123 CG -0.000221219198053596 -7.10402236201609e-05     91.7609500474426 
1124 CG -0.000221219198053596 -7.10402236201609e-05     91.7609500474426 
1125 CG -0.000221219198053596 -7.10402236201609e-05     91.7609500474426 
1126 CG -0.000221219198053596 -7.10402236201609e-05     91.7609500474426 
1127 CG -0.000221219198053596 -7.10402236201609e-05     91.7609500474426 
1128 CG -0.000221219198053596 -7.10402236201609e-05     91.7609500474426 
1129 CG -0.000221219198053596 -7.10402236201609e-05     91.7609500474426 
1130 CG -0.000221219198053596 -7.10402236201609e-05     91.7609500474426 
1131 CG -0.000221219198053596 -7.10402236201609e-05     91.7609500474426 
1132 CG -0.000221219198053596 -7.10402236201609e-05     91.7609500474426 
1133 CG -0.000221219198053596 -7.10402236201609e-05     91.7609500474426 
1134 CG -0.000221219198053596 -7.10402236201609e-05     91.7609500474426 
1135 CG -0.000221219198053596 -7.10402236201609e-05     91.7609500474426 
1136 CG -0.000221219198053596 -7.10402236201609e-05     91.7609500474426 
1137 CG -0.000221219198053596 -7.10402236201609e-05     91.7609500474426 
1138 CG -0.000221219198053596 -7.10402236201609e-05     91.7609500474426 
1139 CG -0.000221219198053596 -7.10402236201609e-05     91.7609500474426 
1140 CG -0.000221219198053596 -7.10402236201609e-05     91.7609500474426 
1141 CG -0.000221219198053596 -7.10402236201609e-05     91.7609500474426 
1142 CG -0.000221219198053596 -7.10402236201609e-05     91.7609500474426 
1143 CG -0.000221219198053596 -7.10402236201609e-05     91.7609500474426 
1144 CG -0.000221219198053596 -7.10402236201609e-05     91.7609500474426 
1145 CG -0.000221219198053596 -7.10402236201609e-05     91.7609500474426 
1146 CG -0.000221219198053596 -7.10402236201609e-05     91.7609500474426 
1147 CG -0.000221219198053596 -7.10402236201609e-05     91.7609500474426 
1148 CG -0.000221219198053596 -7.10402236201609e-05     91.7609500474426 
1149 CG -0.000221219198053596 -7.10402236201609e-05     91.7609500474426 
1150 CG -0.000221219198053596 -7.10402236201609e-05     91.7609500474426 
1151 CG -0.000221219198053596 -7.10402236201609e-05     91.7609500474426 
1152 CG -0.000221219198053596 -7.10402236201609e-05     91.7609500474426 
1153 CG -0.000221219198053596 -7.10402236201609e-05     91.7609500474426 
1154 CG -0.000221219198053596 -7.10402236201609e-05     91.7609500474426 
1155 CG -0.000221219198053596 -7.10402236201609e-05     91.7609500474426 
1156 CG -0.000221219198053596 -7.10402236201609e-05     91.7609500474426 
1157 CG -0.000221219198053596 -7.10402236201609e-05     91.7609500474426 
1158 CG -0.000221219198053596 -7.10402236201609e-05     91.7609500474426 
1159 CG -0.000221219198053596 -7.10402236201609e-05     91.7609500474426 
1160 CG -0.000221219198053596 -7.10402236201609e-05     91.7609500474426 
1161 CG -0.000221219198053596 -7.10402236201609e-05     91.7609500474426 
1162 CG -0.000221219198053596 -7.10402236201609e-05     91.7609500474426 
1163 CG -0.000221219198053596 -7.10402236201609e-05     91.7609500474426 
1164 CG -0.000221219198053596 -7.10402236201609e-05     91.7609500474426 
1165 CG -0.000221219198053596 -7.10402236201609e-05     91.7609500474426 
1166 CG -0.000221219198053596 -7.10402236201609e-05     91.7609500474426 
1167 CG -0.000221219198053596 -7.10402236201609e-05     91.7609500474426 
1168 CG -0.000221219198053596 -7.10402236201609e-05     91.7609500474426 
1169 CG -0.000221219198053596 -7.10402236201609e-05     91.7609500474426 
1170 CG -0.000221219198053596 -7.10402236201609e-05     91.7609500474426 
1171 CG -0.000221219198053596 -7.10402236201609e-05     91.7609500474426 
1172 CG -0.000221219198053596 -7.10402236201609e-05     91.7609500474426 
1173 CG -0.000221219198053596 -7.10402236201609e-05     91.7609500474426 
1174 CG -0.000221219198053596 -7.10402236201609e-05     91.7609500474426 
1175 CG -0.000221219198053596 -7.10402236201609e-05     91.7609500474426 
1176 CG -0.000221219198053596 -7.10402236201609e-05     91.7609500474426 
1177 CG -0.000221219198053596 -7.10402236201609e-05     91.7609500474426 
1178 CG -0.000221219198053596 -7.10402236201609e-05     91.7609500474426 
1179 CG -0.000221219198053596 -7.10402236201609e-05     91.7609500474426 
1180 CG -0.000221219198053596 -7.10402236201609e-05     91.7609500474426 
1181 CG -0.000221219198053596 -7.10402236201609e-05     91.7609500474426 
1182 CG -0.000221219198053596 -7.10402236201609e-05     91.7609500474426 
1183 CG -0.000221219198053596 -7.10402236201609e-05     91.7609500474426 
1184 CG -0.000221219198053596 -7.10402236201609e-05     91.7609500474426 
1185 CG -0.000221219198053596 -7.10402236201609e-05     91.7609500474426 
1186 CG -0.000221219198053596 -7.10402236201609e-05     91.7609500474426 
1187 CG -0.000221219198053596 -7.10402236201609e-05     91.7609500474426 
1188 CG -0.000221219198053596 -7.10402236201609e-05     91.7609500474426 
1189 CG -0.000221219198053596 -7.10402236201609e-05     91.7609500474426 
1190 CG -0.000221219198053596 -7.10402236201609e-05     91.7609500474426 
1191 CG -0.000221219198053596 -7.10402236201609e-05     91.7609500474426 
1192 CG -0.000221219198053596 -7.10402236201609e-05     91.7609500474426 
1193 CG -0.000221219198053596 -7.10402236201609e-05     91.7609500474426 
1194 CG -0.000221219198053596 -7.10402236201609e-05     91.7609500474426 
1195 CG -0.000221219198053596 -7.10402236201609e-05     91.7609500474426 
1196 CG -0.000221219198053596 -7.10402236201609e-05     91.7609500474426 
1197 CG -0.000221219198053596 -7.10402236201609e-05     91.7609500474426 
1198 CG -0.000221219198053596 -7.10402236201609e-05     91.7609500474426 
1199 CG -0.000221219198053596 -7.10402236201609e-05     91.7609500474426 
1200 CG -0.000221219198053596 -7.10402236201609e-05     91.7609500474426 
1201 CG -0.000221219198053596 -7.10402236201609e-05     91.7609500474426 
1202 CG -0.000221219198053596 -7.10402236201609e-05     91.7609500474426 
1203 CG -0.000221219198053596 -7.10402236201609e-05     91.7609500474426 
1204 CG -0.000221219198053596 -7.10402236201609e-05     91.7609500474426 
1205 CG -0.000221219198053596 -7.10402236201609e-05     91.7609500474426 
1206 CG -0.000221219198053596 -7.10402236201609e-05     91.7609500474426 
1207 CG -0.000221219198053596 -7.10402236201609e-05     91.7609500474426 
1208 CG -0.000221219198053596 -7.10402236201609e-05     91.7609500474426 
1209 CG -0.000221219198053596 -7.10402236201609e-05     91.7609500474426 
1210 CG -0.000221219198053596 -7.10402236201609e-05     91.7609500474426 
1211 CG -0.000221219198053596 -7.10402236201609e-05     91.7609500474426 
1212 CG -0.000221219198053596 -7.10402236201609e-05     91.7609500474426 
1213 CG -0.000221219198053596 -7.10402236201609e-05     91.7609500474426 
1214 CG -0.000221219198053596 -7.10402236201609e-05     91.7609500474426 
1215 CG -0.000221219198053596 -7.10402236201609e-05     91.7609500474426 
1216 CG -0.000221219198053596 -7.10402236201609e-05     91.7609500474426 
1217 CG -0.000221219198053596 -7.10402236201609e-05     91.7609500474426 
1218 CG -0.000221219198053596 -7.10402236201609e-05     91.7609500474426 
1219 CG -0.000221219198053596 -7.10402236201609e-05     91.7609500474426 
1220 CG -0.000221219198053596 -7.10402236201609e-05     91.7609500474426 
1221 CG -0.000221219198053596 -7.10402236201609e-05     91.7609500474426 
1222 CG -0.000221219198053596 -7.10402236201609e-05     91.7609500474426 
1223 CG -0.000221219198053596 -7.10402236201609e-05     91.7609500474426 
1224 CG -0.000221219198053596 -7.10402236201609e-05     91.7609500474426 
1225 CG -0.000221219198053596 -7.10402236201609e-05     91.7609500474426 
1226 CG -0.000221219198053596 -7.10402236201609e-05     91.7609500474426 
1227 CG -0.000221219198053596 -7.10402236201609e-05     91.7609500474426 
1228 CG -0.000221219198053596 -7.10402236201609e-05     91.7609500474426 
1229 CG -0.000221219198053596 -7.10402236201609e-05     91.7609500474426 
1230 CG -0.000221219198053596 -7.10402236201609e-05     91.7609500474426 
1231 CG -0.000221219198053596 -7.10402236201609e-05     91.7609500474426 
1232 CG -0.000221219198053596 -7.10402236201609e-05     91.7609500474426 
1233 CG -0.000221219198053596 -7.10402236201609e-05     91.7609500474426 
1234 CG -0.000221219198053596 -7.10402236201609e-05     91.7609500474426 
1235 CG -0.000221219198053596 -7.10402236201609e-05     91.7609500474426 
1236 CG -0.000221219198053596 -7.10402236201609e-05     91.7609500474426 
1237 CG -0.000221219198053596 -7.10402236201609e-05     91.7609500474426 
1238 CG -0.000221219198053596 -7.10402236201609e-05     91.7609500474426 
1239 CG -0.000221219198053596 -7.10402236201609e-05     91.7609500474426 
1240 CG -0.000221219198053596 -7.10402236201609e-05     91.7609500474426 
1241 CG -0.000221219198053596 -7.10402236201609e-05     91.7609500474426 
1242 CG -0.000221219198053596 -7.10402236201609e-05     91.7609500474426 
1243 CG -0.000221219198053596 -7.10402236201609e-05     91.7609500474426 
1244 CG -0.000221219198053596 -7.10402236201609e-05     91.7609500474426 
1245 CG -0.000221219198053596 -7.10402236201609e-05     91.7609500474426 
1246 CG -0.000221219198053596 -7.10402236201609e-05     91.7609500474426 
1247 CG -0.000221219198053596 -7.10402236201609e-05     91.7609500474426 
1248 CG -0.000221219198053596 -7.10402236201609e-05     91.7609500474426 
1249 CG -0.000221219198053596 -7.10402236201609e-05     91.7609500474426 
1250 CG -0.000221219198053596 -7.10402236201609e-05     91.7609500474426 
1251 CG -0.000221219198053596 -7.10402236201609e-05     91.7609500474426 
1252 CG -0.000221219198053596 -7.10402236201609e-05     91.7609500474426 
1253 CG -0.000221219198053596 -7.10402236201609e-05     91.7609500474426 
1254 CG -0.000221219198053596 -7.10402236201609e-05     91.7609500474426 
1255 CG -0.000221219198053596 -7.10402236201609e-05     91.7609500474426 
1256 CG -0.000221219198053596 -7.10402236201609e-05     91.7609500474426 
1257 CG -0.000221219198053596 -7.10402236201609e-05     91.7609500474426 
1258 CG -0.000221219198053596 -7.10402236201609e-05     91.7609500474426 
1259 CG -0.000221219198053596 -7.10402236201609e-05     91.7609500474426 
1260 CG -0.000221219198053596 -7.10402236201609e-05     91.7609500474426 
1261 CG -0.000221219198053596 -7.10402236201609e-05     91.7609500474426 
1262 CG -0.000221219198053596 -7.10402236201609e-05     91.7609500474426 
1263 CG -0.000221219198053596 -7.10402236201609e-05     91.7609500474426 
1264 CG -0.000221219198053596 -7.10402236201609e-05     91.7609500474426 
1265 CG -0.000221219198053596 -7.10402236201609e-05     91.7609500474426 
1266 CG -0.000221219198053596 -7.10402236201609e-05     91.7609500474426 
1267 CG -0.000221219198053596 -7.10402236201609e-05     91.7609500474426 
1268 CG -0.000221219198053596 -7.10402236201609e-05     91.7609500474426 
1269 CG -0.000221219198053596 -7.10402236201609e-05     91.7609500474426 
1270 CG -0.000221219198053596 -7.10402236201609e-05     91.7609500474426 
1271 CG -0.000221219198053596 -7.10402236201609e-05     91.7609500474426 
1272 CG -0.000221219198053596 -7.10402236201609e-05     91.7609500474426 
1273 CG -0.000221219198053596 -7.10402236201609e-05     91.7609500474426 
1274 CG -0.000221219198053596 -7.10402236201609e-05     91.7609500474426 
1275 CG -0.000221219198053596 -7.10402236201609e-05     91.7609500474426 
1276 CG -0.000221219198053596 -7.10402236201609e-05     91.7609500474426 
1277 CG -0.000221219198053596 -7.10402236201609e-05     91.7609500474426 
1278 CG -0.000221219198053596 -7.10402236201609e-05     91.7609500474426 
1279 CG -0.000221219198053596 -7.10402236201609e-05     91.7609500474426 
1280 CG -0.000221219198053596 -7.10402236201609e-05     91.7609500474426 
1281 CG -0.000221219198053596 -7.10402236201609e-05     91.7609500474426 
1282 CG -0.000221219198053596 -7.10402236201609e-05     91.7609500474426 
1283 CG -0.000221219198053596 -7.10402236201609e-05     91.7609500474426 
1284 CG -0.000221219198053596 -7.10402236201609e-05     91.7609500474426 
1285 CG -0.000221219198053596 -7.10402236201609e-05     91.7609500474426 
1286 CG -0.000221219198053596 -7.10402236201609e-05     91.7609500474426 
1287 CG -0.000221219198053596 -7.10402236201609e-05     91.7609500474426 
1288 CG -0.000221219198053596 -7.10402236201609e-05     91.7609500474426 
1289 CG -0.000221219198053596 -7.10402236201609e-05     91.7609500474426 
1290 CG -0.000221219198053596 -7.10402236201609e-05     91.7609500474426 
1291 CG -0.000221219198053596 -7.10402236201609e-05     91.7609500474426 
1292 CG -0.000221219198053596 -7.10402236201609e-05     91.7609500474426 
1293 CG -0.000221219198053596 -7.10402236201609e-05     91.7609500474426 
1294 CG -0.000221219198053596 -7.10402236201609e-05     91.7609500474426 
1295 CG -0.000221219198053596 -7.10402236201609e-05     91.7609500474426 
1296 CG -0.000221219198053596 -7.10402236201609e-05     91.7609500474426 
1297 CG -0.000221219198053596 -7.10402236201609e-05     91.7609500474426 
1298 CG -0.000221219198053596 -7.10402236201609e-05     91.7609500474426 
1299 CG -0.000221219198053596 -7.10402236201609e-05     91.7609500474426 
1300 CG -0.000221219198053596 -7.10402236201609e-05     91.7609500474426 
1301 CG -0.000221219198053596 -7.10402236201609e-05     91.7609500474426 
1302 CG -0.000221219198053596 -7.10402236201609e-05     91.7609500474426 
1303 CG -0.000221219198053596 -7.10402236201609e-05     91.7609500474426 
1304 CG -0.000221219198053596 -7.10402236201609e-05     91.7609500474426 
1305 CG -0.000221219198053596 -7.10402236201609e-05     91.7609500474426 
1306 CG -0.000221219198053596 -7.10402236201609e-05     91.7609500474426 
1307 CG -0.000221219198053596 -7.10402236201609e-05     91.7609500474426 
1308 CG -0.000221219198053596 -7.10402236201609e-05     91.7609500474426 
1309 CG -0.000221219198053596 -7.10402236201609e-05     91.7609500474426 
1310 CG -0.000221219198053596 -7.10402236201609e-05     91.7609500474426 
1311 CG -0.000221219198053596 -7.10402236201609e-05     91.7609500474426 
1312 CG -0.000221219198053596 -7.10402236201609e-05     91.7609500474426 
1313 CG -0.000221219198053596 -7.10402236201609e-05     91.7609500474426 
1314 CG -0.000221219198053596 -7.10402236201609e-05     91.7609500474426 
1315 CG -0.000221219198053596 -7.10402236201609e-05     91.7609500474426 
1316 CG -0.000221219198053596 -7.10402236201609e-05     91.7609500474426 
1317 CG -0.000221219198053596 -7.10402236201609e-05     91.7609500474426 
1318 CG -0.000221219198053596 -7.10402236201609e-05     91.7609500474426 
1319 CG -0.000221219198053596 -7.10402236201609e-05     91.7609500474426 
1320 CG -0.000221219198053596 -7.10402236201609e-05     91.7609500474426 
1321 CG -0.000221219198053596 -7.10402236201609e-05     91.7609500474426 
1322 CG -0.000221219198053596 -7.10402236201609e-05     91.7609500474426 
1323 CG -0.000221219198053596 -7.10402236201609e-05     91.7609500474426 
1324 CG -0.000221219198053596 -7.10402236201609e-05     91.7609500474426 
1325 CG -0.000221219198053596 -7.10402236201609e-05     91.7609500474426 
1326 CG -0.000221219198053596 -7.10402236201609e-05     91.7609500474426 
1327 CG -0.000221219198053596 -7.10402236201609e-05     91.7609500474426 
1328 CG -0.000221219198053596 -7.10402236201609e-05     91.7609500474426 
1329 CG -0.000221219198053596 -7.10402236201609e-05     91.7609500474426 
1330 CG -0.000221219198053596 -7.10402236201609e-05     91.7609500474426 
1331 CG -0.000221219198053596 -7.10402236201609e-05     91.7609500474426 
1332 CG -0.000221219198053596 -7.10402236201609e-05     91.7609500474426 
1333 CG -0.000221219198053596 -7.10402236201609e-05     91.7609500474426 
1334 CG -0.000221219198053596 -7.10402236201609e-05     91.7609500474426 
1335 CG -0.000221219198053596 -7.10402236201609e-05     91.7609500474426 
1336 CG -0.000221219198053596 -7.10402236201609e-05     91.7609500474426 
1337 CG -0.000221219198053596 -7.10402236201609e-05     91.7609500474426 
1338 CG -0.000221219198053596 -7.10402236201609e-05     91.7609500474426 
1339 CG -0.000221219198053596 -7.10402236201609e-05     91.7609500474426 
1340 CG -0.000221219198053596 -7.10402236201609e-05     91.7609500474426 
1341 CG -0.000221219198053596 -7.10402236201609e-05     91.7609500474426 
1342 CG -0.000221219198053596 -7.10402236201609e-05     91.7609500474426 
1343 CG -0.000221219198053596 -7.10402236201609e-05     91.7609500474426 
1344 CG -0.000221219198053596 -7.10402236201609e-05     91.7609500474426 
1345 CG 5.45087226375237e-06 2.63718020646531e-06    -91.7608703883876 
1346 CG 5.45087226375237e-06 2.63718020646531e-06    -91.7608703883876 
1347 CG 5.45087226375237e-06 2.63718020646531e-06    -91.7608703883876 
1348 CG 5.45087226375237e-06 2.63718020646531e-06    -91.7608703883876 
1349 CG 5.45087226375237e-06 2.63718020646531e-06    -91.7608703883876 
1350 CG 5.45087226375237e-06 2.63718020646531e-06    -91.7608703883876 
1351 CG 5.45087226375237e-06 2.63718020646531e-06    -91.7608703883876 
1352 CG 5.45087226375237e-06 2.63718020646531e-06    -91.7608703883876 
1353 CG 5.45087226375237e-06 2.63718020646531e-06    -91.7608703883876 
1354 CG 5.45087226375237e-06 2.63718020646531e-06    -91.7608703883876 
1355 CG 5.45087226375237e-06 2.63718020646531e-06    -91.7608703883876 
1356 CG 5.45087226375237e-06 2.63718020646531e-06    -91.7608703883876 
1357 CG 5.45087226375237e-06 2.63718020646531e-06    -91.7608703883876 
1358 CG 5.45087226375237e-06 2.63718020646531e-06    -91.7608703883876 
1359 CG 5.45087226375237e-06 2.63718020646531e-06    -91.7608703883876 
1360 CG 5.45087226375237e-06 2.63718020646531e-06    -91.7608703883876 
1361 CG 5.45087226375237e-06 2.63718020646531e-06    -91.7608703883876 
1362 CG 5.45087226375237e-06 2.63718020646531e-06    -91.7608703883876 
1363 CG 5.45087226375237e-06 2.63718020646531e-06    -91.7608703883876 
1364 CG 5.45087226375237e-06 2.63718020646531e-06    -91.7608703883876 
1365 CG 5.45087226375237e-06 2.63718020646531e-06    -91.7608703883876 
1366 CG 5.45087226375237e-06 2.63718020646531e-06    -91.7608703883876 
1367 CG 5.45087226375237e-06 2.63718020646531e-06    -91.7608703883876 
1368 CG 5.45087226375237e-06 2.63718020646531e-06    -91.7608703883876 
1369 CG 5.45087226375237e-06 2.63718020646531e-06    -91.7608703883876 
1370 CG 5.45087226375237e-06 2.63718020646531e-06    -91.7608703883876 
1371 CG 5.45087226375237e-06 2.63718020646531e-06    -91.7608703883876 
1372 CG 5.45087226375237e-06 2.63718020646531e-06    -91.7608703883876 
1373 CG 5.45087226375237e-06 2.63718020646531e-06    -91.7608703883876 
1374 CG 5.45087226375237e-06 2.63718020646531e-06    -91.7608703883876 
1375 CG 5.45087226375237e-06 2.63718020646531e-06    -91.7608703883876 
1376 CG 5.45087226375237e-06 2.63718020646531e-06    -91.7608703883876 
1377 CG 5.45087226375237e-06 2.63718020646531e-06    -91.7608703883876 
1378 CG 5.45087226375237e-06 2.63718020646531e-06    -91.7608703883876 
1379 CG 5.45087226375237e-06 2.63718020646531e-06    -91.7608703883876 
1380 CG 5.45087226375237e-06 2.63718020646531e-06    -91.7608703883876 
1381 CG 5.45087226375237e-06 2.63718020646531e-06    -91.7608703883876 
1382 CG 5.45087226375237e-06 2.63718020646531e-06    -91.7608703883876 
1383 CG 5.45087226375237e-06 2.63718020646531e-06    -91.7608703883876 
1384 CG 5.45087226375237e-06 2.63718020646531e-06    -91.7608703883876 
1385 CG 5.45087226375237e-06 2.63718020646531e-06    -91.7608703883876 
1386 CG 5.45087226375237e-06 2.63718020646531e-06    -91.7608703883876 
1387 CG 5.45087226375237e-06 2.63718020646531e-06    -91.7608703883876 
1388 CG 5.45087226375237e-06 2.63718020646531e-06    -91.7608703883876 
1389 CG 5.45087226375237e-06 2.63718020646531e-06    -91.7608703883876 
1390 CG 5.45087226375237e-06 2.63718020646531e-06    -91.7608703883876 
1391 CG 5.45087226375237e-06 2.63718020646531e-06    -91.7608703883876 
1392 CG 5.45087226375237e-06 2.63718020646531e-06    -91.7608703883876 
1393 CG 5.45087226375237e-06 2.63718020646531e-06    -91.7608703883876 
1394 CG 5.45087226375237e-06 2.63718020646531e-06    -91.7608703883876 
1395 CG 5.45087226375237e-06 2.63718020646531e-06    -91.7608703883876 
1396 CG 5.45087226375237e-06 2.63718020646531e-06    -91.7608703883876 
1397 CG 5.45087226375237e-06 2.63718020646531e-06    -91.7608703883876 
1398 CG 5.45087226375237e-06 2.63718020646531e-06    -91.7608703883876 
1399 CG 5.45087226375237e-06 2.63718020646531e-06    -91.7608703883876 
1400 CG 5.45087226375237e-06 2.63718020646531e-06    -91.7608703883876 
1401 CG 5.45087226375237e-06 2.63718020646531e-06    -91.7608703883876 
1402 CG 5.45087226375237e-06 2.63718020646531e-06    -91.7608703883876 
1403 CG 5.45087226375237e-06 2.63718020646531e-06    -91.7608703883876 
1404 CG 5.45087226375237e-06 2.63718020646531e-06    -91.7608703883876 
1405 CG 5.45087226375237e-06 2.63718020646531e-06    -91.7608703883876 
1406 CG 5.45087226375237e-06 2.63718020646531e-06    -91.7608703883876 
1407 CG 5.45087226375237e-06 2.63718020646531e-06    -91.7608703883876 
1408 CG 5.45087226375237e-06 2.63718020646531e-06    -91.7608703883876 
1409 CG 5.45087226375237e-06 2.63718020646531e-06    -91.7608703883876 
1410 CG 5.45087226375237e-06 2.63718020646531e-06    -91.7608703883876 
1411 CG 5.45087226375237e-06 2.63718020646531e-06    -91.7608703883876 
1412 CG 5.45087226375237e-06 2.63718020646531e-06    -91.7608703883876 
1413 CG 5.45087226375237e-06 2.63718020646531e-06    -91.7608703883876 
1414 CG 5.45087226375237e-06 2.63718020646531e-06    -91.7608703883876 
1415 CG 5.45087226375237e-06 2.63718020646531e-06    -91.7608703883876 
1416 CG 5.45087226375237e-06 2.63718020646531e-06    -91.7608703883876 
1417 CG 5.45087226375237e-06 2.63718020646531e-06    -91.7608703883876 
1418 CG 5.45087226375237e-06 2.63718020646531e-06    -91.7608703883876 
1419 CG 5.45087226375237e-06 2.63718020646531e-06    -91.7608703883876 
1420 CG 5.45087226375237e-06 2.63718020646531e-06    -91.7608703883876 
1421 CG 5.45087226375237e-06 2.63718020646531e-06    -91.7608703883876 
1422 CG 5.45087226375237e-06 2.63718020646531e-06    -91.7608703883876 
1423 CG 5.45087226375237e-06 2.63718020646531e-06    -91.7608703883876 
1424 CG 5.45087226375237e-06 2.63718020646531e-06    -91.7608703883876 
1425 CG 5.45087226375237e-06 2.63718020646531e-06    -91.7608703883876 
1426 CG 5.45087226375237e-06 2.63718020646531e-06    -91.7608703883876 
1427 CG 5.45087226375237e-06 2.63718020646531e-06    -91.7608703883876 
1428 CG 5.45087226375237e-06 2.63718020646531e-06    -91.7608703883876 
1429 CG 5.45087226375237e-06 2.63718020646531e-06    -91.7608703883876 
1430 CG 5.45087226375237e-06 2.63718020646531e-06    -91.7608703883876 
1431 CG 5.45087226375237e-06 2.63718020646531e-06    -91.7608703883876 
1432 CG 5.45087226375237e-06 2.63718020646531e-06    -91.7608703883876 
1433 CG 5.45087226375237e-06 2.63718020646531e-06    -91.7608703883876 
1434 CG 5.45087226375237e-06 2.63718020646531e-06    -91.7608703883876 
1435 CG 5.45087226375237e-06 2.63718020646531e-06    -91.7608703883876 
1436 CG 5.45087226375237e-06 2.63718020646531e-06    -91.7608703883876 
1437 CG 5.45087226375237e-06 2.63718020646531e-06    -91.7608703883876 
1438 CG 5.45087226375237e-06 2.63718020646531e-06    -91.7608703883876 
1439 CG 5.45087226375237e-06 2.63718020646531e-06    -91.7608703883876 
1440 CG 5.45087226375237e-06 2.63718020646531e-06    -91.7608703883876 
1441 CG 5.45087226375237e-06 2.63718020646531e-06    -91.7608703883876 
1442 CG 5.45087226375237e-06 2.63718020646531e-06    -91.7608703883876 
1443 CG 5.45087226375237e-06 2.63718020646531e-06    -91.7608703883876 
1444 CG 5.45087226375237e-06 2.63718020646531e-06    -91.7608703883876 
1445 CG 5.45087226375237e-06 2.63718020646531e-06    -91.7608703883876 
1446 CG 5.45087226375237e-06 2.63718020646531e-06    -91.7608703883876 
1447 CG 5.45087226375237e-06 2.63718020646531e-06    -91.7608703883876 
1448 CG 5.45087226375237e-06 2.63718020646531e-06    -91.7608703883876 
1449 CG 5.45087226375237e-06 2.63718020646531e-06    -91.7608703883876 
1450 CG 5.45087226375237e-06 2.63718020646531e-06    -91.7608703883876 
1451 CG 5.45087226375237e-06 2.63718020646531e-06    -91.7608703883876 
1452 CG 5.45087226375237e-06 2.63718020646531e-06    -91.7608703883876 
1453 CG 5.45087226375237e-06 2.63718020646531e-06    -91.7608703883876 
1454 CG 5.45087226375237e-06 2.63718020646531e-06    -91.7608703883876 
1455 CG 5.45087226375237e-06 2.63718020646531e-06    -91.7608703883876 
1456 CG 5.45087226375237e-06 2.63718020646531e-06    -91.7608703883876 
1457 CG 5.45087226375237e-06 2.63718020646531e-06    -91.7608703883876 
1458 CG 5.45087226375237e-06 2.63718020646531e-06    -91.7608703883876 
1459 CG 5.45087226375237e-06 2.63718020646531e-06    -91.7608703883876 
1460 CG 5.45087226375237e-06 2.63718020646531e-06    -91.7608703883876 
1461 CG 5.45087226375237e-06 2.63718020646531e-06    -91.7608703883876 
1462 CG 5.45087226375237e-06 2.63718020646531e-06    -91.7608703883876 
1463 CG 5.45087226375237e-06 2.63718020646531e-06    -91.7608703883876 
1464 CG 5.45087226375237e-06 2.63718020646531e-06    -91.7608703883876 
1465 CG 5.45087226375237e-06 2.63718020646531e-06    -91.7608703883876 
1466 CG 5.45087226375237e-06 2.63718020646531e-06    -91.7608703883876 
1467 CG 5.45087226375237e-06 2.63718020646531e-06    -91.7608703883876 
1468 CG 5.45087226375237e-06 2.63718020646531e-06    -91.7608703883876 
1469 CG 5.45087226375237e-06 2.63718020646531e-06    -91.7608703883876 
1470 CG 5.45087226375237e-06 2.63718020646531e-06    -91.7608703883876 
1471 CG 5.45087226375237e-06 2.63718020646531e-06    -91.7608703883876 
1472 CG 5.45087226375237e-06 2.63718020646531e-06    -91.7608703883876 
1473 CG 5.45087226375237e-06 2.63718020646531e-06    -91.7608703883876 
1474 CG 5.45087226375237e-06 2.63718020646531e-06    -91.7608703883876 
1475 CG 5.45087226375237e-06 2.63718020646531e-06    -91.7608703883876 
1476 CG 5.45087226375237e-06 2.63718020646531e-06    -91.7608703883876 
1477 CG 5.45087226375237e-06 2.63718020646531e-06    -91.7608703883876 
1478 CG 5.45087226375237e-06 2.63718020646531e-06    -91.7608703883876 
1479 CG 5.45087226375237e-06 2.63718020646531e-06    -91.7608703883876 
1480 CG 5.45087226375237e-06 2.63718020646531e-06    -91.7608703883876 
1481 CG 5.45087226375237e-06 2.63718020646531e-06    -91.7608703883876 
1482 CG 5.45087226375237e-06 2.63718020646531e-06    -91.7608703883876 
1483 CG 5.45087226375237e-06 2.63718020646531e-06    -91.7608703883876 
1484 CG 5.45087226375237e-06 2.63718020646531e-06    -91.7608703883876 
1485 CG 5.45087226375237e-06 2.63718020646531e-06    -91.7608703883876 
1486 CG 5.45087226375237e-06 2.63718020646531e-06    -91.7608703883876 
1487 CG 5.45087226375237e-06 2.63718020646531e-06    -91.7608703883876 
1488 CG 5.45087226375237e-06 2.63718020646531e-06    -91.7608703883876 
1489 CG 5.45087226375237e-06 2.63718020646531e-06    -91.7608703883876 
1490 CG 5.45087226375237e-06 2.63718020646531e-06    -91.7608703883876 
1491 CG 5.45087226375237e-06 2.63718020646531e-06    -91.7608703883876 
1492 CG 5.45087226375237e-06 2.63718020646531e-06    -91.7608703883876 
1493 CG 5.45087226375237e-06 2.63718020646531e-06    -91.7608703883876 
1494 CG 5.45087226375237e-06 2.63718020646531e-06    -91.7608703883876 
1495 CG 5.45087226375237e-06 2.63718020646531e-06    -91.7608703883876 
1496 CG 5.45087226375237e-06 2.63718020646531e-06    -91.7608703883876 
1497 CG 5.45087226375237e-06 2.63718020646531e-06    -91.7608703883876 
1498 CG 5.45087226375237e-06 2.63718020646531e-06    -91.7608703883876 
1499 CG 5.45087226375237e-06 2.63718020646531e-06    -91.7608703883876 
1500 CG 5.45087226375237e-06 2.63718020646531e-06    -91.7608703883876 
1501 CG 5.45087226375237e-06 2.63718020646531e-06    -91.7608703883876 
1502 CG 5.45087226375237e-06 2.63718020646531e-06    -91.7608703883876 
1503 CG 5.45087226375237e-06 2.63718020646531e-06    -91.7608703883876 
1504 CG 5.45087226375237e-06 2.63718020646531e-06    -91.7608703883876 
1505 CG 5.45087226375237e-06 2.63718020646531e-06    -91.7608703883876 
1506 CG 5.45087226375237e-06 2.63718020646531e-06    -91.7608703883876 
1507 CG 5.45087226375237e-06 2.63718020646531e-06    -91.7608703883876 
1508 CG 5.45087226375237e-06 2.63718020646531e-06    -91.7608703883876 
1509 CG 5.45087226375237e-06 2.63718020646531e-06    -91.7608703883876 
1510 CG 5.45087226375237e-06 2.63718020646531e-06    -91.7608703883876 
1511 CG 5.45087226375237e-06 2.63718020646531e-06    -91.7608703883876 
1512 CG 5.45087226375237e-06 2.63718020646531e-06    -91.7608703883876 
1513 CG 5.45087226375237e-06 2.63718020646531e-06    -91.7608703883876 
1514 CG 5.45087226375237e-06 2.63718020646531e-06    -91.7608703883876 
1515 CG 5.45087226375237e-06 2.63718020646531e-06    -91.7608703883876 
1516 CG 5.45087226375237e-06 2.63718020646531e-06    -91.7608703883876 
1517 CG 5.45087226375237e-06 2.63718020646531e-06    -91.7608703883876 
1518 CG 5.45087226375237e-06 2.63718020646531e-06    -91.7608703883876 
1519 CG 5.45087226375237e-06 2.63718020646531e-06    -91.7608703883876 
1520 CG 5.45087226375237e-06 2.63718020646531e-06    -91.7608703883876 
1521 CG 5.45087226375237e-06 2.63718020646531e-06    -91.7608703883876 
1522 CG 5.45087226375237e-06 2.63718020646531e-06    -91.7608703883876 
1523 CG 5.45087226375237e-06 2.63718020646531e-06    -91.7608703883876 
1524 CG 5.45087226375237e-06 2.63718020646531e-06    -91.7608703883876 
1525 CG 5.45087226375237e-06 2.63718020646531e-06    -91.7608703883876 
1526 CG 5.45087226375237e-06 2.63718020646531e-06    -91.7608703883876 
1527 CG 5.45087226375237e-06 2.63718020646531e-06    -91.7608703883876 
1528 CG 5.45087226375237e-06 2.63718020646531e-06    -91.7608703883876 
1529 CG 5.45087226375237e-06 2.63718020646531e-06    -91.7608703883876 
1530 CG 5.45087226375237e-06 2.63718020646531e-06    -91.7608703883876 
1531 CG 5.45087226375237e-06 2.63718020646531e-06    -91.7608703883876 
1532 CG 5.45087226375237e-06 2.63718020646531e-06    -91.7608703883876 
1533 CG 5.45087226375237e-06 2.63718020646531e-06    -91.7608703883876 
1534 CG 5.45087226375237e-06 2.63718020646531e-06    -91.7608703883876 
1535 CG 5.45087226375237e-06 2.63718020646531e-06    -91.7608703883876 
1536 CG 5.45087226375237e-06 2.63718020646531e-06    -91.7608703883876 
1537 CG 5.45087226375237e-06 2.63718020646531e-06    -91.7608703883876 
1538 CG 5.45087226375237e-06 2.63718020646531e-06    -91.7608703883876 
1539 CG 5.45087226375237e-06 2.63718020646531e-06    -91.7608703883876 
1540 CG 5.45087226375237e-06 2.63718020646531e-06    -91.7608703883876 
1541 CG 5.45087226375237e-06 2.63718020646531e-06    -91.7608703883876 
1542 CG 5.45087226375237e-06 2.63718020646531e-06    -91.7608703883876 
1543 CG 5.45087226375237e-06 2.63718020646531e-06    -91.7608703883876 
1544 CG 5.45087226375237e-06 2.63718020646531e-06    -91.7608703883876 
1545 CG 5.45087226375237e-06 2.63718020646531e-06    -91.7608703883876 
1546 CG 5.45087226375237e-06 2.63718020646531e-06    -91.7608703883876 
1547 CG 5.45087226375237e-06 2.63718020646531e-06    -91.7608703883876 
1548 CG 5.45087226375237e-06 2.63718020646531e-06    -91.7608703883876 
1549 CG 5.45087226375237e-06 2.63718020646531e-06    -91.7608703883876 
1550 CG 5.45087226375237e-06 2.63718020646531e-06    -91.7608703883876 
1551 CG 5.45087226375237e-06 2.63718020646531e-06    -91.7608703883876 
1552 CG 5.45087226375237e-06 2.63718020646531e-06    -91.7608703883876 
1553 CG 5.45087226375237e-06 2.63718020646531e-06    -91.7608703883876 
1554 CG 5.45087226375237e-06 2.63718020646531e-06    -91.7608703883876 
1555 CG 5.45087226375237e-06 2.63718020646531e-06    -91.7608703883876 
1556 CG 5.45087226375237e-06 2.63718020646531e-06    -91.7608703883876 
1557 CG 5.45087226375237e-06 2.63718020646531e-06    -91.7608703883876 
1558 CG 5.45087226375237e-06 2.63718020646531e-06    -91.7608703883876 
1559 CG 5.45087226375237e-06 2.63718020646531e-06    -91.7608703883876 
1560 CG 5.45087226375237e-06 2.63718020646531e-06    -91.7608703883876 
1561 CG 5.45087226375237e-06 2.63718020646531e-06    -91.7608703883876 
1562 CG 5.45087226375237e-06 2.63718020646531e-06    -91.7608703883876 
1563 CG 5.45087226375237e-06 2.63718020646531e-06    -91.7608703883876 
1564 CG 5.45087226375237e-06 2.63718020646531e-06    -91.7608703883876 
1565 CG 5.45087226375237e-06 2.63718020646531e-06    -91.7608703883876 
1566 CG 5.45087226375237e-06 2.63718020646531e-06    -91.7608703883876 
1567 CG 5.45087226375237e-06 2.63718020646531e-06    -91.7608703883876 
1568 CG 5.45087226375237e-06 2.63718020646531e-06    -91.7608703883876 
1569 CG 5.45087226375237e-06 2.63718020646531e-06    -91.7608703883876 
1570 CG 5.45087226375237e-06 2.63718020646531e-06    -91.7608703883876 
1571 CG 5.45087226375237e-06 2.63718020646531e-06    -91.7608703883876 
1572 CG 5.45087226375237e-06 2.63718020646531e-06    -91.7608703883876 
1573 CG 5.45087226375237e-06 2.63718020646531e-06    -91.7608703883876 
1574 CG 5.45087226375237e-06 2.63718020646531e-06    -91.7608703883876 
1575 CG 5.45087226375237e-06 2.63718020646531e-06    -91.7608703883876 
1576 CG 5.45087226375237e-06 2.63718020646531e-06    -91.7608703883876 
1577 CG 5.45087226375237e-06 2.63718020646531e-06    -91.7608703883876 
1578 CG 5.45087226375237e-06 2.63718020646531e-06    -91.7608703883876 
1579 CG 5.45087226375237e-06 2.63718020646531e-06    -91.7608703883876 
1580 CG 5.45087226375237e-06 2.63718020646531e-06    -91.7608703883876 
1581 CG 5.45087226375237e-06 2.63718020646531e-06    -91.7608703883876 
1582 CG 5.45087226375237e-06 2.63718020646531e-06    -91.7608703883876 
1583 CG 5.45087226375237e-06 2.63718020646531e-06    -91.7608703883876 
1584 CG 5.45087226375237e-06 2.63718020646531e-06    -91.7608703883876 
1585 CG 5.45087226375237e-06 2.63718020646531e-06    -91.7608703883876 
1586 CG 5.45087226375237e-06 2.63718020646531e-06    -91.7608703883876 
1587 CG 5.45087226375237e-06 2.63718020646531e-06    -91.7608703883876 
1588 CG 5.45087226375237e-06 2.63718020646531e-06    -91.7608703883876 
1589 CG 5.45087226375237e-06 2.63718020646531e-06    -91.7608703883876 
1590 CG 5.45087226375237e-06 2.63718020646531e-06    -91.7608703883876 
1591 CG 5.45087226375237e-06 2.63718020646531e-06    -91.7608703883876 
1592 CG 5.45087226375237e-06 2.63718020646531e-06    -91.7608703883876 
1593 CG 5.45087226375237e-06 2.63718020646531e-06    -91.7608703883876 
1594 CG 5.45087226375237e-06 2.63718020646531e-06    -91.7608703883876 
1595 CG 5.45087226375237e-06 2.63718020646531e-06    -91.7608703883876 
1596 CG 5.45087226375237e-06 2.63718020646531e-06    -91.7608703883876 
1597 CG 5.45087226375237e-06 2.63718020646531e-06    -91.7608703883876 
1598 CG 5.45087226375237e-06 2.63718020646531e-06    -91.7608703883876 
1599 CG 5.45087226375237e-06 2.63718020646531e-06    -91.7608703883876 
1600 CG 5.45087226375237e-06 2.63718020646531e-06    -91.7608703883876 
1601 CG 5.45087226375237e-06 2.63718020646531e-06    -91.7608703883876 
1602 CG 5.45087226375237e-06 2.63718020646531e-06    -91.7608703883876 
1603 CG 5.45087226375237e-06 2.63718020646531e-06    -91.7608703883876 
1604 CG 5.45087226375237e-06 2.63718020646531e-06    -91.7608703883876 
1605 CG 5.45087226375237e-06 2.63718020646531e-06    -91.7608703883876 
1606 CG 5.45087226375237e-06 2.63718020646531e-06    -91.7608703883876 
1607 CG 5.45087226375237e-06 2.63718020646531e-06    -91.7608703883876 
1608 CG 5.45087226375237e-06 2.63718020646531e-06    -91.7608703883876 
1609 CG 5.45087226375237e-06 2.63718020646531e-06    -91.7608703883876 
1610 CG 5.45087226375237e-06 2.63718020646531e-06    -91.7608703883876 
1611 CG 5.45087226375237e-06 2.63718020646531e-06    -91.7608703883876 
1612 CG 5.45087226375237e-06 2.63718020646531e-06    -91.7608703883876 
1613 CG 5.45087226375237e-06 2.63718020646531e-06    -91.7608703883876 
1614 CG 5.45087226375237e-06 2.63718020646531e-06    -91.7608703883876 
1615 CG 5.45087226375237e-06 2.63718020646531e-06    -91.7608703883876 
1616 CG 5.45087226375237e-06 2.63718020646531e-06    -91.7608703883876 
1617 CG 5.45087226375237e-06 2.63718020646531e-06    -91.7608703883876 
1618 CG 5.45087226375237e-06 2.63718020646531e-06    -91.7608703883876 
1619 CG 5.45087226375237e-06 2.63718020646531e-06    -91.7608703883876 
1620 CG 5.45087226375237e-06 2.63718020646531e-06    -91.7608703883876 
1621 CG 5.45087226375237e-06 2.63718020646531e-06    -91.7608703883876 
1622 CG 5.45087226375237e-06 2.63718020646531e-06    -91.7608703883876 
1623 CG 5.45087226375237e-06 2.63718020646531e-06    -91.7608703883876 
1624 CG 5.45087226375237e-06 2.63718020646531e-06    -91.7608703883876 
1625 CG 5.45087226375237e-06 2.63718020646531e-06    -91.7608703883876 
1626 CG 5.45087226375237e-06 2.63718020646531e-06    -91.7608703883876 
1627 CG 5.45087226375237e-06 2.63718020646531e-06    -91.7608703883876 
1628 CG 5.45087226375237e-06 2.63718020646531e-06    -91.7608703883876 
1629 CG 5.45087226375237e-06 2.63718020646531e-06    -91.7608703883876 
1630 CG 5.45087226375237e-06 2.63718020646531e-06    -91.7608703883876 
1631 CG 5.45087226375237e-06 2.63718020646531e-06    -91.7608703883876 
1632 CG 5.45087226375237e-06 2.63718020646531e-06    -91.7608703883876 
1633 CG 5.45087226375237e-06 2.63718020646531e-06    -91.7608703883876 
1634 CG 5.45087226375237e-06 2.63718020646531e-06    -91.7608703883876 
1635 CG 5.45087226375237e-06 2.63718020646531e-06    -91.7608703883876 
1636 CG 5.45087226375237e-06 2.63718020646531e-06    -91.7608703883876 
1637 CG 5.45087226375237e-06 2.63718020646531e-06    -91.7608703883876 
1638 CG 5.45087226375237e-06 2.63718020646531e-06    -91.7608703883876 
1639 CG 5.45087226375237e-06 2.63718020646531e-06    -91.7608703883876 
1640 CG 5.45087226375237e-06 2.63718020646531e-06    -91.7608703883876 
1641 CG 5.45087226375237e-06 2.63718020646531e-06    -91.7608703883876 
1642 CG 5.45087226375237e-06 2.63718020646531e-06    -91.7608703883876 
1643 CG 5.45087226375237e-06 2.63718020646531e-06    -91.7608703883876 
1644 CG 5.45087226375237e-06 2.63718020646531e-06    -91.7608703883876 
1645 CG 5.45087226375237e-06 2.63718020646531e-06    -91.7608703883876 
1646 CG 5.45087226375237e-06 2.63718020646531e-06    -91.7608703883876 
1647 CG 5.45087226375237e-06 2.63718020646531e-06    -91.7608703883876 
1648 CG 5.45087226375237e-06 2.63718020646531e-06    -91.7608703883876 
1649 CG 5.45087226375237e-06 2.63718020646531e-06    -91.7608703883876 
1650 CG 5.45087226375237e-06 2.63718020646531e-06    -91.7608703883876 
1651 CG 5.45087226375237e-06 2.63718020646531e-06    -91.7608703883876 
1652 CG 5.45087226375237e-06 2.63718020646531e-06    -91.7608703883876 
1653 CG 5.45087226375237e-06 2.63718020646531e-06    -91.7608703883876 
1654 CG 5.45087226375237e-06 2.63718020646531e-06    -91.7608703883876 
1655 CG 5.45087226375237e-06 2.63718020646531e-06    -91.7608703883876 
1656 CG 5.45087226375237e-06 2.63718020646531e-06    -91.7608703883876 
1657 CG 5.45087226375237e-06 2.63718020646531e-06    -91.7608703883876 
1658 CG 5.45087226375237e-06 2.63718020646531e-06    -91.7608703883876 
1659 CG 5.45087226375237e-06 2.63718020646531e-06    -91.7608703883876 
1660 CG 5.45087226375237e-06 2.63718020646531e-06    -91.7608703883876 
1661 CG 5.45087226375237e-06 2.63718020646531e-06    -91.7608703883876 
1662 CG 5.45087226375237e-06 2.63718020646531e-06    -91.7608703883876 
1663 CG 5.45087226375237e-06 2.63718020646531e-06    -91.7608703883876 
1664 CG 5.45087226375237e-06 2.63718020646531e-06    -91.7608703883876 
1665 CG 5.45087226375237e-06 2.63718020646531e-06    -91.7608703883876 
1666 CG 5.45087226375237e-06 2.63718020646531e-06    -91.7608703883876 
1667 CG 5.45087226375237e-06 2.63718020646531e-06    -91.7608703883876 
1668 CG 5.45087226375237e-06 2.63718020646531e-06    -91.7608703883876 
1669 CG 5.45087226375237e-06 2.63718020646531e-06    -91.7608703883876 
1670 CG 5.45087226375237e-06 2.63718020646531e-06    -91.7608703883876 
1671 CG 5.45087226375237e-06 2.63718020646531e-06    -91.7608703883876 
1672 CG 5.45087226375237e-06 2.63718020646531e-06    -91.7608703883876 
1673 CG 5.45087226375237e-06 2.63718020646531e-06    -91.7608703883876 
1674 CG 5.45087226375237e-06 2.63718020646531e-06    -91.7608703883876 
1675 CG 5.45087226375237e-06 2.63718020646531e-06    -91.7608703883876 
1676 CG 5.45087226375237e-06 2.63718020646531e-06    -91.7608703883876 
1677 CG 5.45087226375237e-06 2.63718020646531e-06    -91.7608703883876 
1678 CG 5.45087226375237e-06 2.63718020646531e-06    -91.7608703883876 
1679 CG 5.45087226375237e-06 2.63718020646531e-06    -91.7608703883876 
1680 CG 5.45087226375237e-06 2.63718020646531e-06    -91.7608703883876 
1681 CG 5.45087226375237e-06 2.63718020646531e-06    -91.7608703883876 
1682 CG 5.45087226375237e-06 2.63718020646531e-06    -91.7608703883876 
1683 CG 5.45087226375237e-06 2.63718020646531e-06    -91.7608703883876 
1684 CG 5.45087226375237e-06 2.63718020646531e-06    -91.7608703883876 
1685 CG 5.45087226375237e-06 2.63718020646531e-06    -91.7608703883876 
1686 CG 5.45087226375237e-06 2.63718020646531e-06    -91.7608703883876 
1687 CG 5.45087226375237e-06 2.63718020646531e-06    -91.7608703883876 
1688 CG 5.45087226375237e-06 2.63718020646531e-06    -91.7608703883876 
1689 CG 5.45087226375237e-06 2.63718020646531e-06    -91.7608703883876 
1690 CG 5.45087226375237e-06 2.63718020646531e-06    -91.7608703883876 
1691 CG 5.45087226375237e-06 2.63718020646531e-06    -91.7608703883876 
1692 CG 5.45087226375237e-06 2.63718020646531e-06    -91.7608703883876 
1693 CG 5.45087226375237e-06 2.63718020646531e-06    -91.7608703883876 
1694 CG 5.45087226375237e-06 2.63718020646531e-06    -91.7608703883876 
1695 CG 5.45087226375237e-06 2.63718020646531e-06    -91.7608703883876 
1696 CG 5.45087226375237e-06 2.63718020646531e-06    -91.7608703883876 
1697 CG 5.45087226375237e-06 2.63718020646531e-06    -91.7608703883876 
1698 CG 5.45087226375237e-06 2.63718020646531e-06    -91.7608703883876 
1699 CG 5.45087226375237e-06 2.63718020646531e-06    -91.7608703883876 
1700 CG 5.45087226375237e-06 2.63718020646531e-06    -91.7608703883876 
1701 CG 5.45087226375237e-06 2.63718020646531e-06    -91.7608703883876 
1702 CG 5.45087226375237e-06 2.63718020646531e-06    -91.7608703883876 
1703 CG 5.45087226375237e-06 2.63718020646531e-06    -91.7608703883876 
1704 CG 5.45087226375237e-06 2.63718020646531e-06    -91.7608703883876 
1705 CG 5.45087226375237e-06 2.63718020646531e-06    -91.7608703883876 
1706 CG 5.45087226375237e-06 2.63718020646531e-06    -91.7608703883876 
1707 CG 5.45087226375237e-06 2.63718020646531e-06    -91.7608703883876 
1708 CG 5.45087226375237e-06 2.63718020646531e-06    -91.7608703883876 
1709 CG 5.45087226375237e-06 2.63718020646531e-06    -91.7608703883876 
1710 CG 5.45087226375237e-06 2.63718020646531e-06    -91.7608703883876 
1711 CG 5.45087226375237e-06 2.63718020646531e-06    -91.7608703883876 
1712 CG 5.45087226375237e-06 2.63718020646531e-06    -91.7608703883876 
1713 CG 5.45087226375237e-06 2.63718020646531e-06    -91.7608703883876 
1714 CG 5.45087226375237e-06 2.63718020646531e-06    -91.7608703883876 
1715 CG 5.45087226375237e-06 2.63718020646531e-06    -91.7608703883876 
1716 CG 5.45087226375237e-06 2.63718020646531e-06    -91.7608703883876 
1717 CG 5.45087226375237e-06 2.63718020646531e-06    -91.7608703883876 
1718 CG 5.45087226375237e-06 2.63718020646531e-06    -91.7608703883876 
1719 CG 5.45087226375237e-06 2.63718020646531e-06    -91.7608703883876 
1720 CG 5.45087226375237e-06 2.63718020646531e-06    -91.7608703883876 
1721 CG 5.45087226375237e-06 2.63718020646531e-06    -91.7608703883876 
1722 CG 5.45087226375237e-06 2.63718020646531e-06    -91.7608703883876 
1723 CG 5.45087226375237e-06 2.63718020646531e-06    -91.7608703883876 
1724 CG 5.45087226375237e-06 2.63718020646531e-06    -91.7608703883876 
1725 CG 5.45087226375237e-06 2.63718020646531e-06    -91.7608703883876 
1726 CG 5.45087226375237e-06 2.63718020646531e-06    -91.7608703883876 
1727 CG 5.45087226375237e-06 2.63718020646531e-06    -91.7608703883876 
1728 CG 5.45087226375237e-06 2.63718020646531e-06    -91.7608703883876 
