# Energy in atomic unit (1 Eh = 2625.499640 kJ/mol)
# -------------------------------------------------
# step         Hamiltonian           Kinetic energy         Potential energy         Coulomb energy        van_der_Waals energy        Total energy         Thermostat energy       Coulomb LR energy      Coulomb keq0 energy      Coulomb SR energy      Coulomb self energy   Coulomb molecule energy   Lennard-Jones energy     L-J molecule energy    
       0 -3.153685318315130E+000  7.073635621383934E-001 -3.861048880453523E+000 -5.082004467658026E+000  1.220955587204502E+000 -3.153685318315130E+000  0.000000000000000E+000  3.100499216919188E-002  0.000000000000000E+000 -4.451611516907558E+001 -1.784975133542895E+001  5.587440562378733E+001   1.200974170693618E+000  1.998141651088425E-002 
       1 -3.153800958497979E+000  7.250889617390482E-001 -3.878812685136480E+000 -5.100772897147343E+000  1.221960212010863E+000 -3.153723723397432E+000 -7.723510054768306E-005  2.997798712426192E-002  0.000000000000000E+000 -4.451029646050948E+001 -1.784981080119595E+001  5.584122808909698E+001   1.201980952272229E+000  1.997925973863417E-002 
