ITEM: TIMESTEP
       0
ITEM: NUMBER OF ATOMS
     300
ITEM: BOX BOUNDS
    0.000   20.000
    0.000   20.000
    0.000   20.000
ITEM: ATOMS element id molid x y z q vx vy vz
O                    1             1          4.779    1.616    1.772         -0.848    0.000    0.000    0.000
O                    2             2          8.096    4.598    1.452         -0.848    0.000    0.000    0.000
O                    3             3          5.545    8.392    0.880         -0.848    0.000    0.000    0.000
O                    4             4          9.384   11.524    1.927         -0.848    0.000    0.000    0.000
O                    5             5         14.772    2.666    1.695         -0.848    0.000    0.000    0.000
O                    6             6         12.243    2.826    0.876         -0.848    0.000    0.000    0.000
O                    7             7          2.341    0.960    2.752         -0.848    0.000    0.000    0.000
O                    8             8         11.066    2.192    5.196         -0.848    0.000    0.000    0.000
O                    9             9         19.540    0.903    2.131         -0.848    0.000    0.000    0.000
O                   10            10          3.617   18.677    3.174         -0.848    0.000    0.000    0.000
O                   11            11          8.739    1.543    4.295         -0.848    0.000    0.000    0.000
O                   12            12         16.936   19.066    1.313         -0.848    0.000    0.000    0.000
O                   13            13          9.659    7.183    1.224         -0.848    0.000    0.000    0.000
O                   14            14         17.417    6.584    2.423         -0.848    0.000    0.000    0.000
O                   15            15         14.918   10.638    2.137         -0.848    0.000    0.000    0.000
O                   16            16         17.816   19.638    4.075         -0.848    0.000    0.000    0.000
O                   17            17         15.459    8.352    3.460         -0.848    0.000    0.000    0.000
O                   18            18         18.862    4.156    4.054         -0.848    0.000    0.000    0.000
O                   19            19         13.124    0.737    4.491         -0.848    0.000    0.000    0.000
O                   20            20         11.700    7.268    3.649         -0.848    0.000    0.000    0.000
O                   21            21         12.334    4.317    3.287         -0.848    0.000    0.000    0.000
O                   22            22          6.657    6.595    2.686         -0.848    0.000    0.000    0.000
O                   23            23          3.898    6.078    2.682         -0.848    0.000    0.000    0.000
O                   24            24         19.733    7.800    3.717         -0.848    0.000    0.000    0.000
O                   25            25          0.678   13.967    5.666         -0.848    0.000    0.000    0.000
O                   26            26          7.042   18.337    0.426         -0.848    0.000    0.000    0.000
O                   27            27          1.195    5.621    4.328         -0.848    0.000    0.000    0.000
O                   28            28          7.919    2.229   19.898         -0.848    0.000    0.000    0.000
O                   29            29          2.508   11.885    6.098         -0.848    0.000    0.000    0.000
O                   30            30         14.557   14.953    3.839         -0.848    0.000    0.000    0.000
O                   31            31         18.114   14.908    4.109         -0.848    0.000    0.000    0.000
O                   32            32         14.671   19.898    2.360         -0.848    0.000    0.000    0.000
O                   33            33          2.569    2.830    4.863         -0.848    0.000    0.000    0.000
O                   34            34          7.457   19.213    5.279         -0.848    0.000    0.000    0.000
O                   35            35         12.259    9.952    3.688         -0.848    0.000    0.000    0.000
O                   36            36          4.836    3.585    3.418         -0.848    0.000    0.000    0.000
O                   37            37          6.344   17.728    3.142         -0.848    0.000    0.000    0.000
O                   38            38         11.018    5.105   19.274         -0.848    0.000    0.000    0.000
O                   39            39         11.008    9.440    1.180         -0.848    0.000    0.000    0.000
O                   40            40         18.110   17.168    5.768         -0.848    0.000    0.000    0.000
O                   41            41         17.838   14.186    1.116         -0.848    0.000    0.000    0.000
O                   42            42         19.431    1.899    5.455         -0.848    0.000    0.000    0.000
O                   43            43          5.272   11.442    5.331         -0.848    0.000    0.000    0.000
O                   44            44         14.516    5.650    3.764         -0.848    0.000    0.000    0.000
O                   45            45         10.635   12.203    5.922         -0.848    0.000    0.000    0.000
O                   46            46          7.149   13.224    6.005         -0.848    0.000    0.000    0.000
O                   47            47          8.980   12.733    8.293         -0.848    0.000    0.000    0.000
O                   48            48          9.822   18.016    0.764         -0.848    0.000    0.000    0.000
O                   49            49         16.527   12.584    2.927         -0.848    0.000    0.000    0.000
O                   50            50         13.935   17.065    2.124         -0.848    0.000    0.000    0.000
O                   51            51         11.701   15.458    1.410         -0.848    0.000    0.000    0.000
O                   52            52         12.293   14.704    5.588         -0.848    0.000    0.000    0.000
O                   53            53          8.271    6.274    5.207         -0.848    0.000    0.000    0.000
O                   54            54          7.521    3.845    3.898         -0.848    0.000    0.000    0.000
O                   55            55         14.540   14.185    7.250         -0.848    0.000    0.000    0.000
O                   56            56         10.023   16.749    5.894         -0.848    0.000    0.000    0.000
O                   57            57          5.680    0.753   19.159         -0.848    0.000    0.000    0.000
O                   58            58         13.366   11.683    7.562         -0.848    0.000    0.000    0.000
O                   59            59         13.685   18.680    6.311         -0.848    0.000    0.000    0.000
O                   60            60         15.481   16.469    5.952         -0.848    0.000    0.000    0.000
O                   61            61          1.418    8.520    1.541         -0.848    0.000    0.000    0.000
O                   62            62          4.953   16.716    5.473         -0.848    0.000    0.000    0.000
O                   63            63          9.772    9.814    4.865         -0.848    0.000    0.000    0.000
O                   64            64         14.266   10.043    5.606         -0.848    0.000    0.000    0.000
O                   65            65          1.327    9.720    5.154         -0.848    0.000    0.000    0.000
O                   66            66          7.711   15.603    4.568         -0.848    0.000    0.000    0.000
O                   67            67          0.303   18.118    2.088         -0.848    0.000    0.000    0.000
O                   68            68          2.766   15.366    6.704         -0.848    0.000    0.000    0.000
O                   69            69          3.093    7.315   19.811         -0.848    0.000    0.000    0.000
O                   70            70          7.423    9.958    5.851         -0.848    0.000    0.000    0.000
O                   71            71         10.365    7.202    6.957         -0.848    0.000    0.000    0.000
O                   72            72         16.558    4.593    5.176         -0.848    0.000    0.000    0.000
O                   73            73         12.292    9.010    7.035         -0.848    0.000    0.000    0.000
O                   74            74          3.914    8.550    5.165         -0.848    0.000    0.000    0.000
O                   75            75          5.590    6.551    5.674         -0.848    0.000    0.000    0.000
O                   76            76          2.834   15.853    3.586         -0.848    0.000    0.000    0.000
O                   77            77          0.415   16.661    4.228         -0.848    0.000    0.000    0.000
O                   78            78          5.493   18.993    7.467         -0.848    0.000    0.000    0.000
O                   79            79         16.452    2.075    3.719         -0.848    0.000    0.000    0.000
O                   80            80          9.199   14.505    2.270         -0.848    0.000    0.000    0.000
O                   81            81          3.468   19.870    5.694         -0.848    0.000    0.000    0.000
O                   82            82         10.403   15.279    8.413         -0.848    0.000    0.000    0.000
O                   83            83         19.697   12.376    3.770         -0.848    0.000    0.000    0.000
O                   84            84         10.351   19.311    5.468         -0.848    0.000    0.000    0.000
O                   85            85          0.017   19.224    6.159         -0.848    0.000    0.000    0.000
O                   86            86          4.733   13.443    3.280         -0.848    0.000    0.000    0.000
O                   87            87          6.479   14.345    1.310         -0.848    0.000    0.000    0.000
O                   88            88          9.776    1.383    1.762         -0.848    0.000    0.000    0.000
O                   89            89         18.268    3.468    1.576         -0.848    0.000    0.000    0.000
O                   90            90         15.136    5.334    1.144         -0.848    0.000    0.000    0.000
O                   91            91          1.961   11.008    2.858         -0.848    0.000    0.000    0.000
O                   92            92         11.413    4.627    6.501         -0.848    0.000    0.000    0.000
O                   93            93         19.888    4.159    6.968         -0.848    0.000    0.000    0.000
O                   94            94         19.301    2.642    9.302         -0.848    0.000    0.000    0.000
O                   95            95         18.507    0.435    8.116         -0.848    0.000    0.000    0.000
O                   96            96         13.416    6.973   19.852         -0.848    0.000    0.000    0.000
O                   97            97         16.263   19.347    7.173         -0.848    0.000    0.000    0.000
O                   98            98         18.091   14.925    7.591         -0.848    0.000    0.000    0.000
O                   99            99          9.868    0.161   18.800         -0.848    0.000    0.000    0.000
O                  100           100         16.523   16.320   19.607         -0.848    0.000    0.000    0.000
H1                 101             1          4.052    0.988    2.050          0.424    0.000    0.000    0.000
H1                 102             2          8.713    5.301    1.098          0.424    0.000    0.000    0.000
H1                 103             3          5.844    9.346    0.874          0.424    0.000    0.000    0.000
H1                 104             4          9.130   12.473    1.736          0.424    0.000    0.000    0.000
H1                 105             5         14.786    3.653    1.532          0.424    0.000    0.000    0.000
H1                 106             6         11.678    2.012    1.006          0.424    0.000    0.000    0.000
H1                 107             7          2.348    1.638    3.487          0.424    0.000    0.000    0.000
H1                 108             8         11.284    3.137    5.439          0.424    0.000    0.000    0.000
H1                 109             9         18.750    0.592    2.660          0.424    0.000    0.000    0.000
H1                 110            10          3.846   18.705    4.147          0.424    0.000    0.000    0.000
H1                 111            11          8.062    2.279    4.261          0.424    0.000    0.000    0.000
H1                 112            12         17.710   18.875    1.918          0.424    0.000    0.000    0.000
H1                 113            13         10.143    6.591    0.580          0.424    0.000    0.000    0.000
H1                 114            14         16.562    6.359    1.957          0.424    0.000    0.000    0.000
H1                 115            15         13.969   10.820    1.879          0.424    0.000    0.000    0.000
H1                 116            16         17.717   18.699    4.403          0.424    0.000    0.000    0.000
H1                 117            17         16.226    8.055    2.891          0.424    0.000    0.000    0.000
H1                 118            18         18.958    3.219    4.390          0.424    0.000    0.000    0.000
H1                 119            19         13.430    0.117    5.213          0.424    0.000    0.000    0.000
H1                 120            20         11.134    6.802    2.968          0.424    0.000    0.000    0.000
H1                 121            21         12.339    4.086    2.314          0.424    0.000    0.000    0.000
H1                 122            22          7.089    5.928    2.079          0.424    0.000    0.000    0.000
H1                 123            23          4.741    6.345    3.148          0.424    0.000    0.000    0.000
H1                 124            24          0.379    7.941    2.967          0.424    0.000    0.000    0.000
H1                 125            25         19.879   14.445    6.032          0.424    0.000    0.000    0.000
H1                 126            26          6.870   18.088    1.379          0.424    0.000    0.000    0.000
H1                 127            27          0.616    6.409    4.115          0.424    0.000    0.000    0.000
H1                 128            28          7.104    1.755   19.566          0.424    0.000    0.000    0.000
H1                 129            29          2.087   12.694    5.688          0.424    0.000    0.000    0.000
H1                 130            30         15.071   14.098    3.905          0.424    0.000    0.000    0.000
H1                 131            31         19.008   15.244    3.812          0.424    0.000    0.000    0.000
H1                 132            32         15.440   19.387    1.975          0.424    0.000    0.000    0.000
H1                 133            33          2.031    3.671    4.803          0.424    0.000    0.000    0.000
H1                 134            34          6.796   19.207    6.030          0.424    0.000    0.000    0.000
H1                 135            35         12.568    9.001    3.656          0.424    0.000    0.000    0.000
H1                 136            36          4.723    2.830    2.773          0.424    0.000    0.000    0.000
H1                 137            37          6.879   18.117    3.892          0.424    0.000    0.000    0.000
H1                 138            38         10.795    4.560   18.466          0.424    0.000    0.000    0.000
H1                 139            39         10.370   10.210    1.201          0.424    0.000    0.000    0.000
H1                 140            40         17.160   17.024    5.492          0.424    0.000    0.000    0.000
H1                 141            41         17.550   14.806    0.387          0.424    0.000    0.000    0.000
H1                 142            42         19.812    2.619    6.035          0.424    0.000    0.000    0.000
H1                 143            43          4.350   11.553    5.704          0.424    0.000    0.000    0.000
H1                 144            44         13.726    5.049    3.647          0.424    0.000    0.000    0.000
H1                 145            45         10.171   12.335    6.798          0.424    0.000    0.000    0.000
H1                 146            46          7.345   14.062    5.497          0.424    0.000    0.000    0.000
H1                 147            47          9.533   13.547    8.468          0.424    0.000    0.000    0.000
H1                 148            48         10.511   17.374    1.099          0.424    0.000    0.000    0.000
H1                 149            49         16.746   13.131    2.120          0.424    0.000    0.000    0.000
H1                 150            50         14.241   16.435    2.838          0.424    0.000    0.000    0.000
H1                 151            51         12.334   16.119    1.813          0.424    0.000    0.000    0.000
H1                 152            52         11.686   15.414    5.942          0.424    0.000    0.000    0.000
H1                 153            53          9.089    6.373    5.774          0.424    0.000    0.000    0.000
H1                 154            54          7.875    3.937    2.968          0.424    0.000    0.000    0.000
H1                 155            55         13.775   14.666    6.824          0.424    0.000    0.000    0.000
H1                 156            56         10.074   17.701    5.593          0.424    0.000    0.000    0.000
H1                 157            57          4.937    0.552   18.520          0.424    0.000    0.000    0.000
H1                 158            58         12.657   12.107    6.999          0.424    0.000    0.000    0.000
H1                 159            59         12.925   18.080    6.561          0.424    0.000    0.000    0.000
H1                 160            60         15.633   15.860    6.730          0.424    0.000    0.000    0.000
H1                 161            61          1.710    9.464    1.695          0.424    0.000    0.000    0.000
H1                 162            62          4.091   16.282    5.735          0.424    0.000    0.000    0.000
H1                 163            63         10.016    8.856    4.715          0.424    0.000    0.000    0.000
H1                 164            64         15.124    9.556    5.447          0.424    0.000    0.000    0.000
H1                 165            65          2.182    9.202    5.177          0.424    0.000    0.000    0.000
H1                 166            66          8.306   15.231    3.856          0.424    0.000    0.000    0.000
H1                 167            67          0.060   19.021    1.734          0.424    0.000    0.000    0.000
H1                 168            68          2.162   14.678    6.301          0.424    0.000    0.000    0.000
H1                 169            69          4.021    7.687   19.834          0.424    0.000    0.000    0.000
H1                 170            70          6.717   10.582    5.517          0.424    0.000    0.000    0.000
H1                 171            71         10.984    7.983    6.873          0.424    0.000    0.000    0.000
H1                 172            72         16.771    4.431    6.139          0.424    0.000    0.000    0.000
H1                 173            73         12.961    9.234    6.327          0.424    0.000    0.000    0.000
H1                 174            74          4.390    9.429    5.199          0.424    0.000    0.000    0.000
H1                 175            75          6.453    6.651    5.180          0.424    0.000    0.000    0.000
H1                 176            76          1.951   15.935    4.049          0.424    0.000    0.000    0.000
H1                 177            77         19.617   16.783    4.818          0.424    0.000    0.000    0.000
H1                 178            78          5.394   18.188    6.882          0.424    0.000    0.000    0.000
H1                 179            79         16.794    2.738    4.385          0.424    0.000    0.000    0.000
H1                 180            80          8.476   14.451    1.581          0.424    0.000    0.000    0.000
H1                 181            81          3.060    0.752    5.930          0.424    0.000    0.000    0.000
H1                 182            82         11.350   15.369    8.722          0.424    0.000    0.000    0.000
H1                 183            83          0.262   11.841    3.142          0.424    0.000    0.000    0.000
H1                 184            84          9.422   19.681    5.455          0.424    0.000    0.000    0.000
H1                 185            85         19.318   18.531    5.980          0.424    0.000    0.000    0.000
H1                 186            86          4.137   14.211    3.512          0.424    0.000    0.000    0.000
H1                 187            87          5.882   14.983    0.825          0.424    0.000    0.000    0.000
H1                 188            88          9.115    1.771    1.120          0.424    0.000    0.000    0.000
H1                 189            89         18.421    3.686    2.540          0.424    0.000    0.000    0.000
H1                 190            90         14.628    5.941    0.533          0.424    0.000    0.000    0.000
H1                 191            91          2.740   11.632    2.913          0.424    0.000    0.000    0.000
H1                 192            92         11.994    4.458    7.296          0.424    0.000    0.000    0.000
H1                 193            93         19.778    3.852    7.913          0.424    0.000    0.000    0.000
H1                 194            94         18.912    1.769    9.009          0.424    0.000    0.000    0.000
H1                 195            95         19.196    0.158    7.446          0.424    0.000    0.000    0.000
H1                 196            96         13.403    7.972   19.880          0.424    0.000    0.000    0.000
H1                 197            97         15.294   19.562    7.053          0.424    0.000    0.000    0.000
H1                 198            98         17.610   15.093    8.452          0.424    0.000    0.000    0.000
H1                 199            99         10.509   19.684   18.198          0.424    0.000    0.000    0.000
H1                 200           100         15.541   16.158   19.707          0.424    0.000    0.000    0.000
H2                 201             1          5.149    1.328    0.889          0.424    0.000    0.000    0.000
H2                 202             2          7.878    3.949    0.723          0.424    0.000    0.000    0.000
H2                 203             3          5.874    7.945    1.711          0.424    0.000    0.000    0.000
H2                 204             4          9.169   11.306    2.879          0.424    0.000    0.000    0.000
H2                 205             5         15.351    2.450    2.481          0.424    0.000    0.000    0.000
H2                 206             6         13.168    2.647    1.210          0.424    0.000    0.000    0.000
H2                 207             7          1.397    0.750    2.500          0.424    0.000    0.000    0.000
H2                 208             8         11.892    1.734    4.867          0.424    0.000    0.000    0.000
H2                 209             9         19.393    1.846    1.835          0.424    0.000    0.000    0.000
H2                 210            10          2.811   19.244    3.004          0.424    0.000    0.000    0.000
H2                 211            11          9.618    1.913    4.595          0.424    0.000    0.000    0.000
H2                 212            12         17.139   19.872    0.757          0.424    0.000    0.000    0.000
H2                 213            13         10.130    8.062    1.288          0.424    0.000    0.000    0.000
H2                 214            14         18.155    6.017    2.058          0.424    0.000    0.000    0.000
H2                 215            15         14.972    9.760    2.611          0.424    0.000    0.000    0.000
H2                 216            16         18.624    0.054    4.493          0.424    0.000    0.000    0.000
H2                 217            17         14.970    7.551    3.805          0.424    0.000    0.000    0.000
H2                 218            18         19.657    4.694    4.334          0.424    0.000    0.000    0.000
H2                 219            19         13.623    0.537    3.647          0.424    0.000    0.000    0.000
H2                 220            20         12.036    6.602    4.315          0.424    0.000    0.000    0.000
H2                 221            21         11.830    3.617    3.793          0.424    0.000    0.000    0.000
H2                 222            22          7.312    6.880    3.387          0.424    0.000    0.000    0.000
H2                 223            23          3.950    6.347    1.720          0.424    0.000    0.000    0.000
H2                 224            24         18.849    7.516    3.346          0.424    0.000    0.000    0.000
H2                 225            25          0.381   13.279    5.005          0.424    0.000    0.000    0.000
H2                 226            26          8.026   18.309    0.247          0.424    0.000    0.000    0.000
H2                 227            27          2.145    5.836    4.105          0.424    0.000    0.000    0.000
H2                 228            28          8.729    1.856   19.445          0.424    0.000    0.000    0.000
H2                 229            29          1.874   11.114    6.041          0.424    0.000    0.000    0.000
H2                 230            30         13.652   14.830    4.248          0.424    0.000    0.000    0.000
H2                 231            31         17.668   14.432    3.351          0.424    0.000    0.000    0.000
H2                 232            32         14.511    0.722    1.816          0.424    0.000    0.000    0.000
H2                 233            33          3.491    2.999    4.516          0.424    0.000    0.000    0.000
H2                 234            34          7.802    0.142    5.147          0.424    0.000    0.000    0.000
H2                 235            35         11.439   10.016    4.256          0.424    0.000    0.000    0.000
H2                 236            36          4.481    4.427    3.011          0.424    0.000    0.000    0.000
H2                 237            37          5.410   18.083    3.181          0.424    0.000    0.000    0.000
H2                 238            38         11.408    4.512   19.978          0.424    0.000    0.000    0.000
H2                 239            39         11.567    9.448    2.009          0.424    0.000    0.000    0.000
H2                 240            40         18.441   16.362    6.259          0.424    0.000    0.000    0.000
H2                 241            41         18.781   13.893    0.952          0.424    0.000    0.000    0.000
H2                 242            42          0.006    1.083    5.514          0.424    0.000    0.000    0.000
H2                 243            43          5.847   12.202    5.634          0.424    0.000    0.000    0.000
H2                 244            44         15.227    5.170    4.277          0.424    0.000    0.000    0.000
H2                 245            45         10.271   11.387    5.472          0.424    0.000    0.000    0.000
H2                 246            46          7.798   13.132    6.760          0.424    0.000    0.000    0.000
H2                 247            47          8.256   12.668    8.980          0.424    0.000    0.000    0.000
H2                 248            48          9.773   18.803    1.379          0.424    0.000    0.000    0.000
H2                 249            49         15.756   11.981    2.722          0.424    0.000    0.000    0.000
H2                 250            50         14.229   17.993    2.350          0.424    0.000    0.000    0.000
H2                 251            51         12.022   14.530    1.599          0.424    0.000    0.000    0.000
H2                 252            52         11.760   13.884    5.378          0.424    0.000    0.000    0.000
H2                 253            53          8.060    5.304    5.091          0.424    0.000    0.000    0.000
H2                 254            54          6.521    3.812    3.872          0.424    0.000    0.000    0.000
H2                 255            55         14.238   13.282    7.555          0.424    0.000    0.000    0.000
H2                 256            56          9.315   16.273    5.372          0.424    0.000    0.000    0.000
H2                 257            57          6.050   19.896   19.519          0.424    0.000    0.000    0.000
H2                 258            58         13.856   10.999    7.022          0.424    0.000    0.000    0.000
H2                 259            59         14.488   18.126    6.089          0.424    0.000    0.000    0.000
H2                 260            60         15.288   15.926    5.136          0.424    0.000    0.000    0.000
H2                 261            61          2.009    8.096    0.855          0.424    0.000    0.000    0.000
H2                 262            62          5.535   16.048    5.010          0.424    0.000    0.000    0.000
H2                 263            63          8.892    9.864    5.337          0.424    0.000    0.000    0.000
H2                 264            64         13.830   10.246    4.729          0.424    0.000    0.000    0.000
H2                 265            65          0.576    9.113    4.893          0.424    0.000    0.000    0.000
H2                 266            66          7.148   16.335    4.183          0.424    0.000    0.000    0.000
H2                 267            67          1.205   17.857    1.745          0.424    0.000    0.000    0.000
H2                 268            68          2.567   15.454    7.680          0.424    0.000    0.000    0.000
H2                 269            69          2.940    6.852   18.938          0.424    0.000    0.000    0.000
H2                 270            70          7.038    9.039    5.943          0.424    0.000    0.000    0.000
H2                 271            71          9.556    7.473    7.479          0.424    0.000    0.000    0.000
H2                 272            72         17.408    4.685    4.657          0.424    0.000    0.000    0.000
H2                 273            73         12.475    9.557    7.852          0.424    0.000    0.000    0.000
H2                 274            74          4.576    7.808    5.269          0.424    0.000    0.000    0.000
H2                 275            75          5.674    5.814    6.345          0.424    0.000    0.000    0.000
H2                 276            76          3.302   16.736    3.604          0.424    0.000    0.000    0.000
H2                 277            77          0.319   17.237    3.415          0.424    0.000    0.000    0.000
H2                 278            78          5.162   18.780    8.387          0.424    0.000    0.000    0.000
H2                 279            79         16.659    1.149    4.035          0.424    0.000    0.000    0.000
H2                 280            80         10.047   14.812    1.838          0.424    0.000    0.000    0.000
H2                 281            81          4.116   19.601    6.407          0.424    0.000    0.000    0.000
H2                 282            82         10.210   15.978    7.724          0.424    0.000    0.000    0.000
H2                 283            83         18.749   12.371    3.452          0.424    0.000    0.000    0.000
H2                 284            84         11.009    0.063    5.514          0.424    0.000    0.000    0.000
H2                 285            85          0.919   18.792    6.172          0.424    0.000    0.000    0.000
H2                 286            86          4.749   12.793    4.040          0.424    0.000    0.000    0.000
H2                 287            87          5.930   13.770    1.917          0.424    0.000    0.000    0.000
H2                 288            88          9.381    1.370    2.680          0.424    0.000    0.000    0.000
H2                 289            89         17.294    3.553    1.367          0.424    0.000    0.000    0.000
H2                 290            90         14.818    5.464    2.083          0.424    0.000    0.000    0.000
H2                 291            91          1.870   10.512    3.721          0.424    0.000    0.000    0.000
H2                 292            92         10.847    5.435    6.667          0.424    0.000    0.000    0.000
H2                 293            93          0.407    5.014    6.954          0.424    0.000    0.000    0.000
H2                 294            94         19.160    2.757   10.286          0.424    0.000    0.000    0.000
H2                 295            95         17.594    0.254    7.749          0.424    0.000    0.000    0.000
H2                 296            96         12.578    6.641   19.418          0.424    0.000    0.000    0.000
H2                 297            97         16.363   18.388    7.436          0.424    0.000    0.000    0.000
H2                 298            98         17.798   14.048    7.210          0.424    0.000    0.000    0.000
H2                 299            99          9.607   19.558   19.553          0.424    0.000    0.000    0.000
H2                 300           100         16.754   17.215   19.988          0.424    0.000    0.000    0.000
