# Energy in atomic unit (1 Eh = 2625.499640 kJ/mol)
# -------------------------------------------------
# step        Hamiltonian             Total energy           Kinetic energy         Potential energy     Thermostat/barostat en.  External field energy 
       0 -6.335274824904598E+001 -6.346543523465864E+001  3.525810919198016E+000 -6.699124615385665E+001  1.126869856126577E-001  0.000000000000000E+000
