# Pressure of the system
# ----------------
# Pressure:   1 bar = 3.3988273773641905e-09 ua
# step       Total pressure           xx component            yy component            zz component            xy component            xz component            yz component            LR correction     
       0  4.406968371681655E-005  5.283421708297096E-005  3.886541477848916E-005  4.050941928898952E-005  8.078271872576282E-007 -3.502045227097620E-006 -2.523431210058491E-006  0.000000000000000E+000
